^Debug\clear.asm
C:\Users\Dc\Desktop\342 and 343labs\ClearArray\ClearArrayProject\ClearArray\Debug\clear.obj
^Debug\ClearArrayUsingPointer.asm
C:\Users\Dc\Desktop\342 and 343labs\ClearArray\ClearArrayProject\ClearArray\Debug\ClearArrayUsingPointer.obj
