^E:\342 AND 343LABS\FACTORIAL\CONSOLEAPPLICATION3\DEBUG\CONSOLEAPPLICATION3.EXE.EMBED.MANIFEST.RES|E:\342 AND 343LABS\FACTORIAL\CONSOLEAPPLICATION3\DEBUG\SOURCE.OBJ
E:\342 AND 343LABS\FACTORIAL\CONSOLEAPPLICATION3\DEBUG\CONSOLEAPPLICATION3.ILK
E:\342 AND 343LABS\FACTORIAL\CONSOLEAPPLICATION3\DEBUG\CONSOLEAPPLICATION3.EXE
E:\342 AND 343LABS\FACTORIAL\CONSOLEAPPLICATION3\DEBUG\CONSOLEAPPLICATION3.EXE.INTERMEDIATE.MANIFEST
E:\342 AND 343LABS\FACTORIAL\CONSOLEAPPLICATION3\DEBUG\CONSOLEAPPLICATION3.PDB
