^C:\USERS\DC\DESKTOP\343LABS\CONSOLEAPPLICATION3\CONSOLEAPPLICATION3\SOURCE.CPP
C:\USERS\DC\DESKTOP\343LABS\CONSOLEAPPLICATION3\CONSOLEAPPLICATION3\DEBUG\VC120.PDB
C:\USERS\DC\DESKTOP\343LABS\CONSOLEAPPLICATION3\CONSOLEAPPLICATION3\DEBUG\VC120.IDB
C:\USERS\DC\DESKTOP\343LABS\CONSOLEAPPLICATION3\CONSOLEAPPLICATION3\DEBUG\SOURCE.OBJ
