^E:\342 AND 343LABS\MATRIXMULTIPLICATION\CONSOLEAPPLICATION2\DEBUG\CONSOLEAPPLICATION2.EXE.EMBED.MANIFEST.RES|E:\342 AND 343LABS\MATRIXMULTIPLICATION\CONSOLEAPPLICATION2\DEBUG\MAIN.OBJ
/ERRORREPORT:PROMPT /OUT:"E:\342 and 343labs\matrixMultiplication\ConsoleApplication2\Debug\ConsoleApplication2.exe" /INCREMENTAL /NOLOGO kernel32.lib user32.lib gdi32.lib winspool.lib comdlg32.lib advapi32.lib shell32.lib ole32.lib oleaut32.lib uuid.lib odbc32.lib odbccp32.lib /MANIFEST /ManifestFile:"Debug\ConsoleApplication2.exe.intermediate.manifest" /MANIFESTUAC:"level='asInvoker' uiAccess='false'" /DEBUG /PDB:"E:\342 and 343labs\matrixMultiplication\ConsoleApplication2\Debug\ConsoleApplication2.pdb" /SUBSYSTEM:CONSOLE /TLBID:1 /DYNAMICBASE /NXCOMPAT /IMPLIB:"E:\342 and 343labs\matrixMultiplication\ConsoleApplication2\Debug\ConsoleApplication2.lib" /MACHINE:X86 Debug\ConsoleApplication2.exe.embed.manifest.res
Debug\main.obj
