/*
WARNING: Do NOT edit the input and output ports in this file in a text
editor if you plan to continue editing the block that represents it in
the Block Editor! File corruption is VERY likely to occur.
*/
/*
Copyright (C) 1991-2010 Altera Corporation
Your use of Altera Corporation's design tools, logic functions 
and other software and tools, and its AMPP partner logic 
functions, and any output files from any of the foregoing 
(including device programming or simulation files), and any 
associated documentation or information are expressly subject 
to the terms and conditions of the Altera Program License 
Subscription Agreement, Altera MegaCore Function License 
Agreement, or other applicable license agreement, including, 
without limitation, that your use is for the sole purpose of 
programming logic devices manufactured by Altera and sold by 
Altera or its authorized distributors.  Please refer to the 
applicable agreement for further details.
*/
//#pragma file_not_in_maxplusii_format
(header "graphic" (version "1.3"))
(pin
	(input)
	(rect -504 152 -336 168)
	(text "INPUT" (rect 133 0 161 10)(font "Arial" (font_size 6)))
	(text "Clk" (rect 5 0 21 12)(font "Arial" ))
	(pt 168 8)
	(drawing
		(line (pt 92 12)(pt 117 12)(color 128 0 128)(line_width 1))
		(line (pt 92 4)(pt 117 4)(color 128 0 128)(line_width 1))
		(line (pt 121 8)(pt 168 8)(color 128 0 128)(line_width 1))
		(line (pt 92 12)(pt 92 4)(color 128 0 128)(line_width 1))
		(line (pt 117 4)(pt 121 8)(color 128 0 128)(line_width 1))
		(line (pt 117 12)(pt 121 8)(color 128 0 128)(line_width 1))
	)
	(text "VCC" (rect 136 7 156 17)(font "Arial" (font_size 6)))
)
(pin
	(input)
	(rect 352 -264 576 -248)
	(text "INPUT" (rect 189 0 217 10)(font "Arial" (font_size 6)))
	(text "Resetn" (rect 5 0 40 12)(font "Arial" ))
	(pt 224 8)
	(drawing
		(line (pt 148 12)(pt 173 12)(color 128 0 128)(line_width 1))
		(line (pt 148 4)(pt 173 4)(color 128 0 128)(line_width 1))
		(line (pt 177 8)(pt 224 8)(color 128 0 128)(line_width 1))
		(line (pt 148 12)(pt 148 4)(color 128 0 128)(line_width 1))
		(line (pt 173 4)(pt 177 8)(color 128 0 128)(line_width 1))
		(line (pt 173 12)(pt 177 8)(color 128 0 128)(line_width 1))
	)
	(text "VCC" (rect 192 7 212 17)(font "Arial" (font_size 6)))
)
(pin
	(input)
	(rect 368 -296 568 -280)
	(text "INPUT" (rect 165 0 193 10)(font "Arial" (font_size 6)))
	(text "Run" (rect 5 0 25 12)(font "Arial" ))
	(pt 200 8)
	(drawing
		(line (pt 124 12)(pt 149 12)(color 128 0 128)(line_width 1))
		(line (pt 124 4)(pt 149 4)(color 128 0 128)(line_width 1))
		(line (pt 153 8)(pt 200 8)(color 128 0 128)(line_width 1))
		(line (pt 124 12)(pt 124 4)(color 128 0 128)(line_width 1))
		(line (pt 149 4)(pt 153 8)(color 128 0 128)(line_width 1))
		(line (pt 149 12)(pt 153 8)(color 128 0 128)(line_width 1))
	)
	(text "VCC" (rect 168 7 188 17)(font "Arial" (font_size 6)))
)
(pin
	(input)
	(rect -480 -216 -312 -200)
	(text "INPUT" (rect 133 0 161 10)(font "Arial" (font_size 6)))
	(text "Din[15..0]" (rect 5 0 53 12)(font "Arial" ))
	(pt 168 8)
	(drawing
		(line (pt 92 12)(pt 117 12)(color 128 0 128)(line_width 1))
		(line (pt 92 4)(pt 117 4)(color 128 0 128)(line_width 1))
		(line (pt 121 8)(pt 168 8)(color 128 0 128)(line_width 1))
		(line (pt 92 12)(pt 92 4)(color 128 0 128)(line_width 1))
		(line (pt 117 4)(pt 121 8)(color 128 0 128)(line_width 1))
		(line (pt 117 12)(pt 121 8)(color 128 0 128)(line_width 1))
	)
	(text "VCC" (rect 136 7 156 17)(font "Arial" (font_size 6)))
)
(pin
	(output)
	(rect -504 232 -328 248)
	(text "OUTPUT" (rect 125 0 163 10)(font "Arial" (font_size 6)))
	(text "R_1[15..0]" (rect 5 0 56 12)(font "Arial" ))
	(pt 176 8)
	(drawing
		(line (pt 176 8)(pt 124 8)(color 128 0 128)(line_width 1))
		(line (pt 124 4)(pt 98 4)(color 128 0 128)(line_width 1))
		(line (pt 124 12)(pt 98 12)(color 128 0 128)(line_width 1))
		(line (pt 124 12)(pt 124 4)(color 128 0 128)(line_width 1))
		(line (pt 98 4)(pt 94 8)(color 128 0 128)(line_width 1))
		(line (pt 94 8)(pt 98 12)(color 128 0 128)(line_width 1))
		(line (pt 98 12)(pt 94 8)(color 128 0 128)(line_width 1))
	)
	(flipy)
)
(pin
	(output)
	(rect -504 256 -328 272)
	(text "OUTPUT" (rect 125 0 163 10)(font "Arial" (font_size 6)))
	(text "R_0[15..0]" (rect 5 0 56 12)(font "Arial" ))
	(pt 176 8)
	(drawing
		(line (pt 176 8)(pt 124 8)(color 128 0 128)(line_width 1))
		(line (pt 124 4)(pt 98 4)(color 128 0 128)(line_width 1))
		(line (pt 124 12)(pt 98 12)(color 128 0 128)(line_width 1))
		(line (pt 124 12)(pt 124 4)(color 128 0 128)(line_width 1))
		(line (pt 98 4)(pt 94 8)(color 128 0 128)(line_width 1))
		(line (pt 94 8)(pt 98 12)(color 128 0 128)(line_width 1))
		(line (pt 98 12)(pt 94 8)(color 128 0 128)(line_width 1))
	)
	(flipy)
)
(pin
	(output)
	(rect 1176 496 1352 512)
	(text "OUTPUT" (rect 1 0 39 10)(font "Arial" (font_size 6)))
	(text "Bus[15..0]" (rect 90 0 140 12)(font "Arial" ))
	(pt 0 8)
	(drawing
		(line (pt 0 8)(pt 52 8)(color 128 0 128)(line_width 1))
		(line (pt 52 4)(pt 78 4)(color 128 0 128)(line_width 1))
		(line (pt 52 12)(pt 78 12)(color 128 0 128)(line_width 1))
		(line (pt 52 12)(pt 52 4)(color 128 0 128)(line_width 1))
		(line (pt 78 4)(pt 82 8)(color 128 0 128)(line_width 1))
		(line (pt 82 8)(pt 78 12)(color 128 0 128)(line_width 1))
		(line (pt 78 12)(pt 82 8)(color 128 0 128)(line_width 1))
	)
)
(pin
	(output)
	(rect 144 -280 320 -264)
	(text "OUTPUT" (rect 1 0 39 10)(font "Arial" (font_size 6)))
	(text "IR[8..0]" (rect 90 0 127 12)(font "Arial" ))
	(pt 0 8)
	(drawing
		(line (pt 0 8)(pt 52 8)(color 128 0 128)(line_width 1))
		(line (pt 52 4)(pt 78 4)(color 128 0 128)(line_width 1))
		(line (pt 52 12)(pt 78 12)(color 128 0 128)(line_width 1))
		(line (pt 52 12)(pt 52 4)(color 128 0 128)(line_width 1))
		(line (pt 78 4)(pt 82 8)(color 128 0 128)(line_width 1))
		(line (pt 82 8)(pt 78 12)(color 128 0 128)(line_width 1))
		(line (pt 78 12)(pt 82 8)(color 128 0 128)(line_width 1))
	)
)
(pin
	(output)
	(rect 688 -264 904 -248)
	(text "OUTPUT" (rect 1 3 39 13)(font "Arial" (font_size 6)))
	(text "Done" (rect 176 1 201 13)(font "Arial" ))
	(pt 0 8)
	(drawing
		(line (pt 0 8)(pt 52 8)(color 128 0 128)(line_width 1))
		(line (pt 52 12)(pt 78 12)(color 128 0 128)(line_width 1))
		(line (pt 52 4)(pt 78 4)(color 128 0 128)(line_width 1))
		(line (pt 52 4)(pt 52 12)(color 128 0 128)(line_width 1))
		(line (pt 78 12)(pt 82 8)(color 128 0 128)(line_width 1))
		(line (pt 82 8)(pt 78 4)(color 128 0 128)(line_width 1))
		(line (pt 78 4)(pt 82 8)(color 128 0 128)(line_width 1))
	)
	(flipx)
)
(pin
	(output)
	(rect 648 -296 896 -280)
	(text "OUTPUT" (rect 1 0 39 10)(font "Arial" (font_size 6)))
	(text "Tstep[1..0]" (rect 176 0 229 12)(font "Arial" ))
	(pt 0 8)
	(drawing
		(line (pt 0 8)(pt 52 8)(color 128 0 128)(line_width 1))
		(line (pt 52 4)(pt 78 4)(color 128 0 128)(line_width 1))
		(line (pt 52 12)(pt 78 12)(color 128 0 128)(line_width 1))
		(line (pt 52 12)(pt 52 4)(color 128 0 128)(line_width 1))
		(line (pt 78 4)(pt 82 8)(color 128 0 128)(line_width 1))
		(line (pt 82 8)(pt 78 12)(color 128 0 128)(line_width 1))
		(line (pt 78 12)(pt 82 8)(color 128 0 128)(line_width 1))
	)
)
(pin
	(output)
	(rect -504 208 -328 224)
	(text "OUTPUT" (rect 125 0 163 10)(font "Arial" (font_size 6)))
	(text "R_2[15..0]" (rect 5 0 56 12)(font "Arial" ))
	(pt 176 8)
	(drawing
		(line (pt 176 8)(pt 124 8)(color 128 0 128)(line_width 1))
		(line (pt 124 4)(pt 98 4)(color 128 0 128)(line_width 1))
		(line (pt 124 12)(pt 98 12)(color 128 0 128)(line_width 1))
		(line (pt 124 12)(pt 124 4)(color 128 0 128)(line_width 1))
		(line (pt 98 4)(pt 94 8)(color 128 0 128)(line_width 1))
		(line (pt 94 8)(pt 98 12)(color 128 0 128)(line_width 1))
		(line (pt 98 12)(pt 94 8)(color 128 0 128)(line_width 1))
	)
	(flipy)
)
(pin
	(output)
	(rect -504 184 -328 200)
	(text "OUTPUT" (rect 125 0 163 10)(font "Arial" (font_size 6)))
	(text "R_3[15..0]" (rect 5 0 56 12)(font "Arial" ))
	(pt 176 8)
	(drawing
		(line (pt 176 8)(pt 124 8)(color 128 0 128)(line_width 1))
		(line (pt 124 4)(pt 98 4)(color 128 0 128)(line_width 1))
		(line (pt 124 12)(pt 98 12)(color 128 0 128)(line_width 1))
		(line (pt 124 12)(pt 124 4)(color 128 0 128)(line_width 1))
		(line (pt 98 4)(pt 94 8)(color 128 0 128)(line_width 1))
		(line (pt 94 8)(pt 98 12)(color 128 0 128)(line_width 1))
		(line (pt 98 12)(pt 94 8)(color 128 0 128)(line_width 1))
	)
	(flipy)
)
(pin
	(output)
	(rect 488 184 664 200)
	(text "OUTPUT" (rect 1 0 39 10)(font "Arial" (font_size 6)))
	(text "R_4[15..0]" (rect 105 0 156 12)(font "Arial" ))
	(pt 0 8)
	(drawing
		(line (pt 0 8)(pt 52 8)(color 128 0 128)(line_width 1))
		(line (pt 52 4)(pt 78 4)(color 128 0 128)(line_width 1))
		(line (pt 52 12)(pt 78 12)(color 128 0 128)(line_width 1))
		(line (pt 52 12)(pt 52 4)(color 128 0 128)(line_width 1))
		(line (pt 78 4)(pt 82 8)(color 128 0 128)(line_width 1))
		(line (pt 82 8)(pt 78 12)(color 128 0 128)(line_width 1))
		(line (pt 78 12)(pt 82 8)(color 128 0 128)(line_width 1))
	)
)
(pin
	(output)
	(rect 640 312 656 488)
	(text "OUTPUT" (rect 0 1 10 39)(font "Arial" (font_size 6))(vertical))
	(text "R_5[15..0]" (rect 0 105 12 156)(font "Arial" )(vertical))
	(pt 8 0)
	(drawing
		(line (pt 8 0)(pt 8 52)(color 128 0 128)(line_width 1))
		(line (pt 4 52)(pt 4 78)(color 128 0 128)(line_width 1))
		(line (pt 12 52)(pt 12 78)(color 128 0 128)(line_width 1))
		(line (pt 12 52)(pt 4 52)(color 128 0 128)(line_width 1))
		(line (pt 4 78)(pt 8 82)(color 128 0 128)(line_width 1))
		(line (pt 8 82)(pt 12 78)(color 128 0 128)(line_width 1))
		(line (pt 12 78)(pt 8 82)(color 128 0 128)(line_width 1))
	)
	(flipy_rotate90)
)
(pin
	(output)
	(rect 800 312 816 488)
	(text "OUTPUT" (rect 0 1 10 39)(font "Arial" (font_size 6))(vertical))
	(text "R_6[15..0]" (rect 0 105 12 156)(font "Arial" )(vertical))
	(pt 8 0)
	(drawing
		(line (pt 8 0)(pt 8 52)(color 128 0 128)(line_width 1))
		(line (pt 4 52)(pt 4 78)(color 128 0 128)(line_width 1))
		(line (pt 12 52)(pt 12 78)(color 128 0 128)(line_width 1))
		(line (pt 12 52)(pt 4 52)(color 128 0 128)(line_width 1))
		(line (pt 4 78)(pt 8 82)(color 128 0 128)(line_width 1))
		(line (pt 8 82)(pt 12 78)(color 128 0 128)(line_width 1))
		(line (pt 12 78)(pt 8 82)(color 128 0 128)(line_width 1))
	)
	(flipy_rotate90)
)
(pin
	(output)
	(rect 960 320 976 496)
	(text "OUTPUT" (rect 0 1 10 39)(font "Arial" (font_size 6))(vertical))
	(text "R_7[15..0]" (rect 0 105 12 156)(font "Arial" )(vertical))
	(pt 8 0)
	(drawing
		(line (pt 8 0)(pt 8 52)(color 128 0 128)(line_width 1))
		(line (pt 4 52)(pt 4 78)(color 128 0 128)(line_width 1))
		(line (pt 12 52)(pt 12 78)(color 128 0 128)(line_width 1))
		(line (pt 12 52)(pt 4 52)(color 128 0 128)(line_width 1))
		(line (pt 4 78)(pt 8 82)(color 128 0 128)(line_width 1))
		(line (pt 8 82)(pt 12 78)(color 128 0 128)(line_width 1))
		(line (pt 12 78)(pt 8 82)(color 128 0 128)(line_width 1))
	)
	(flipy_rotate90)
)
(symbol
	(rect 272 312 592 480)
	(text "Mux" (rect 296 0 316 12)(font "Arial" ))
	(text "inst2" (rect 296 152 319 164)(font "Arial" ))
	(port
		(pt 0 136)
		(input)
		(text "Gout" (rect 0 0 23 12)(font "Arial" ))
		(text "Gout" (rect 53 131 76 143)(font "Arial" ))
		(line (pt 0 136)(pt 48 136)(line_width 1))
	)
	(port
		(pt 0 120)
		(input)
		(text "Dinout" (rect 0 0 31 12)(font "Arial" ))
		(text "Dinout" (rect 45 115 76 127)(font "Arial" ))
		(line (pt 0 120)(pt 40 120)(line_width 1))
	)
	(port
		(pt 0 104)
		(input)
		(text "Ry[2..0]" (rect 0 0 41 12)(font "Arial" ))
		(text "Ry[2..0]" (rect 37 99 78 111)(font "Arial" ))
		(line (pt 0 104)(pt 32 104)(line_width 3))
	)
	(port
		(pt 48 0)
		(input)
		(text "Din[15..0]" (rect -112 0 -64 12)(font "Arial" ))
		(text "Din[15..0]" (rect 40 24 52 72)(font "Arial" )(vertical))
		(line (pt 48 0)(pt 48 16)(line_width 3))
	)
	(port
		(pt 72 0)
		(input)
		(text "Q0[15..0]" (rect -112 0 -66 12)(font "Arial" ))
		(text "Q0[15..0]" (rect 64 24 76 70)(font "Arial" )(vertical))
		(line (pt 72 0)(pt 72 16)(line_width 3))
	)
	(port
		(pt 96 0)
		(input)
		(text "Q1[15..0]" (rect -112 0 -66 12)(font "Arial" ))
		(text "Q1[15..0]" (rect 88 24 100 70)(font "Arial" )(vertical))
		(line (pt 96 0)(pt 96 16)(line_width 3))
	)
	(port
		(pt 120 0)
		(input)
		(text "Q2[15..0]" (rect -112 0 -66 12)(font "Arial" ))
		(text "Q2[15..0]" (rect 112 24 124 70)(font "Arial" )(vertical))
		(line (pt 120 0)(pt 120 16)(line_width 3))
	)
	(port
		(pt 144 0)
		(input)
		(text "Q3[15..0]" (rect -112 0 -66 12)(font "Arial" ))
		(text "Q3[15..0]" (rect 136 24 148 70)(font "Arial" )(vertical))
		(line (pt 144 0)(pt 144 16)(line_width 3))
	)
	(port
		(pt 168 0)
		(input)
		(text "Q4[15..0]" (rect -112 0 -66 12)(font "Arial" ))
		(text "Q4[15..0]" (rect 160 24 172 70)(font "Arial" )(vertical))
		(line (pt 168 0)(pt 168 16)(line_width 3))
	)
	(port
		(pt 192 0)
		(input)
		(text "Q5[15..0]" (rect -112 0 -66 12)(font "Arial" ))
		(text "Q5[15..0]" (rect 184 24 196 70)(font "Arial" )(vertical))
		(line (pt 192 0)(pt 192 16)(line_width 3))
	)
	(port
		(pt 216 0)
		(input)
		(text "Q6[15..0]" (rect -112 0 -66 12)(font "Arial" ))
		(text "Q6[15..0]" (rect 208 24 220 70)(font "Arial" )(vertical))
		(line (pt 216 0)(pt 216 16)(line_width 3))
	)
	(port
		(pt 240 0)
		(input)
		(text "Q7[15..0]" (rect -112 0 -66 12)(font "Arial" ))
		(text "Q7[15..0]" (rect 232 24 244 70)(font "Arial" )(vertical))
		(line (pt 240 0)(pt 240 16)(line_width 3))
	)
	(port
		(pt 264 0)
		(input)
		(text "G[15..0]" (rect -112 0 -72 12)(font "Arial" ))
		(text "G[15..0]" (rect 256 24 268 64)(font "Arial" )(vertical))
		(line (pt 264 0)(pt 264 16)(line_width 3))
	)
	(port
		(pt 160 168)
		(output)
		(text "res[15..0]" (rect 144 -88 191 -76)(font "Arial" ))
		(text "res[15..0]" (rect 152 84 164 131)(font "Arial" )(vertical))
		(line (pt 160 168)(pt 160 152)(line_width 3))
	)
	(drawing
		(line (pt 24 16)(pt 296 16)(color 128 0 128)(line_width 1))
		(line (pt 24 16)(pt 8 16)(color 128 0 128)(line_width 1))
		(line (pt 48 152)(pt 264 152)(color 128 0 128)(line_width 1))
		(line (pt 48 152)(pt 8 16)(color 128 0 128)(line_width 1))
		(line (pt 264 152)(pt 296 16)(color 128 0 128)(line_width 1))
	)
)
(symbol
	(rect -80 48 64 144)
	(text "Reg" (rect 0 0 20 12)(font "Arial" ))
	(text "R1" (rect 112 80 126 92)(font "Arial" ))
	(port
		(pt 56 0)
		(input)
		(text "D[15..0]" (rect 0 0 40 12)(font "Arial" ))
		(text "D[15..0]" (rect 48 16 60 56)(font "Arial" )(vertical))
		(line (pt 56 0)(pt 56 16)(line_width 3))
	)
	(port
		(pt 32 96)
		(input)
		(text "Clk" (rect 0 0 16 12)(font "Arial" ))
		(text "Clk" (rect 24 51 36 67)(font "Arial" )(vertical))
		(line (pt 32 96)(pt 32 80)(line_width 1))
	)
	(port
		(pt 112 0)
		(input)
		(text "Rin" (rect 0 0 16 12)(font "Arial" ))
		(text "Rin" (rect 104 24 116 40)(font "Arial" )(vertical))
		(line (pt 112 0)(pt 112 16)(line_width 1))
	)
	(port
		(pt 88 96)
		(output)
		(text "Q[15..0]" (rect 0 0 40 12)(font "Arial" ))
		(text "Q[15..0]" (rect 80 23 92 63)(font "Arial" )(vertical))
		(line (pt 88 96)(pt 88 80)(line_width 3))
	)
	(drawing
		(rectangle (rect 16 16 136 80)(color 128 0 128)(line_width 1))
	)
)
(symbol
	(rect 80 48 224 144)
	(text "Reg" (rect 0 0 20 12)(font "Arial" ))
	(text "R2" (rect 112 80 126 92)(font "Arial" ))
	(port
		(pt 56 0)
		(input)
		(text "D[15..0]" (rect 0 0 40 12)(font "Arial" ))
		(text "D[15..0]" (rect 48 16 60 56)(font "Arial" )(vertical))
		(line (pt 56 0)(pt 56 16)(line_width 3))
	)
	(port
		(pt 32 96)
		(input)
		(text "Clk" (rect 0 0 16 12)(font "Arial" ))
		(text "Clk" (rect 24 51 36 67)(font "Arial" )(vertical))
		(line (pt 32 96)(pt 32 80)(line_width 1))
	)
	(port
		(pt 112 0)
		(input)
		(text "Rin" (rect 0 0 16 12)(font "Arial" ))
		(text "Rin" (rect 104 24 116 40)(font "Arial" )(vertical))
		(line (pt 112 0)(pt 112 16)(line_width 1))
	)
	(port
		(pt 88 96)
		(output)
		(text "Q[15..0]" (rect 0 0 40 12)(font "Arial" ))
		(text "Q[15..0]" (rect 80 23 92 63)(font "Arial" )(vertical))
		(line (pt 88 96)(pt 88 80)(line_width 3))
	)
	(drawing
		(rectangle (rect 16 16 136 80)(color 128 0 128)(line_width 1))
	)
)
(symbol
	(rect 240 48 384 144)
	(text "Reg" (rect 0 0 20 12)(font "Arial" ))
	(text "R3" (rect 112 80 126 92)(font "Arial" ))
	(port
		(pt 56 0)
		(input)
		(text "D[15..0]" (rect 0 0 40 12)(font "Arial" ))
		(text "D[15..0]" (rect 48 16 60 56)(font "Arial" )(vertical))
		(line (pt 56 0)(pt 56 16)(line_width 3))
	)
	(port
		(pt 32 96)
		(input)
		(text "Clk" (rect 0 0 16 12)(font "Arial" ))
		(text "Clk" (rect 24 51 36 67)(font "Arial" )(vertical))
		(line (pt 32 96)(pt 32 80)(line_width 1))
	)
	(port
		(pt 112 0)
		(input)
		(text "Rin" (rect 0 0 16 12)(font "Arial" ))
		(text "Rin" (rect 104 24 116 40)(font "Arial" )(vertical))
		(line (pt 112 0)(pt 112 16)(line_width 1))
	)
	(port
		(pt 88 96)
		(output)
		(text "Q[15..0]" (rect 0 0 40 12)(font "Arial" ))
		(text "Q[15..0]" (rect 80 23 92 63)(font "Arial" )(vertical))
		(line (pt 88 96)(pt 88 80)(line_width 3))
	)
	(drawing
		(rectangle (rect 16 16 136 80)(color 128 0 128)(line_width 1))
	)
)
(symbol
	(rect 400 48 544 144)
	(text "Reg" (rect 0 0 20 12)(font "Arial" ))
	(text "R4" (rect 112 80 126 92)(font "Arial" ))
	(port
		(pt 56 0)
		(input)
		(text "D[15..0]" (rect 0 0 40 12)(font "Arial" ))
		(text "D[15..0]" (rect 48 16 60 56)(font "Arial" )(vertical))
		(line (pt 56 0)(pt 56 16)(line_width 3))
	)
	(port
		(pt 32 96)
		(input)
		(text "Clk" (rect 0 0 16 12)(font "Arial" ))
		(text "Clk" (rect 24 51 36 67)(font "Arial" )(vertical))
		(line (pt 32 96)(pt 32 80)(line_width 1))
	)
	(port
		(pt 112 0)
		(input)
		(text "Rin" (rect 0 0 16 12)(font "Arial" ))
		(text "Rin" (rect 104 24 116 40)(font "Arial" )(vertical))
		(line (pt 112 0)(pt 112 16)(line_width 1))
	)
	(port
		(pt 88 96)
		(output)
		(text "Q[15..0]" (rect 0 0 40 12)(font "Arial" ))
		(text "Q[15..0]" (rect 80 23 92 63)(font "Arial" )(vertical))
		(line (pt 88 96)(pt 88 80)(line_width 3))
	)
	(drawing
		(rectangle (rect 16 16 136 80)(color 128 0 128)(line_width 1))
	)
)
(symbol
	(rect 560 48 704 144)
	(text "Reg" (rect 0 0 20 12)(font "Arial" ))
	(text "R5" (rect 112 80 126 92)(font "Arial" ))
	(port
		(pt 56 0)
		(input)
		(text "D[15..0]" (rect 0 0 40 12)(font "Arial" ))
		(text "D[15..0]" (rect 48 16 60 56)(font "Arial" )(vertical))
		(line (pt 56 0)(pt 56 16)(line_width 3))
	)
	(port
		(pt 32 96)
		(input)
		(text "Clk" (rect 0 0 16 12)(font "Arial" ))
		(text "Clk" (rect 24 51 36 67)(font "Arial" )(vertical))
		(line (pt 32 96)(pt 32 80)(line_width 1))
	)
	(port
		(pt 112 0)
		(input)
		(text "Rin" (rect 0 0 16 12)(font "Arial" ))
		(text "Rin" (rect 104 24 116 40)(font "Arial" )(vertical))
		(line (pt 112 0)(pt 112 16)(line_width 1))
	)
	(port
		(pt 88 96)
		(output)
		(text "Q[15..0]" (rect 0 0 40 12)(font "Arial" ))
		(text "Q[15..0]" (rect 80 23 92 63)(font "Arial" )(vertical))
		(line (pt 88 96)(pt 88 80)(line_width 3))
	)
	(drawing
		(rectangle (rect 16 16 136 80)(color 128 0 128)(line_width 1))
	)
)
(symbol
	(rect 720 48 864 144)
	(text "Reg" (rect 0 0 20 12)(font "Arial" ))
	(text "R6" (rect 112 80 126 92)(font "Arial" ))
	(port
		(pt 56 0)
		(input)
		(text "D[15..0]" (rect 0 0 40 12)(font "Arial" ))
		(text "D[15..0]" (rect 48 16 60 56)(font "Arial" )(vertical))
		(line (pt 56 0)(pt 56 16)(line_width 3))
	)
	(port
		(pt 32 96)
		(input)
		(text "Clk" (rect 0 0 16 12)(font "Arial" ))
		(text "Clk" (rect 24 51 36 67)(font "Arial" )(vertical))
		(line (pt 32 96)(pt 32 80)(line_width 1))
	)
	(port
		(pt 112 0)
		(input)
		(text "Rin" (rect 0 0 16 12)(font "Arial" ))
		(text "Rin" (rect 104 24 116 40)(font "Arial" )(vertical))
		(line (pt 112 0)(pt 112 16)(line_width 1))
	)
	(port
		(pt 88 96)
		(output)
		(text "Q[15..0]" (rect 0 0 40 12)(font "Arial" ))
		(text "Q[15..0]" (rect 80 23 92 63)(font "Arial" )(vertical))
		(line (pt 88 96)(pt 88 80)(line_width 3))
	)
	(drawing
		(rectangle (rect 16 16 136 80)(color 128 0 128)(line_width 1))
	)
)
(symbol
	(rect 880 48 1024 144)
	(text "Reg" (rect 0 0 20 12)(font "Arial" ))
	(text "R7" (rect 112 80 126 92)(font "Arial" ))
	(port
		(pt 56 0)
		(input)
		(text "D[15..0]" (rect 0 0 40 12)(font "Arial" ))
		(text "D[15..0]" (rect 48 16 60 56)(font "Arial" )(vertical))
		(line (pt 56 0)(pt 56 16)(line_width 3))
	)
	(port
		(pt 32 96)
		(input)
		(text "Clk" (rect 0 0 16 12)(font "Arial" ))
		(text "Clk" (rect 24 51 36 67)(font "Arial" )(vertical))
		(line (pt 32 96)(pt 32 80)(line_width 1))
	)
	(port
		(pt 112 0)
		(input)
		(text "Rin" (rect 0 0 16 12)(font "Arial" ))
		(text "Rin" (rect 104 24 116 40)(font "Arial" )(vertical))
		(line (pt 112 0)(pt 112 16)(line_width 1))
	)
	(port
		(pt 88 96)
		(output)
		(text "Q[15..0]" (rect 0 0 40 12)(font "Arial" ))
		(text "Q[15..0]" (rect 80 23 92 63)(font "Arial" )(vertical))
		(line (pt 88 96)(pt 88 80)(line_width 3))
	)
	(drawing
		(rectangle (rect 16 16 136 80)(color 128 0 128)(line_width 1))
	)
)
(symbol
	(rect -240 48 -96 144)
	(text "Reg" (rect 0 0 20 12)(font "Arial" ))
	(text "R0" (rect 112 80 126 92)(font "Arial" ))
	(port
		(pt 56 0)
		(input)
		(text "D[15..0]" (rect 0 0 40 12)(font "Arial" ))
		(text "D[15..0]" (rect 48 16 60 56)(font "Arial" )(vertical))
		(line (pt 56 0)(pt 56 16)(line_width 3))
	)
	(port
		(pt 32 96)
		(input)
		(text "Clk" (rect 0 0 16 12)(font "Arial" ))
		(text "Clk" (rect 24 51 36 67)(font "Arial" )(vertical))
		(line (pt 32 96)(pt 32 80)(line_width 1))
	)
	(port
		(pt 112 0)
		(input)
		(text "Rin" (rect 0 0 16 12)(font "Arial" ))
		(text "Rin" (rect 104 24 116 40)(font "Arial" )(vertical))
		(line (pt 112 0)(pt 112 16)(line_width 1))
	)
	(port
		(pt 88 96)
		(output)
		(text "Q[15..0]" (rect 0 0 40 12)(font "Arial" ))
		(text "Q[15..0]" (rect 80 23 92 63)(font "Arial" )(vertical))
		(line (pt 88 96)(pt 88 80)(line_width 3))
	)
	(drawing
		(rectangle (rect 16 16 136 80)(color 128 0 128)(line_width 1))
	)
)
(symbol
	(rect 984 208 1080 352)
	(text "Reg" (rect 81 0 93 20)(font "Arial" )(vertical))
	(text "G" (rect 1 112 13 120)(font "Arial" )(vertical))
	(port
		(pt 96 56)
		(input)
		(text "D[15..0]" (rect 0 0 40 12)(font "Arial" ))
		(text "D[15..0]" (rect 31 48 71 60)(font "Arial" ))
		(line (pt 96 56)(pt 80 56)(line_width 3))
	)
	(port
		(pt 0 32)
		(input)
		(text "Clk" (rect 0 0 16 12)(font "Arial" ))
		(text "Clk" (rect 24 24 40 36)(font "Arial" ))
		(line (pt 0 32)(pt 16 32)(line_width 1))
	)
	(port
		(pt 96 112)
		(input)
		(text "Rin" (rect 0 0 16 12)(font "Arial" ))
		(text "Rin" (rect 50 104 66 116)(font "Arial" ))
		(line (pt 96 112)(pt 80 112)(line_width 1))
	)
	(port
		(pt 0 88)
		(output)
		(text "Q[15..0]" (rect 0 0 40 12)(font "Arial" ))
		(text "Q[15..0]" (rect 24 80 64 92)(font "Arial" ))
		(line (pt 0 88)(pt 16 88)(line_width 3))
	)
	(drawing
		(rectangle (rect 16 16 80 136)(color 128 0 128)(line_width 1))
	)
	(rotate270)
)
(symbol
	(rect 1248 208 1344 352)
	(text "Reg" (rect 81 0 93 20)(font "Arial" )(vertical))
	(text "A" (rect 1 112 13 119)(font "Arial" )(vertical))
	(port
		(pt 96 56)
		(input)
		(text "D[15..0]" (rect 0 0 40 12)(font "Arial" ))
		(text "D[15..0]" (rect 31 48 71 60)(font "Arial" ))
		(line (pt 96 56)(pt 80 56)(line_width 3))
	)
	(port
		(pt 0 32)
		(input)
		(text "Clk" (rect 0 0 16 12)(font "Arial" ))
		(text "Clk" (rect 24 24 40 36)(font "Arial" ))
		(line (pt 0 32)(pt 16 32)(line_width 1))
	)
	(port
		(pt 96 112)
		(input)
		(text "Rin" (rect 0 0 16 12)(font "Arial" ))
		(text "Rin" (rect 50 104 66 116)(font "Arial" ))
		(line (pt 96 112)(pt 80 112)(line_width 1))
	)
	(port
		(pt 0 88)
		(output)
		(text "Q[15..0]" (rect 0 0 40 12)(font "Arial" ))
		(text "Q[15..0]" (rect 24 80 64 92)(font "Arial" ))
		(line (pt 0 88)(pt 16 88)(line_width 3))
	)
	(drawing
		(rectangle (rect 16 16 80 136)(color 128 0 128)(line_width 1))
	)
	(rotate270)
)
(symbol
	(rect 1104 208 1224 376)
	(text "AddSub" (rect 105 112 117 149)(font "Arial" )(vertical))
	(text "inst5" (rect 4 8 16 31)(font "Arial" )(vertical))
	(port
		(pt 120 88)
		(input)
		(text "Rx[15..0]" (rect 0 0 46 12)(font "Arial" ))
		(text "Rx[15..0]" (rect 49 80 95 92)(font "Arial" ))
		(line (pt 104 88)(pt 120 88)(line_width 3))
	)
	(port
		(pt 32 168)
		(input)
		(text "Ry[15..0]" (rect -16 24 31 36)(font "Arial" ))
		(text "Ry[15..0]" (rect 25 89 37 136)(font "Arial" )(vertical))
		(line (pt 32 168)(pt 32 144)(line_width 3))
	)
	(port
		(pt 88 0)
		(input)
		(text "as" (rect 0 24 11 36)(font "Arial" ))
		(text "as" (rect 78 21 90 32)(font "Arial" )(vertical))
		(line (pt 88 0)(pt 88 16)(line_width 1))
	)
	(port
		(pt 0 56)
		(output)
		(text "result[15..0]" (rect -16 24 43 36)(font "Arial" ))
		(text "result[15..0]" (rect 24 48 83 60)(font "Arial" ))
		(line (pt 16 56)(pt 0 56)(line_width 3))
	)
	(drawing
		(rectangle (rect 16 16 104 144)(color 128 0 128)(line_width 1))
	)
	(rotate270)
)
(symbol
	(rect 408 -240 760 -64)
	(text "Control_Unit" (rect 248 80 260 141)(font "Arial" )(vertical))
	(text "cu" (rect 288 152 300 163)(font "Arial" )(vertical))
	(port
		(pt 192 0)
		(input)
		(text "Run" (rect 0 0 20 12)(font "Arial" ))
		(text "Run" (rect 187 21 199 41)(font "Arial" )(vertical))
		(line (pt 192 0)(pt 192 16)(line_width 1))
	)
	(port
		(pt 0 104)
		(input)
		(text "Clk" (rect -16 0 0 12)(font "Arial" ))
		(text "Clk" (rect 24 96 40 108)(font "Arial" ))
		(line (pt 0 104)(pt 16 104)(line_width 1))
	)
	(port
		(pt 168 0)
		(input)
		(text "Resetn" (rect 0 0 35 12)(font "Arial" ))
		(text "Resetn" (rect 160 24 172 59)(font "Arial" )(vertical))
		(line (pt 168 0)(pt 168 16)(line_width 1))
	)
	(port
		(pt 0 32)
		(input)
		(text "IRindata[8..0]" (rect -16 8 51 20)(font "Arial" ))
		(text "IRindata[8..0]" (rect 24 24 91 36)(font "Arial" ))
		(line (pt 0 32)(pt 16 32)(line_width 3))
	)
	(port
		(pt 0 64)
		(output)
		(text "IRen" (rect -16 0 7 12)(font "Arial" ))
		(text "IRen" (rect 24 56 47 68)(font "Arial" ))
		(line (pt 0 64)(pt 16 64)(line_width 1))
	)
	(port
		(pt 24 176)
		(output)
		(text "R0en" (rect -32 0 -7 12)(font "Arial" ))
		(text "R0en" (rect 19 120 31 145)(font "Arial" )(vertical))
		(line (pt 24 176)(pt 24 160)(line_width 1))
	)
	(port
		(pt 48 176)
		(output)
		(text "R1en" (rect -32 0 -7 12)(font "Arial" ))
		(text "R1en" (rect 43 120 55 145)(font "Arial" )(vertical))
		(line (pt 48 176)(pt 48 160)(line_width 1))
	)
	(port
		(pt 72 176)
		(output)
		(text "R2en" (rect -32 0 -7 12)(font "Arial" ))
		(text "R2en" (rect 67 120 79 145)(font "Arial" )(vertical))
		(line (pt 72 176)(pt 72 160)(line_width 1))
	)
	(port
		(pt 96 176)
		(output)
		(text "R3en" (rect -32 0 -7 12)(font "Arial" ))
		(text "R3en" (rect 91 120 103 145)(font "Arial" )(vertical))
		(line (pt 96 176)(pt 96 160)(line_width 1))
	)
	(port
		(pt 120 176)
		(output)
		(text "R4en" (rect -32 0 -7 12)(font "Arial" ))
		(text "R4en" (rect 115 120 127 145)(font "Arial" )(vertical))
		(line (pt 120 176)(pt 120 160)(line_width 1))
	)
	(port
		(pt 144 176)
		(output)
		(text "R5en" (rect -32 0 -7 12)(font "Arial" ))
		(text "R5en" (rect 139 120 151 145)(font "Arial" )(vertical))
		(line (pt 144 176)(pt 144 160)(line_width 1))
	)
	(port
		(pt 168 176)
		(output)
		(text "R6en" (rect -32 0 -7 12)(font "Arial" ))
		(text "R6en" (rect 163 120 175 145)(font "Arial" )(vertical))
		(line (pt 168 176)(pt 168 160)(line_width 1))
	)
	(port
		(pt 192 176)
		(output)
		(text "R7en" (rect -32 0 -7 12)(font "Arial" ))
		(text "R7en" (rect 187 120 199 145)(font "Arial" )(vertical))
		(line (pt 192 176)(pt 192 160)(line_width 1))
	)
	(port
		(pt 352 96)
		(output)
		(text "RAen" (rect -32 -16 -5 -4)(font "Arial" ))
		(text "RAen" (rect 293 88 320 100)(font "Arial" ))
		(line (pt 352 96)(pt 336 96)(line_width 1))
	)
	(port
		(pt 352 144)
		(output)
		(text "RGen" (rect -32 -16 -4 -4)(font "Arial" ))
		(text "RGen" (rect 291 136 319 148)(font "Arial" ))
		(line (pt 352 144)(pt 336 144)(line_width 1))
	)
	(port
		(pt 352 120)
		(output)
		(text "Sign" (rect -32 -16 -11 -4)(font "Arial" ))
		(text "Sign" (rect 299 112 320 124)(font "Arial" ))
		(line (pt 352 120)(pt 336 120)(line_width 1))
	)
	(port
		(pt 352 48)
		(output)
		(text "Dinout" (rect -32 -16 -1 -4)(font "Arial" ))
		(text "Dinout" (rect 286 40 317 52)(font "Arial" ))
		(line (pt 352 48)(pt 336 48)(line_width 1))
	)
	(port
		(pt 352 72)
		(output)
		(text "Gout" (rect -32 -16 -9 -4)(font "Arial" ))
		(text "Gout" (rect 298 64 321 76)(font "Arial" ))
		(line (pt 352 72)(pt 336 72)(line_width 1))
	)
	(port
		(pt 352 24)
		(output)
		(text "Ry[2..0]" (rect -32 -16 9 -4)(font "Arial" ))
		(text "Ry[2..0]" (rect 281 16 322 28)(font "Arial" ))
		(line (pt 352 24)(pt 336 24)(line_width 3))
	)
	(port
		(pt 240 0)
		(output)
		(text "Done" (rect 0 0 25 12)(font "Arial" ))
		(text "Done" (rect 232 24 244 49)(font "Arial" )(vertical))
		(line (pt 240 16)(pt 240 0)(line_width 1))
	)
	(port
		(pt 216 0)
		(output)
		(text "Tstep[1..0]" (rect 0 0 53 12)(font "Arial" ))
		(text "Tstep[1..0]" (rect 208 24 220 77)(font "Arial" )(vertical))
		(line (pt 216 16)(pt 216 0)(line_width 3))
	)
	(drawing
		(rectangle (rect 16 16 336 160)(color 128 0 128)(line_width 1))
	)
	(flipy_rotate90)
)
(symbol
	(rect -56 -240 120 -144)
	(text "IR" (rect 5 0 16 12)(font "Arial" ))
	(text "inst" (rect 8 77 25 89)(font "Arial" ))
	(port
		(pt 0 32)
		(input)
		(text "Din[15..0]" (rect 0 0 48 12)(font "Arial" ))
		(text "Din[15..0]" (rect 21 27 69 39)(font "Arial" ))
		(line (pt 0 32)(pt 16 32)(line_width 3))
	)
	(port
		(pt 176 64)
		(input)
		(text "IRin" (rect 0 0 20 12)(font "Arial" ))
		(text "IRin" (rect 127 56 147 68)(font "Arial" ))
		(line (pt 160 64)(pt 176 64)(line_width 1))
	)
	(port
		(pt 0 64)
		(input)
		(text "clk" (rect 0 0 14 12)(font "Arial" ))
		(text "clk" (rect 21 59 35 71)(font "Arial" ))
		(line (pt 0 64)(pt 16 64)(line_width 1))
	)
	(port
		(pt 176 32)
		(output)
		(text "IRout[8..0]" (rect 0 0 53 12)(font "Arial" ))
		(text "IRout[8..0]" (rect 91 27 144 39)(font "Arial" ))
		(line (pt 176 32)(pt 160 32)(line_width 3))
	)
	(drawing
		(rectangle (rect 16 16 160 80)(color 128 0 128)(line_width 1))
	)
)
(connector
	(pt 120 -176)
	(pt 408 -176)
	(color 128 0 128)
)
(connector
	(pt -152 264)
	(pt -152 144)
	(bus)
	(color 128 0 128)
)
(connector
	(pt 488 192)
	(pt 488 144)
	(bus)
	(color 128 0 128)
)
(connector
	(pt 8 240)
	(pt 8 144)
	(bus)
	(color 128 0 128)
)
(connector
	(pt 488 192)
	(pt 440 192)
	(bus)
	(color 128 0 128)
)
(connector
	(pt 344 264)
	(pt 344 312)
	(bus)
	(color 128 0 128)
)
(connector
	(pt 368 240)
	(pt 368 312)
	(bus)
	(color 128 0 128)
)
(connector
	(pt 440 192)
	(pt 440 312)
	(bus)
	(color 128 0 128)
)
(connector
	(pt -328 240)
	(pt 8 240)
	(bus)
	(color 128 0 128)
)
(connector
	(pt 8 240)
	(pt 368 240)
	(bus)
	(color 128 0 128)
)
(connector
	(pt -328 264)
	(pt -152 264)
	(bus)
	(color 128 0 128)
)
(connector
	(pt -152 264)
	(pt 344 264)
	(bus)
	(color 128 0 128)
)
(connector
	(pt 760 -216)
	(pt 1472 -216)
	(bus)
	(color 128 0 128)
)
(connector
	(pt 1472 616)
	(pt 1472 -216)
	(bus)
	(color 128 0 128)
)
(connector
	(pt 1472 616)
	(pt 208 616)
	(bus)
	(color 128 0 128)
)
(connector
	(pt 272 416)
	(pt 208 416)
	(bus)
	(color 128 0 128)
)
(connector
	(pt 208 416)
	(pt 208 616)
	(bus)
	(color 128 0 128)
)
(connector
	(pt 760 -192)
	(pt 1440 -192)
	(color 128 0 128)
)
(connector
	(pt 1440 -192)
	(pt 1440 592)
	(color 128 0 128)
)
(connector
	(pt 1440 592)
	(pt 232 592)
	(color 128 0 128)
)
(connector
	(pt 272 432)
	(pt 232 432)
	(color 128 0 128)
)
(connector
	(pt 232 432)
	(pt 232 592)
	(color 128 0 128)
)
(connector
	(pt 760 -168)
	(pt 1408 -168)
	(color 128 0 128)
)
(connector
	(pt 1408 -168)
	(pt 1408 568)
	(color 128 0 128)
)
(connector
	(pt 1408 568)
	(pt 256 568)
	(color 128 0 128)
)
(connector
	(pt 256 568)
	(pt 256 448)
	(color 128 0 128)
)
(connector
	(pt 256 448)
	(pt 272 448)
	(color 128 0 128)
)
(connector
	(pt -208 144)
	(pt -208 160)
	(color 128 0 128)
)
(connector
	(pt -48 144)
	(pt -48 160)
	(color 128 0 128)
)
(connector
	(pt -208 160)
	(pt -48 160)
	(color 128 0 128)
)
(connector
	(pt -48 160)
	(pt 112 160)
	(color 128 0 128)
)
(connector
	(pt 432 144)
	(pt 432 160)
	(color 128 0 128)
)
(connector
	(pt 112 160)
	(pt 272 160)
	(color 128 0 128)
)
(connector
	(pt 272 160)
	(pt 432 160)
	(color 128 0 128)
)
(connector
	(pt 432 160)
	(pt 592 160)
	(color 128 0 128)
)
(connector
	(pt 592 160)
	(pt 752 160)
	(color 128 0 128)
)
(connector
	(pt 752 144)
	(pt 752 160)
	(color 128 0 128)
)
(connector
	(pt 592 144)
	(pt 592 160)
	(color 128 0 128)
)
(connector
	(pt 272 144)
	(pt 272 160)
	(color 128 0 128)
)
(connector
	(pt 112 144)
	(pt 112 160)
	(color 128 0 128)
)
(connector
	(pt -56 -176)
	(pt -264 -176)
	(color 128 0 128)
)
(connector
	(pt -264 -176)
	(pt -264 -136)
	(color 128 0 128)
)
(connector
	(pt -264 -136)
	(pt -264 160)
	(color 128 0 128)
)
(connector
	(pt -264 -136)
	(pt 408 -136)
	(color 128 0 128)
)
(connector
	(pt 752 160)
	(pt 912 160)
	(color 128 0 128)
)
(connector
	(pt 912 160)
	(pt 1240 160)
	(color 128 0 128)
)
(connector
	(pt 32 -40)
	(pt 32 48)
	(color 128 0 128)
)
(connector
	(pt 192 -24)
	(pt 192 48)
	(color 128 0 128)
)
(connector
	(pt 352 -8)
	(pt 352 48)
	(color 128 0 128)
)
(connector
	(pt 672 -8)
	(pt 672 48)
	(color 128 0 128)
)
(connector
	(pt 832 -24)
	(pt 832 48)
	(color 128 0 128)
)
(connector
	(pt 992 -40)
	(pt 992 48)
	(color 128 0 128)
)
(connector
	(pt 32 -40)
	(pt 456 -40)
	(color 128 0 128)
)
(connector
	(pt 192 -24)
	(pt 480 -24)
	(color 128 0 128)
)
(connector
	(pt 352 -8)
	(pt 504 -8)
	(color 128 0 128)
)
(connector
	(pt 672 -8)
	(pt 552 -8)
	(color 128 0 128)
)
(connector
	(pt 832 -24)
	(pt 576 -24)
	(color 128 0 128)
)
(connector
	(pt 992 -40)
	(pt 600 -40)
	(color 128 0 128)
)
(connector
	(pt 456 -40)
	(pt 456 -64)
	(color 128 0 128)
)
(connector
	(pt 480 -24)
	(pt 480 -64)
	(color 128 0 128)
)
(connector
	(pt 504 -8)
	(pt 504 -64)
	(color 128 0 128)
)
(connector
	(pt 552 -8)
	(pt 552 -64)
	(color 128 0 128)
)
(connector
	(pt 576 -24)
	(pt 576 -64)
	(color 128 0 128)
)
(connector
	(pt 600 -40)
	(pt 600 -64)
	(color 128 0 128)
)
(connector
	(pt 512 48)
	(pt 512 40)
	(color 128 0 128)
)
(connector
	(pt 512 40)
	(pt 528 40)
	(color 128 0 128)
)
(connector
	(pt 528 -64)
	(pt 528 40)
	(color 128 0 128)
)
(connector
	(pt 760 -96)
	(pt 1088 -96)
	(color 128 0 128)
)
(connector
	(pt 760 -144)
	(pt 1352 -144)
	(color 128 0 128)
)
(connector
	(pt -128 48)
	(pt -128 -64)
	(color 128 0 128)
)
(connector
	(pt -128 -64)
	(pt 432 -64)
	(color 128 0 128)
)
(connector
	(pt 296 48)
	(pt 296 24)
	(bus)
	(color 128 0 128)
)
(connector
	(pt 456 48)
	(pt 456 24)
	(bus)
	(color 128 0 128)
)
(connector
	(pt 616 48)
	(pt 616 24)
	(bus)
	(color 128 0 128)
)
(connector
	(pt 936 48)
	(pt 936 24)
	(bus)
	(color 128 0 128)
)
(connector
	(pt 776 48)
	(pt 776 24)
	(bus)
	(color 128 0 128)
)
(connector
	(pt 136 48)
	(pt 136 24)
	(bus)
	(color 128 0 128)
)
(connector
	(pt -184 48)
	(pt -184 24)
	(bus)
	(color 128 0 128)
)
(connector
	(pt -24 48)
	(pt -24 24)
	(bus)
	(color 128 0 128)
)
(connector
	(pt -184 24)
	(pt -24 24)
	(bus)
	(color 128 0 128)
)
(connector
	(pt -24 24)
	(pt 136 24)
	(bus)
	(color 128 0 128)
)
(connector
	(pt 136 24)
	(pt 296 24)
	(bus)
	(color 128 0 128)
)
(connector
	(pt 296 24)
	(pt 456 24)
	(bus)
	(color 128 0 128)
)
(connector
	(pt 456 24)
	(pt 616 24)
	(bus)
	(color 128 0 128)
)
(connector
	(pt 432 480)
	(pt 432 504)
	(bus)
	(color 128 0 128)
)
(connector
	(pt 1136 416)
	(pt 1376 416)
	(bus)
	(color 128 0 128)
)
(connector
	(pt 616 24)
	(pt 776 24)
	(bus)
	(color 128 0 128)
)
(connector
	(pt 776 24)
	(pt 936 24)
	(bus)
	(color 128 0 128)
)
(connector
	(pt 936 24)
	(pt 1376 24)
	(bus)
	(color 128 0 128)
)
(connector
	(pt 432 504)
	(pt 1136 504)
	(bus)
	(color 128 0 128)
)
(connector
	(pt 1136 504)
	(pt 1176 504)
	(bus)
	(color 128 0 128)
)
(connector
	(pt 624 -240)
	(pt 624 -288)
	(bus)
	(color 128 0 128)
)
(connector
	(pt 624 -288)
	(pt 648 -288)
	(bus)
	(color 128 0 128)
)
(connector
	(pt 648 -240)
	(pt 648 -256)
	(color 128 0 128)
)
(connector
	(pt 648 -256)
	(pt 688 -256)
	(color 128 0 128)
)
(connector
	(pt 576 -240)
	(pt 576 -256)
	(color 128 0 128)
)
(connector
	(pt 600 -240)
	(pt 600 -288)
	(color 128 0 128)
)
(connector
	(pt 568 -288)
	(pt 600 -288)
	(color 128 0 128)
)
(connector
	(pt 144 -208)
	(pt 144 -272)
	(bus)
	(color 128 0 128)
)
(connector
	(pt 120 -208)
	(pt 144 -208)
	(bus)
	(color 128 0 128)
)
(connector
	(pt 144 -208)
	(pt 408 -208)
	(bus)
	(color 128 0 128)
)
(connector
	(pt -288 312)
	(pt 320 312)
	(bus)
	(color 128 0 128)
)
(connector
	(pt 392 216)
	(pt 392 312)
	(bus)
	(color 128 0 128)
)
(connector
	(pt 168 144)
	(pt 168 216)
	(bus)
	(color 128 0 128)
)
(connector
	(pt -328 216)
	(pt 168 216)
	(bus)
	(color 128 0 128)
)
(connector
	(pt 168 216)
	(pt 392 216)
	(bus)
	(color 128 0 128)
)
(connector
	(pt -264 160)
	(pt -208 160)
	(color 128 0 128)
)
(connector
	(pt -336 160)
	(pt -264 160)
	(color 128 0 128)
)
(connector
	(pt 760 -120)
	(pt 1192 -120)
	(color 128 0 128)
)
(connector
	(pt 1192 -120)
	(pt 1192 208)
	(color 128 0 128)
)
(connector
	(pt 1136 416)
	(pt 1136 504)
	(bus)
	(color 128 0 128)
)
(connector
	(pt 1136 376)
	(pt 1136 416)
	(bus)
	(color 128 0 128)
)
(connector
	(pt 1240 240)
	(pt 1248 240)
	(color 128 0 128)
)
(connector
	(pt 1240 160)
	(pt 1240 240)
	(color 128 0 128)
)
(connector
	(pt 1352 320)
	(pt 1344 320)
	(color 128 0 128)
)
(connector
	(pt 1352 -144)
	(pt 1352 320)
	(color 128 0 128)
)
(connector
	(pt 1376 264)
	(pt 1344 264)
	(bus)
	(color 128 0 128)
)
(connector
	(pt 1376 24)
	(pt 1376 264)
	(bus)
	(color 128 0 128)
)
(connector
	(pt 1376 264)
	(pt 1376 416)
	(bus)
	(color 128 0 128)
)
(connector
	(pt 1224 296)
	(pt 1248 296)
	(bus)
	(color 128 0 128)
)
(connector
	(pt 1088 -96)
	(pt 1088 320)
	(color 128 0 128)
)
(connector
	(pt 1088 320)
	(pt 1080 320)
	(color 128 0 128)
)
(connector
	(pt 1104 264)
	(pt 1080 264)
	(bus)
	(color 128 0 128)
)
(connector
	(pt 912 144)
	(pt 912 160)
	(color 128 0 128)
)
(connector
	(pt 912 160)
	(pt 912 240)
	(color 128 0 128)
)
(connector
	(pt 912 240)
	(pt 984 240)
	(color 128 0 128)
)
(connector
	(pt 328 192)
	(pt 328 144)
	(bus)
	(color 128 0 128)
)
(connector
	(pt 968 264)
	(pt 512 264)
	(bus)
	(color 128 0 128)
)
(connector
	(pt 808 240)
	(pt 488 240)
	(bus)
	(color 128 0 128)
)
(connector
	(pt 416 192)
	(pt 416 312)
	(bus)
	(color 128 0 128)
)
(connector
	(pt 488 240)
	(pt 488 312)
	(bus)
	(color 128 0 128)
)
(connector
	(pt 512 264)
	(pt 512 312)
	(bus)
	(color 128 0 128)
)
(connector
	(pt -328 192)
	(pt 328 192)
	(bus)
	(color 128 0 128)
)
(connector
	(pt 328 192)
	(pt 416 192)
	(bus)
	(color 128 0 128)
)
(connector
	(pt 808 144)
	(pt 808 240)
	(bus)
	(color 128 0 128)
)
(connector
	(pt 808 240)
	(pt 808 312)
	(bus)
	(color 128 0 128)
)
(connector
	(pt 536 312)
	(pt 536 296)
	(bus)
	(color 128 0 128)
)
(connector
	(pt 536 296)
	(pt 984 296)
	(bus)
	(color 128 0 128)
)
(connector
	(pt 968 144)
	(pt 968 264)
	(bus)
	(color 128 0 128)
)
(connector
	(pt 968 264)
	(pt 968 320)
	(bus)
	(color 128 0 128)
)
(connector
	(pt 648 216)
	(pt 464 216)
	(bus)
	(color 128 0 128)
)
(connector
	(pt 464 216)
	(pt 464 312)
	(bus)
	(color 128 0 128)
)
(connector
	(pt 648 144)
	(pt 648 216)
	(bus)
	(color 128 0 128)
)
(connector
	(pt 648 216)
	(pt 648 312)
	(bus)
	(color 128 0 128)
)
(connector
	(pt -288 -208)
	(pt -56 -208)
	(bus)
	(color 128 0 128)
)
(connector
	(pt -312 -208)
	(pt -288 -208)
	(bus)
	(color 128 0 128)
)
(connector
	(pt -288 -208)
	(pt -288 312)
	(bus)
	(color 128 0 128)
)
(junction (pt -24 24))
(junction (pt 136 24))
(junction (pt 296 24))
(junction (pt 456 24))
(junction (pt 616 24))
(junction (pt 776 24))
(junction (pt -48 160))
(junction (pt -208 160))
(junction (pt 8 240))
(junction (pt -152 264))
(junction (pt 112 160))
(junction (pt 272 160))
(junction (pt 432 160))
(junction (pt 592 160))
(junction (pt 752 160))
(junction (pt 912 160))
(junction (pt -264 160))
(junction (pt -264 -136))
(junction (pt 1136 416))
(junction (pt 936 24))
(junction (pt 1136 504))
(junction (pt 144 -208))
(junction (pt -288 -208))
(junction (pt 168 216))
(junction (pt 328 192))
(junction (pt 1376 264))
(junction (pt 648 216))
(junction (pt 808 240))
(junction (pt 968 264))
