/*
WARNING: Do NOT edit the input and output ports in this file in a text
editor if you plan to continue editing the block that represents it in
the Block Editor! File corruption is VERY likely to occur.
*/
/*
Copyright (C) 1991-2010 Altera Corporation
Your use of Altera Corporation's design tools, logic functions 
and other software and tools, and its AMPP partner logic 
functions, and any output files from any of the foregoing 
(including device programming or simulation files), and any 
associated documentation or information are expressly subject 
to the terms and conditions of the Altera Program License 
Subscription Agreement, Altera MegaCore Function License 
Agreement, or other applicable license agreement, including, 
without limitation, that your use is for the sole purpose of 
programming logic devices manufactured by Altera and sold by 
Altera or its authorized distributors.  Please refer to the 
applicable agreement for further details.
*/
//#pragma file_not_in_maxplusii_format
(header "graphic" (version "1.3"))
(pin
	(input)
	(rect 64 96 232 112)
	(text "INPUT" (rect 133 0 161 10)(font "Arial" (font_size 6)))
	(text "data[7..0]" (rect 5 0 52 12)(font "Arial" ))
	(pt 168 8)
	(drawing
		(line (pt 92 12)(pt 117 12)(line_width 1))
		(line (pt 92 4)(pt 117 4)(line_width 1))
		(line (pt 121 8)(pt 168 8)(line_width 1))
		(line (pt 92 12)(pt 92 4)(line_width 1))
		(line (pt 117 4)(pt 121 8)(line_width 1))
		(line (pt 117 12)(pt 121 8)(line_width 1))
	)
	(text "VCC" (rect 136 7 156 17)(font "Arial" (font_size 6)))
)
(pin
	(input)
	(rect 64 112 232 128)
	(text "INPUT" (rect 133 0 161 10)(font "Arial" (font_size 6)))
	(text "clock" (rect 5 0 30 12)(font "Arial" ))
	(pt 168 8)
	(drawing
		(line (pt 92 12)(pt 117 12)(line_width 1))
		(line (pt 92 4)(pt 117 4)(line_width 1))
		(line (pt 121 8)(pt 168 8)(line_width 1))
		(line (pt 92 12)(pt 92 4)(line_width 1))
		(line (pt 117 4)(pt 121 8)(line_width 1))
		(line (pt 117 12)(pt 121 8)(line_width 1))
	)
	(text "VCC" (rect 136 7 156 17)(font "Arial" (font_size 6)))
)
(pin
	(input)
	(rect 64 128 232 144)
	(text "INPUT" (rect 133 0 161 10)(font "Arial" (font_size 6)))
	(text "enable" (rect 5 0 36 12)(font "Arial" ))
	(pt 168 8)
	(drawing
		(line (pt 92 12)(pt 117 12)(line_width 1))
		(line (pt 92 4)(pt 117 4)(line_width 1))
		(line (pt 121 8)(pt 168 8)(line_width 1))
		(line (pt 92 12)(pt 92 4)(line_width 1))
		(line (pt 117 4)(pt 121 8)(line_width 1))
		(line (pt 117 12)(pt 121 8)(line_width 1))
	)
	(text "VCC" (rect 136 7 156 17)(font "Arial" (font_size 6)))
)
(pin
	(output)
	(rect 376 120 552 136)
	(text "OUTPUT" (rect 1 0 39 10)(font "Arial" (font_size 6)))
	(text "q[7..0]" (rect 90 0 121 12)(font "Arial" ))
	(pt 0 8)
	(drawing
		(line (pt 0 8)(pt 52 8)(line_width 1))
		(line (pt 52 4)(pt 78 4)(line_width 1))
		(line (pt 52 12)(pt 78 12)(line_width 1))
		(line (pt 52 12)(pt 52 4)(line_width 1))
		(line (pt 78 4)(pt 82 8)(line_width 1))
		(line (pt 82 8)(pt 78 12)(line_width 1))
		(line (pt 78 12)(pt 82 8)(line_width 1))
	)
)
(symbol
	(rect 232 72 376 168)
	(text "eight_bit_register" (rect 23 1 139 17)(font "Arial" (font_size 10)))
	(text "inst" (rect 8 80 25 92)(font "Arial" ))
	(port
		(pt 0 32)
		(input)
		(text "data[7..0]" (rect 0 0 53 14)(font "Arial" (font_size 8)))
		(text "data[7..0]" (rect 20 26 73 40)(font "Arial" (font_size 8)))
		(line (pt 0 32)(pt 16 32)(line_width 3))
	)
	(port
		(pt 0 48)
		(input)
		(text "clock" (rect 0 0 29 14)(font "Arial" (font_size 8)))
		(text "clock" (rect 26 42 55 56)(font "Arial" (font_size 8)))
		(line (pt 0 48)(pt 16 48)(line_width 1))
	)
	(port
		(pt 0 64)
		(input)
		(text "enable" (rect 0 0 37 14)(font "Arial" (font_size 8)))
		(text "enable" (rect 20 58 57 72)(font "Arial" (font_size 8)))
		(line (pt 0 64)(pt 16 64)(line_width 1))
	)
	(port
		(pt 144 56)
		(output)
		(text "q[7..0]" (rect 0 0 35 14)(font "Arial" (font_size 8)))
		(text "q[7..0]" (rect 95 50 130 64)(font "Arial" (font_size 8)))
		(line (pt 144 56)(pt 128 56)(line_width 3))
	)
	(drawing
		(text "DFF" (rect 109 17 131 29)(font "Arial" ))
		(line (pt 16 16)(pt 128 16)(line_width 1))
		(line (pt 128 16)(pt 128 80)(line_width 1))
		(line (pt 128 80)(pt 16 80)(line_width 1))
		(line (pt 16 80)(pt 16 16)(line_width 1))
		(line (pt 16 42)(pt 22 48)(line_width 1))
		(line (pt 22 48)(pt 16 54)(line_width 1))
	)
)
