/*
WARNING: Do NOT edit the input and output ports in this file in a text
editor if you plan to continue editing the block that represents it in
the Block Editor! File corruption is VERY likely to occur.
*/
/*
Copyright (C) 1991-2010 Altera Corporation
Your use of Altera Corporation's design tools, logic functions 
and other software and tools, and its AMPP partner logic 
functions, and any output files from any of the foregoing 
(including device programming or simulation files), and any 
associated documentation or information are expressly subject 
to the terms and conditions of the Altera Program License 
Subscription Agreement, Altera MegaCore Function License 
Agreement, or other applicable license agreement, including, 
without limitation, that your use is for the sole purpose of 
programming logic devices manufactured by Altera and sold by 
Altera or its authorized distributors.  Please refer to the 
applicable agreement for further details.
*/
//#pragma file_not_in_maxplusii_format
(header "graphic" (version "1.3"))
(pin
	(input)
	(rect -16 168 152 184)
	(text "INPUT" (rect 133 0 161 10)(font "Arial" (font_size 6)))
	(text "reset" (rect 5 0 29 12)(font "Arial" ))
	(pt 168 8)
	(drawing
		(line (pt 92 12)(pt 117 12)(line_width 1))
		(line (pt 92 4)(pt 117 4)(line_width 1))
		(line (pt 121 8)(pt 168 8)(line_width 1))
		(line (pt 92 12)(pt 92 4)(line_width 1))
		(line (pt 117 4)(pt 121 8)(line_width 1))
		(line (pt 117 12)(pt 121 8)(line_width 1))
	)
	(text "VCC" (rect 136 7 156 17)(font "Arial" (font_size 6)))
)
(pin
	(input)
	(rect -16 184 152 200)
	(text "INPUT" (rect 133 0 161 10)(font "Arial" (font_size 6)))
	(text "clock" (rect 5 0 30 12)(font "Arial" ))
	(pt 168 8)
	(drawing
		(line (pt 92 12)(pt 117 12)(line_width 1))
		(line (pt 92 4)(pt 117 4)(line_width 1))
		(line (pt 121 8)(pt 168 8)(line_width 1))
		(line (pt 92 12)(pt 92 4)(line_width 1))
		(line (pt 117 4)(pt 121 8)(line_width 1))
		(line (pt 117 12)(pt 121 8)(line_width 1))
	)
	(text "VCC" (rect 136 7 156 17)(font "Arial" (font_size 6)))
)
(pin
	(input)
	(rect -16 200 152 216)
	(text "INPUT" (rect 133 0 161 10)(font "Arial" (font_size 6)))
	(text "w[1..0]" (rect 5 0 38 12)(font "Arial" ))
	(pt 168 8)
	(drawing
		(line (pt 92 12)(pt 117 12)(line_width 1))
		(line (pt 92 4)(pt 117 4)(line_width 1))
		(line (pt 121 8)(pt 168 8)(line_width 1))
		(line (pt 92 12)(pt 92 4)(line_width 1))
		(line (pt 117 4)(pt 121 8)(line_width 1))
		(line (pt 117 12)(pt 121 8)(line_width 1))
	)
	(text "VCC" (rect 136 7 156 17)(font "Arial" (font_size 6)))
)
(pin
	(output)
	(rect 320 184 336 360)
	(text "OUTPUT" (rect 6 1 16 39)(font "Arial" (font_size 6))(vertical))
	(text "counter[3..0]" (rect 4 90 16 152)(font "Arial" )(vertical))
	(pt 8 0)
	(drawing
		(line (pt 8 0)(pt 8 52)(line_width 1))
		(line (pt 12 52)(pt 12 78)(line_width 1))
		(line (pt 4 52)(pt 4 78)(line_width 1))
		(line (pt 4 52)(pt 12 52)(line_width 1))
		(line (pt 12 78)(pt 8 82)(line_width 1))
		(line (pt 8 82)(pt 4 78)(line_width 1))
		(line (pt 4 78)(pt 8 82)(line_width 1))
	)
	(rotate270)
)
(pin
	(output)
	(rect 560 168 736 184)
	(text "OUTPUT" (rect 1 0 39 10)(font "Arial" (font_size 6)))
	(text "segment_a" (rect 90 0 144 12)(font "Arial" ))
	(pt 0 8)
	(drawing
		(line (pt 0 8)(pt 52 8)(line_width 1))
		(line (pt 52 4)(pt 78 4)(line_width 1))
		(line (pt 52 12)(pt 78 12)(line_width 1))
		(line (pt 52 12)(pt 52 4)(line_width 1))
		(line (pt 78 4)(pt 82 8)(line_width 1))
		(line (pt 82 8)(pt 78 12)(line_width 1))
		(line (pt 78 12)(pt 82 8)(line_width 1))
	)
)
(pin
	(output)
	(rect 560 184 736 200)
	(text "OUTPUT" (rect 1 0 39 10)(font "Arial" (font_size 6)))
	(text "segment_b" (rect 90 0 144 12)(font "Arial" ))
	(pt 0 8)
	(drawing
		(line (pt 0 8)(pt 52 8)(line_width 1))
		(line (pt 52 4)(pt 78 4)(line_width 1))
		(line (pt 52 12)(pt 78 12)(line_width 1))
		(line (pt 52 12)(pt 52 4)(line_width 1))
		(line (pt 78 4)(pt 82 8)(line_width 1))
		(line (pt 82 8)(pt 78 12)(line_width 1))
		(line (pt 78 12)(pt 82 8)(line_width 1))
	)
)
(pin
	(output)
	(rect 560 200 736 216)
	(text "OUTPUT" (rect 1 0 39 10)(font "Arial" (font_size 6)))
	(text "segment_c" (rect 90 0 144 12)(font "Arial" ))
	(pt 0 8)
	(drawing
		(line (pt 0 8)(pt 52 8)(line_width 1))
		(line (pt 52 4)(pt 78 4)(line_width 1))
		(line (pt 52 12)(pt 78 12)(line_width 1))
		(line (pt 52 12)(pt 52 4)(line_width 1))
		(line (pt 78 4)(pt 82 8)(line_width 1))
		(line (pt 82 8)(pt 78 12)(line_width 1))
		(line (pt 78 12)(pt 82 8)(line_width 1))
	)
)
(pin
	(output)
	(rect 560 216 736 232)
	(text "OUTPUT" (rect 1 0 39 10)(font "Arial" (font_size 6)))
	(text "segment_d" (rect 90 0 144 12)(font "Arial" ))
	(pt 0 8)
	(drawing
		(line (pt 0 8)(pt 52 8)(line_width 1))
		(line (pt 52 4)(pt 78 4)(line_width 1))
		(line (pt 52 12)(pt 78 12)(line_width 1))
		(line (pt 52 12)(pt 52 4)(line_width 1))
		(line (pt 78 4)(pt 82 8)(line_width 1))
		(line (pt 82 8)(pt 78 12)(line_width 1))
		(line (pt 78 12)(pt 82 8)(line_width 1))
	)
)
(pin
	(output)
	(rect 560 232 736 248)
	(text "OUTPUT" (rect 1 0 39 10)(font "Arial" (font_size 6)))
	(text "segment_e" (rect 90 0 144 12)(font "Arial" ))
	(pt 0 8)
	(drawing
		(line (pt 0 8)(pt 52 8)(line_width 1))
		(line (pt 52 4)(pt 78 4)(line_width 1))
		(line (pt 52 12)(pt 78 12)(line_width 1))
		(line (pt 52 12)(pt 52 4)(line_width 1))
		(line (pt 78 4)(pt 82 8)(line_width 1))
		(line (pt 82 8)(pt 78 12)(line_width 1))
		(line (pt 78 12)(pt 82 8)(line_width 1))
	)
)
(pin
	(output)
	(rect 560 248 736 264)
	(text "OUTPUT" (rect 1 0 39 10)(font "Arial" (font_size 6)))
	(text "segment_f" (rect 90 0 143 12)(font "Arial" ))
	(pt 0 8)
	(drawing
		(line (pt 0 8)(pt 52 8)(line_width 1))
		(line (pt 52 4)(pt 78 4)(line_width 1))
		(line (pt 52 12)(pt 78 12)(line_width 1))
		(line (pt 52 12)(pt 52 4)(line_width 1))
		(line (pt 78 4)(pt 82 8)(line_width 1))
		(line (pt 82 8)(pt 78 12)(line_width 1))
		(line (pt 78 12)(pt 82 8)(line_width 1))
	)
)
(pin
	(output)
	(rect 560 264 736 280)
	(text "OUTPUT" (rect 1 0 39 10)(font "Arial" (font_size 6)))
	(text "segment_g" (rect 90 0 144 12)(font "Arial" ))
	(pt 0 8)
	(drawing
		(line (pt 0 8)(pt 52 8)(line_width 1))
		(line (pt 52 4)(pt 78 4)(line_width 1))
		(line (pt 52 12)(pt 78 12)(line_width 1))
		(line (pt 52 12)(pt 52 4)(line_width 1))
		(line (pt 78 4)(pt 82 8)(line_width 1))
		(line (pt 82 8)(pt 78 12)(line_width 1))
		(line (pt 78 12)(pt 82 8)(line_width 1))
	)
)
(symbol
	(rect 152 144 304 240)
	(text "Part_2" (rect 5 0 36 12)(font "Arial" ))
	(text "inst" (rect 8 80 25 92)(font "Arial" ))
	(port
		(pt 0 32)
		(input)
		(text "reset" (rect 0 0 24 12)(font "Arial" ))
		(text "reset" (rect 21 27 45 39)(font "Arial" ))
		(line (pt 0 32)(pt 16 32)(line_width 1))
	)
	(port
		(pt 0 48)
		(input)
		(text "clock" (rect 0 0 25 12)(font "Arial" ))
		(text "clock" (rect 21 43 46 55)(font "Arial" ))
		(line (pt 0 48)(pt 16 48)(line_width 1))
	)
	(port
		(pt 0 64)
		(input)
		(text "w[1..0]" (rect 0 0 33 12)(font "Arial" ))
		(text "w[1..0]" (rect 21 59 54 71)(font "Arial" ))
		(line (pt 0 64)(pt 16 64)(line_width 3))
	)
	(port
		(pt 152 32)
		(output)
		(text "counter[3..0]" (rect 0 0 62 12)(font "Arial" ))
		(text "counter[3..0]" (rect 69 27 131 39)(font "Arial" ))
		(line (pt 152 32)(pt 136 32)(line_width 3))
	)
	(drawing
		(rectangle (rect 16 16 136 80)(line_width 1))
	)
)
(symbol
	(rect 384 144 560 304)
	(text "dec_7seg_HEX" (rect 5 0 79 12)(font "Arial" ))
	(text "inst1" (rect 8 144 31 156)(font "Arial" ))
	(port
		(pt 0 32)
		(input)
		(text "hex_digit[3..0]" (rect 0 0 69 12)(font "Arial" ))
		(text "hex_digit[3..0]" (rect 21 27 90 39)(font "Arial" ))
		(line (pt 0 32)(pt 16 32)(line_width 3))
	)
	(port
		(pt 176 32)
		(output)
		(text "segment_a" (rect 0 0 54 12)(font "Arial" ))
		(text "segment_a" (rect 101 27 155 39)(font "Arial" ))
		(line (pt 176 32)(pt 160 32)(line_width 1))
	)
	(port
		(pt 176 48)
		(output)
		(text "segment_b" (rect 0 0 54 12)(font "Arial" ))
		(text "segment_b" (rect 101 43 155 55)(font "Arial" ))
		(line (pt 176 48)(pt 160 48)(line_width 1))
	)
	(port
		(pt 176 64)
		(output)
		(text "segment_c" (rect 0 0 54 12)(font "Arial" ))
		(text "segment_c" (rect 101 59 155 71)(font "Arial" ))
		(line (pt 176 64)(pt 160 64)(line_width 1))
	)
	(port
		(pt 176 80)
		(output)
		(text "segment_d" (rect 0 0 54 12)(font "Arial" ))
		(text "segment_d" (rect 101 75 155 87)(font "Arial" ))
		(line (pt 176 80)(pt 160 80)(line_width 1))
	)
	(port
		(pt 176 96)
		(output)
		(text "segment_e" (rect 0 0 54 12)(font "Arial" ))
		(text "segment_e" (rect 101 91 155 103)(font "Arial" ))
		(line (pt 176 96)(pt 160 96)(line_width 1))
	)
	(port
		(pt 176 112)
		(output)
		(text "segment_f" (rect 0 0 53 12)(font "Arial" ))
		(text "segment_f" (rect 102 107 155 119)(font "Arial" ))
		(line (pt 176 112)(pt 160 112)(line_width 1))
	)
	(port
		(pt 176 128)
		(output)
		(text "segment_g" (rect 0 0 54 12)(font "Arial" ))
		(text "segment_g" (rect 101 123 155 135)(font "Arial" ))
		(line (pt 176 128)(pt 160 128)(line_width 1))
	)
	(drawing
		(rectangle (rect 16 16 160 144)(line_width 1))
	)
)
(connector
	(pt 328 176)
	(pt 328 184)
	(bus)
)
(connector
	(pt 328 176)
	(pt 384 176)
	(bus)
)
(connector
	(text "counter[3..0]" (rect 312 160 374 172)(font "Arial" ))
	(pt 304 176)
	(pt 328 176)
	(bus)
)
(junction (pt 328 176))
