Classic Timing Analyzer report for LAB2
Fri Sep 19 12:11:20 2014
Quartus II Version 9.1 Build 222 10/21/2009 SJ Full Version


---------------------
; Table of Contents ;
---------------------
  1. Legal Notice
  2. Timing Analyzer Summary
  3. Timing Analyzer Settings
  4. Parallel Compilation
  5. tpd
  6. Timing Analyzer Messages



----------------
; Legal Notice ;
----------------
Copyright (C) 1991-2009 Altera Corporation
Your use of Altera Corporation's design tools, logic functions 
and other software and tools, and its AMPP partner logic 
functions, and any output files from any of the foregoing 
(including device programming or simulation files), and any 
associated documentation or information are expressly subject 
to the terms and conditions of the Altera Program License 
Subscription Agreement, Altera MegaCore Function License 
Agreement, or other applicable license agreement, including, 
without limitation, that your use is for the sole purpose of 
programming logic devices manufactured by Altera and sold by 
Altera or its authorized distributors.  Please refer to the 
applicable agreement for further details.



+-------------------------------------------------------------------------------------------------------------------------+
; Timing Analyzer Summary                                                                                                 ;
+------------------------------+-------+---------------+-------------+------+------+------------+----------+--------------+
; Type                         ; Slack ; Required Time ; Actual Time ; From ; To   ; From Clock ; To Clock ; Failed Paths ;
+------------------------------+-------+---------------+-------------+------+------+------------+----------+--------------+
; Worst-case tpd               ; N/A   ; None          ; 10.772 ns   ; A[1] ; Cout ; --         ; --       ; 0            ;
; Total number of failed paths ;       ;               ;             ;      ;      ;            ;          ; 0            ;
+------------------------------+-------+---------------+-------------+------+------+------------+----------+--------------+


+-----------------------------------------------------------------------------------------------------------------------------------------------------+
; Timing Analyzer Settings                                                                                                                            ;
+------------------------------------------------------------------------------------------------------+--------------------+------+----+-------------+
; Option                                                                                               ; Setting            ; From ; To ; Entity Name ;
+------------------------------------------------------------------------------------------------------+--------------------+------+----+-------------+
; Device Name                                                                                          ; EP2C35F672C6       ;      ;    ;             ;
; Timing Models                                                                                        ; Final              ;      ;    ;             ;
; Default hold multicycle                                                                              ; Same as Multicycle ;      ;    ;             ;
; Cut paths between unrelated clock domains                                                            ; On                 ;      ;    ;             ;
; Cut off read during write signal paths                                                               ; On                 ;      ;    ;             ;
; Cut off feedback from I/O pins                                                                       ; On                 ;      ;    ;             ;
; Report Combined Fast/Slow Timing                                                                     ; Off                ;      ;    ;             ;
; Ignore Clock Settings                                                                                ; Off                ;      ;    ;             ;
; Analyze latches as synchronous elements                                                              ; On                 ;      ;    ;             ;
; Enable Recovery/Removal analysis                                                                     ; Off                ;      ;    ;             ;
; Enable Clock Latency                                                                                 ; Off                ;      ;    ;             ;
; Use TimeQuest Timing Analyzer                                                                        ; Off                ;      ;    ;             ;
; Minimum Core Junction Temperature                                                                    ; 0                  ;      ;    ;             ;
; Maximum Core Junction Temperature                                                                    ; 85                 ;      ;    ;             ;
; Number of source nodes to report per destination node                                                ; 10                 ;      ;    ;             ;
; Number of destination nodes to report                                                                ; 10                 ;      ;    ;             ;
; Number of paths to report                                                                            ; 200                ;      ;    ;             ;
; Report Minimum Timing Checks                                                                         ; Off                ;      ;    ;             ;
; Use Fast Timing Models                                                                               ; Off                ;      ;    ;             ;
; Report IO Paths Separately                                                                           ; Off                ;      ;    ;             ;
; Perform Multicorner Analysis                                                                         ; On                 ;      ;    ;             ;
; Reports the worst-case path for each clock domain and analysis                                       ; Off                ;      ;    ;             ;
; Reports worst-case timing paths for each clock domain and analysis                                   ; On                 ;      ;    ;             ;
; Specifies the maximum number of worst-case timing paths to report for each clock domain and analysis ; 100                ;      ;    ;             ;
; Removes common clock path pessimism (CCPP) during slack computation                                  ; Off                ;      ;    ;             ;
; Output I/O Timing Endpoint                                                                           ; Near End           ;      ;    ;             ;
+------------------------------------------------------------------------------------------------------+--------------------+------+----+-------------+


+------------------------------------------+
; Parallel Compilation                     ;
+----------------------------+-------------+
; Processors                 ; Number      ;
+----------------------------+-------------+
; Number detected on machine ; 4           ;
; Maximum allowed            ; 4           ;
;                            ;             ;
; Average used               ; 1.00        ;
; Maximum used               ; 1           ;
;                            ;             ;
; Usage by Processor         ; % Time Used ;
;     1 processor            ; 100.0%      ;
;     2-4 processors         ;   0.0%      ;
+----------------------------+-------------+


+----------------------------------------------------------------+
; tpd                                                            ;
+-------+-------------------+-----------------+------+-----------+
; Slack ; Required P2P Time ; Actual P2P Time ; From ; To        ;
+-------+-------------------+-----------------+------+-----------+
; N/A   ; None              ; 10.772 ns       ; A[1] ; Cout      ;
; N/A   ; None              ; 10.171 ns       ; A[0] ; Cout      ;
; N/A   ; None              ; 10.147 ns       ; A[1] ; segment_a ;
; N/A   ; None              ; 10.092 ns       ; A[1] ; segment_b ;
; N/A   ; None              ; 10.078 ns       ; A[1] ; segment_c ;
; N/A   ; None              ; 9.878 ns        ; A[1] ; segment_e ;
; N/A   ; None              ; 9.874 ns        ; A[1] ; segment_d ;
; N/A   ; None              ; 9.864 ns        ; A[1] ; segment_g ;
; N/A   ; None              ; 9.838 ns        ; A[1] ; segment_f ;
; N/A   ; None              ; 9.546 ns        ; A[0] ; segment_a ;
; N/A   ; None              ; 9.491 ns        ; A[0] ; segment_b ;
; N/A   ; None              ; 9.477 ns        ; A[0] ; segment_c ;
; N/A   ; None              ; 9.277 ns        ; A[0] ; segment_e ;
; N/A   ; None              ; 9.273 ns        ; A[0] ; segment_d ;
; N/A   ; None              ; 9.263 ns        ; A[0] ; segment_g ;
; N/A   ; None              ; 9.237 ns        ; A[0] ; segment_f ;
; N/A   ; None              ; 9.170 ns        ; A[2] ; Cout      ;
; N/A   ; None              ; 8.911 ns        ; B[1] ; Cout      ;
; N/A   ; None              ; 8.741 ns        ; B[0] ; Cout      ;
; N/A   ; None              ; 8.550 ns        ; A[2] ; segment_a ;
; N/A   ; None              ; 8.520 ns        ; B[3] ; Cout      ;
; N/A   ; None              ; 8.495 ns        ; A[2] ; segment_b ;
; N/A   ; None              ; 8.481 ns        ; A[2] ; segment_c ;
; N/A   ; None              ; 8.286 ns        ; B[1] ; segment_a ;
; N/A   ; None              ; 8.281 ns        ; A[2] ; segment_e ;
; N/A   ; None              ; 8.277 ns        ; A[2] ; segment_d ;
; N/A   ; None              ; 8.267 ns        ; A[2] ; segment_g ;
; N/A   ; None              ; 8.241 ns        ; A[2] ; segment_f ;
; N/A   ; None              ; 8.231 ns        ; B[1] ; segment_b ;
; N/A   ; None              ; 8.217 ns        ; B[1] ; segment_c ;
; N/A   ; None              ; 8.204 ns        ; B[2] ; Cout      ;
; N/A   ; None              ; 8.116 ns        ; B[0] ; segment_a ;
; N/A   ; None              ; 8.061 ns        ; B[0] ; segment_b ;
; N/A   ; None              ; 8.047 ns        ; B[0] ; segment_c ;
; N/A   ; None              ; 8.017 ns        ; B[1] ; segment_e ;
; N/A   ; None              ; 8.013 ns        ; B[1] ; segment_d ;
; N/A   ; None              ; 8.003 ns        ; B[1] ; segment_g ;
; N/A   ; None              ; 7.977 ns        ; B[1] ; segment_f ;
; N/A   ; None              ; 7.891 ns        ; B[3] ; segment_a ;
; N/A   ; None              ; 7.847 ns        ; B[0] ; segment_e ;
; N/A   ; None              ; 7.843 ns        ; B[0] ; segment_d ;
; N/A   ; None              ; 7.836 ns        ; B[3] ; segment_b ;
; N/A   ; None              ; 7.833 ns        ; B[0] ; segment_g ;
; N/A   ; None              ; 7.822 ns        ; B[3] ; segment_c ;
; N/A   ; None              ; 7.807 ns        ; B[0] ; segment_f ;
; N/A   ; None              ; 7.622 ns        ; B[3] ; segment_e ;
; N/A   ; None              ; 7.618 ns        ; B[3] ; segment_d ;
; N/A   ; None              ; 7.608 ns        ; B[3] ; segment_g ;
; N/A   ; None              ; 7.582 ns        ; B[3] ; segment_f ;
; N/A   ; None              ; 7.575 ns        ; B[2] ; segment_a ;
; N/A   ; None              ; 7.520 ns        ; B[2] ; segment_b ;
; N/A   ; None              ; 7.506 ns        ; B[2] ; segment_c ;
; N/A   ; None              ; 7.315 ns        ; A[3] ; Cout      ;
; N/A   ; None              ; 7.306 ns        ; B[2] ; segment_e ;
; N/A   ; None              ; 7.302 ns        ; B[2] ; segment_d ;
; N/A   ; None              ; 7.292 ns        ; B[2] ; segment_g ;
; N/A   ; None              ; 7.266 ns        ; B[2] ; segment_f ;
; N/A   ; None              ; 6.687 ns        ; A[3] ; segment_a ;
; N/A   ; None              ; 6.632 ns        ; A[3] ; segment_b ;
; N/A   ; None              ; 6.618 ns        ; A[3] ; segment_c ;
; N/A   ; None              ; 6.418 ns        ; A[3] ; segment_e ;
; N/A   ; None              ; 6.414 ns        ; A[3] ; segment_d ;
; N/A   ; None              ; 6.404 ns        ; A[3] ; segment_g ;
; N/A   ; None              ; 6.378 ns        ; A[3] ; segment_f ;
+-------+-------------------+-----------------+------+-----------+


+--------------------------+
; Timing Analyzer Messages ;
+--------------------------+
Info: *******************************************************************
Info: Running Quartus II Classic Timing Analyzer
    Info: Version 9.1 Build 222 10/21/2009 SJ Full Version
    Info: Processing started: Fri Sep 19 12:11:20 2014
Info: Command: quartus_tan --read_settings_files=off --write_settings_files=off LAB2 -c LAB2 --timing_analysis_only
Info: Parallel compilation is enabled and will use 4 of the 4 processors detected
Info: Longest tpd from source pin "A[1]" to destination pin "Cout" is 10.772 ns
    Info: 1: + IC(0.000 ns) + CELL(0.999 ns) = 0.999 ns; Loc. = PIN_N26; Fanout = 2; PIN Node = 'A[1]'
    Info: 2: + IC(2.669 ns) + CELL(0.437 ns) = 4.105 ns; Loc. = LCCOMB_X32_Y1_N28; Fanout = 3; COMB Node = '2nd_4Bit:inst1|Full_Adder_bd:inst1|inst3~0'
    Info: 3: + IC(0.294 ns) + CELL(0.419 ns) = 4.818 ns; Loc. = LCCOMB_X32_Y1_N2; Fanout = 2; COMB Node = '2nd_4Bit:inst1|Full_Adder_bd:inst2|inst3~1'
    Info: 4: + IC(0.284 ns) + CELL(0.419 ns) = 5.521 ns; Loc. = LCCOMB_X32_Y1_N20; Fanout = 1; COMB Node = '2nd_4Bit:inst1|Full_Adder_bd:inst3|inst3~0'
    Info: 5: + IC(2.433 ns) + CELL(2.818 ns) = 10.772 ns; Loc. = PIN_AE23; Fanout = 0; PIN Node = 'Cout'
    Info: Total cell delay = 5.092 ns ( 47.27 % )
    Info: Total interconnect delay = 5.680 ns ( 52.73 % )
Info: Quartus II Classic Timing Analyzer was successful. 0 errors, 0 warnings
    Info: Peak virtual memory: 158 megabytes
    Info: Processing ended: Fri Sep 19 12:11:21 2014
    Info: Elapsed time: 00:00:01
    Info: Total CPU time (on all processors): 00:00:00


