^C:\USERS\DC\DESKTOP\343LABS\MATRIXMULTIPLICATION\CONSOLEAPPLICATION2\DEBUG\MAIN.OBJ
/OUT:"C:\USERS\DC\DESKTOP\343LABS\MATRIXMULTIPLICATION\DEBUG\CONSOLEAPPLICATION2.EXE" /INCREMENTAL /NOLOGO kernel32.lib user32.lib gdi32.lib winspool.lib comdlg32.lib advapi32.lib shell32.lib ole32.lib oleaut32.lib uuid.lib odbc32.lib odbccp32.lib /MANIFEST /MANIFESTUAC:"level='asInvoker' uiAccess='false'" /manifest:embed /DEBUG /PDB:"C:\USERS\DC\DESKTOP\343LABS\MATRIXMULTIPLICATION\DEBUG\CONSOLEAPPLICATION2.PDB" /SUBSYSTEM:CONSOLE /TLBID:1 /DYNAMICBASE /NXCOMPAT /IMPLIB:"C:\USERS\DC\DESKTOP\343LABS\MATRIXMULTIPLICATION\DEBUG\CONSOLEAPPLICATION2.LIB" /MACHINE:X86 DEBUG\MAIN.OBJ
^F:\342 AND 343LABS\MATRIXMULTIPLICATION\CONSOLEAPPLICATION2\DEBUG\MAIN.OBJ
/OUT:"F:\342 AND 343LABS\MATRIXMULTIPLICATION\DEBUG\CONSOLEAPPLICATION2.EXE" /INCREMENTAL /NOLOGO kernel32.lib user32.lib gdi32.lib winspool.lib comdlg32.lib advapi32.lib shell32.lib ole32.lib oleaut32.lib uuid.lib odbc32.lib odbccp32.lib /MANIFEST /MANIFESTUAC:"level='asInvoker' uiAccess='false'" /manifest:embed /DEBUG /PDB:"F:\342 AND 343LABS\MATRIXMULTIPLICATION\DEBUG\CONSOLEAPPLICATION2.PDB" /SUBSYSTEM:CONSOLE /TLBID:1 /DYNAMICBASE /NXCOMPAT /IMPLIB:"F:\342 AND 343LABS\MATRIXMULTIPLICATION\DEBUG\CONSOLEAPPLICATION2.LIB" /MACHINE:X86 DEBUG\MAIN.OBJ
