/*
WARNING: Do NOT edit the input and output ports in this file in a text
editor if you plan to continue editing the block that represents it in
the Block Editor! File corruption is VERY likely to occur.
*/
/*
Copyright (C) 1991-2010 Altera Corporation
Your use of Altera Corporation's design tools, logic functions 
and other software and tools, and its AMPP partner logic 
functions, and any output files from any of the foregoing 
(including device programming or simulation files), and any 
associated documentation or information are expressly subject 
to the terms and conditions of the Altera Program License 
Subscription Agreement, Altera MegaCore Function License 
Agreement, or other applicable license agreement, including, 
without limitation, that your use is for the sole purpose of 
programming logic devices manufactured by Altera and sold by 
Altera or its authorized distributors.  Please refer to the 
applicable agreement for further details.
*/
//#pragma file_not_in_maxplusii_format
(header "graphic" (version "1.3"))
(pin
	(input)
	(rect 32 264 200 280)
	(text "INPUT" (rect 133 0 161 10)(font "Arial" (font_size 6)))
	(text "Clk" (rect 5 0 21 12)(font "Arial" ))
	(pt 168 8)
	(drawing
		(line (pt 92 12)(pt 117 12)(line_width 1))
		(line (pt 92 4)(pt 117 4)(line_width 1))
		(line (pt 121 8)(pt 168 8)(line_width 1))
		(line (pt 92 12)(pt 92 4)(line_width 1))
		(line (pt 117 4)(pt 121 8)(line_width 1))
		(line (pt 117 12)(pt 121 8)(line_width 1))
	)
	(text "VCC" (rect 136 7 156 17)(font "Arial" (font_size 6)))
)
(pin
	(input)
	(rect -16 88 152 104)
	(text "INPUT" (rect 133 0 161 10)(font "Arial" (font_size 6)))
	(text "J" (rect 5 0 10 12)(font "Arial" ))
	(pt 168 8)
	(drawing
		(line (pt 92 12)(pt 117 12)(line_width 1))
		(line (pt 92 4)(pt 117 4)(line_width 1))
		(line (pt 121 8)(pt 168 8)(line_width 1))
		(line (pt 92 12)(pt 92 4)(line_width 1))
		(line (pt 117 4)(pt 121 8)(line_width 1))
		(line (pt 117 12)(pt 121 8)(line_width 1))
	)
	(text "VCC" (rect 136 7 156 17)(font "Arial" (font_size 6)))
)
(pin
	(input)
	(rect -16 176 152 192)
	(text "INPUT" (rect 133 0 161 10)(font "Arial" (font_size 6)))
	(text "K" (rect 5 0 12 12)(font "Arial" ))
	(pt 168 8)
	(drawing
		(line (pt 92 12)(pt 117 12)(line_width 1))
		(line (pt 92 4)(pt 117 4)(line_width 1))
		(line (pt 121 8)(pt 168 8)(line_width 1))
		(line (pt 92 12)(pt 92 4)(line_width 1))
		(line (pt 117 4)(pt 121 8)(line_width 1))
		(line (pt 117 12)(pt 121 8)(line_width 1))
	)
	(text "VCC" (rect 136 7 156 17)(font "Arial" (font_size 6)))
)
(pin
	(output)
	(rect 520 128 696 144)
	(text "OUTPUT" (rect 1 0 39 10)(font "Arial" (font_size 6)))
	(text "Q" (rect 90 0 98 12)(font "Arial" ))
	(pt 0 8)
	(drawing
		(line (pt 0 8)(pt 52 8)(line_width 1))
		(line (pt 52 4)(pt 78 4)(line_width 1))
		(line (pt 52 12)(pt 78 12)(line_width 1))
		(line (pt 52 12)(pt 52 4)(line_width 1))
		(line (pt 78 4)(pt 82 8)(line_width 1))
		(line (pt 82 8)(pt 78 12)(line_width 1))
		(line (pt 78 12)(pt 82 8)(line_width 1))
	)
)
(symbol
	(rect 424 112 488 192)
	(text "DFF" (rect 1 0 19 10)(font "Arial" (font_size 6)))
	(text "inst" (rect 3 68 20 80)(font "Arial" ))
	(port
		(pt 32 80)
		(input)
		(text "CLRN" (rect 21 59 44 71)(font "Courier New" (bold)))
		(text "CLRN" (rect 21 58 44 70)(font "Courier New" (bold)))
		(line (pt 32 80)(pt 32 76)(line_width 1))
	)
	(port
		(pt 0 40)
		(input)
		(text "CLK" (rect 3 29 20 41)(font "Courier New" (bold))(invisible))
		(text "CLK" (rect 3 29 20 41)(font "Courier New" (bold))(invisible))
		(line (pt 0 40)(pt 12 40)(line_width 1))
	)
	(port
		(pt 0 24)
		(input)
		(text "D" (rect 14 20 19 32)(font "Courier New" (bold)))
		(text "D" (rect 14 20 19 32)(font "Courier New" (bold)))
		(line (pt 0 24)(pt 12 24)(line_width 1))
	)
	(port
		(pt 32 0)
		(input)
		(text "PRN" (rect 24 13 41 25)(font "Courier New" (bold)))
		(text "PRN" (rect 24 11 41 23)(font "Courier New" (bold)))
		(line (pt 32 4)(pt 32 0)(line_width 1))
	)
	(port
		(pt 64 24)
		(output)
		(text "Q" (rect 45 20 50 32)(font "Courier New" (bold)))
		(text "Q" (rect 45 20 50 32)(font "Courier New" (bold)))
		(line (pt 52 24)(pt 64 24)(line_width 1))
	)
	(drawing
		(line (pt 12 12)(pt 52 12)(line_width 1))
		(line (pt 12 68)(pt 52 68)(line_width 1))
		(line (pt 52 68)(pt 52 12)(line_width 1))
		(line (pt 12 68)(pt 12 12)(line_width 1))
		(line (pt 19 40)(pt 12 47)(line_width 1))
		(line (pt 12 32)(pt 20 40)(line_width 1))
		(circle (rect 28 4 36 12)(line_width 1))
		(circle (rect 28 68 36 76)(line_width 1))
	)
)
(symbol
	(rect 208 152 272 200)
	(text "BAND2" (rect 1 0 31 10)(font "Arial" (font_size 6)))
	(text "inst1" (rect 3 37 26 49)(font "Arial" ))
	(port
		(pt 0 16)
		(input)
		(text "IN1" (rect 2 7 19 19)(font "Courier New" (bold))(invisible))
		(text "IN1" (rect 2 7 19 19)(font "Courier New" (bold))(invisible))
		(line (pt 0 16)(pt 9 16)(line_width 1))
	)
	(port
		(pt 0 32)
		(input)
		(text "IN2" (rect 2 23 19 35)(font "Courier New" (bold))(invisible))
		(text "IN2" (rect 2 23 19 35)(font "Courier New" (bold))(invisible))
		(line (pt 0 32)(pt 9 32)(line_width 1))
	)
	(port
		(pt 64 24)
		(output)
		(text "OUT" (rect 48 15 65 27)(font "Courier New" (bold))(invisible))
		(text "OUT" (rect 48 15 65 27)(font "Courier New" (bold))(invisible))
		(line (pt 44 24)(pt 64 24)(line_width 1))
	)
	(drawing
		(line (pt 17 12)(pt 32 12)(line_width 1))
		(line (pt 32 37)(pt 17 37)(line_width 1))
		(line (pt 17 12)(pt 17 37)(line_width 1))
		(arc (pt 32 36)(pt 32 12)(rect 20 12 45 37)(line_width 1))
		(circle (rect 9 12 17 20)(line_width 1))
		(circle (rect 9 28 17 36)(line_width 1))
	)
)
(symbol
	(rect 208 80 272 128)
	(text "AND2" (rect 1 0 25 10)(font "Arial" (font_size 6)))
	(text "inst2" (rect 3 37 26 49)(font "Arial" ))
	(port
		(pt 0 16)
		(input)
		(text "IN1" (rect 2 7 19 19)(font "Courier New" (bold))(invisible))
		(text "IN1" (rect 2 7 19 19)(font "Courier New" (bold))(invisible))
		(line (pt 0 16)(pt 14 16)(line_width 1))
	)
	(port
		(pt 0 32)
		(input)
		(text "IN2" (rect 2 23 19 35)(font "Courier New" (bold))(invisible))
		(text "IN2" (rect 2 23 19 35)(font "Courier New" (bold))(invisible))
		(line (pt 0 32)(pt 14 32)(line_width 1))
	)
	(port
		(pt 64 24)
		(output)
		(text "OUT" (rect 48 15 65 27)(font "Courier New" (bold))(invisible))
		(text "OUT" (rect 48 15 65 27)(font "Courier New" (bold))(invisible))
		(line (pt 42 24)(pt 64 24)(line_width 1))
	)
	(drawing
		(line (pt 14 12)(pt 30 12)(line_width 1))
		(line (pt 14 37)(pt 31 37)(line_width 1))
		(line (pt 14 12)(pt 14 37)(line_width 1))
		(arc (pt 31 37)(pt 30 12)(rect 18 12 43 37)(line_width 1))
	)
)
(symbol
	(rect 296 104 360 152)
	(text "OR2" (rect 1 0 19 10)(font "Arial" (font_size 6)))
	(text "inst3" (rect 3 37 26 49)(font "Arial" ))
	(port
		(pt 0 32)
		(input)
		(text "IN2" (rect 2 23 19 35)(font "Courier New" (bold))(invisible))
		(text "IN2" (rect 2 23 19 35)(font "Courier New" (bold))(invisible))
		(line (pt 0 32)(pt 15 32)(line_width 1))
	)
	(port
		(pt 0 16)
		(input)
		(text "IN1" (rect 2 7 19 19)(font "Courier New" (bold))(invisible))
		(text "IN1" (rect 2 7 19 19)(font "Courier New" (bold))(invisible))
		(line (pt 0 16)(pt 15 16)(line_width 1))
	)
	(port
		(pt 64 24)
		(output)
		(text "OUT" (rect 48 15 65 27)(font "Courier New" (bold))(invisible))
		(text "OUT" (rect 48 15 65 27)(font "Courier New" (bold))(invisible))
		(line (pt 48 24)(pt 64 24)(line_width 1))
	)
	(drawing
		(line (pt 14 36)(pt 25 36)(line_width 1))
		(line (pt 14 13)(pt 25 13)(line_width 1))
		(arc (pt 7 29)(pt 7 19)(rect -14 8 19 41)(line_width 1))
		(arc (pt 49 24)(pt 25 13)(rect -6 13 57 76)(line_width 1))
		(arc (pt 25 35)(pt 49 24)(rect -6 -27 57 36)(line_width 1))
	)
)
(symbol
	(rect 488 184 520 232)
	(text "NOT" (rect 22 1 32 21)(font "Arial" (font_size 6))(vertical))
	(text "inst4" (rect -1 3 11 26)(font "Arial" )(vertical))
	(port
		(pt 16 0)
		(input)
		(text "IN" (rect 2 7 13 19)(font "Courier New" (bold))(invisible))
		(text "IN" (rect 13 2 25 13)(font "Courier New" (bold))(vertical)(invisible))
		(line (pt 16 0)(pt 16 13)(line_width 1))
	)
	(port
		(pt 16 48)
		(output)
		(text "OUT" (rect 32 7 49 19)(font "Courier New" (bold))(invisible))
		(text "OUT" (rect 13 32 25 49)(font "Courier New" (bold))(vertical)(invisible))
		(line (pt 16 39)(pt 16 48)(line_width 1))
	)
	(drawing
		(line (pt 7 13)(pt 25 13)(line_width 1))
		(line (pt 25 13)(pt 16 31)(line_width 1))
		(line (pt 7 13)(pt 16 31)(line_width 1))
		(circle (rect 12 31 20 39)(line_width 1))
	)
	(rotate270)
)
(connector
	(pt 272 104)
	(pt 288 104)
)
(connector
	(pt 288 104)
	(pt 288 120)
)
(connector
	(pt 288 120)
	(pt 296 120)
)
(connector
	(pt 272 176)
	(pt 288 176)
)
(connector
	(pt 288 176)
	(pt 288 136)
)
(connector
	(pt 288 136)
	(pt 296 136)
)
(connector
	(pt 360 128)
	(pt 392 128)
)
(connector
	(pt 392 128)
	(pt 392 136)
)
(connector
	(pt 392 136)
	(pt 424 136)
)
(connector
	(pt 152 96)
	(pt 208 96)
)
(connector
	(pt 208 184)
	(pt 152 184)
)
(connector
	(pt 200 272)
	(pt 408 272)
)
(connector
	(pt 408 272)
	(pt 408 152)
)
(connector
	(pt 408 152)
	(pt 424 152)
)
(connector
	(pt 504 136)
	(pt 504 184)
)
(connector
	(pt 504 232)
	(pt 504 240)
)
(connector
	(pt 504 240)
	(pt 192 240)
)
(connector
	(pt 192 112)
	(pt 208 112)
)
(connector
	(pt 192 168)
	(pt 208 168)
)
(connector
	(pt 192 240)
	(pt 192 168)
)
(connector
	(pt 192 168)
	(pt 192 112)
)
(connector
	(pt 488 136)
	(pt 504 136)
)
(connector
	(pt 504 136)
	(pt 520 136)
)
(junction (pt 504 136))
(junction (pt 192 168))
