to, location
Q0, PIN_AE23
Q1, PIN_AF23
Q2, PIN_AB21
Q3, PIN_AC22
segment_a, PIN_AF10
segment_b, PIN_AB12
segment_c, PIN_AC12
segment_d, PIN_AD11
segment_e, PIN_AE11
segment_f, PIN_V14
segment_g, PIN_V13
D, PIN_N25
Clk, PIN_G26