TimeQuest Timing Analyzer report for Add_sub
Mon Oct 05 18:02:04 2015
Quartus II 64-Bit Version 13.0.1 Build 232 06/12/2013 Service Pack 1 SJ Web Edition


---------------------
; Table of Contents ;
---------------------
  1. Legal Notice
  2. TimeQuest Timing Analyzer Summary
  3. Parallel Compilation
  4. Clocks
  5. Slow Model Fmax Summary
  6. Slow Model Setup Summary
  7. Slow Model Hold Summary
  8. Slow Model Recovery Summary
  9. Slow Model Removal Summary
 10. Slow Model Minimum Pulse Width Summary
 11. Propagation Delay
 12. Minimum Propagation Delay
 13. Fast Model Setup Summary
 14. Fast Model Hold Summary
 15. Fast Model Recovery Summary
 16. Fast Model Removal Summary
 17. Fast Model Minimum Pulse Width Summary
 18. Propagation Delay
 19. Minimum Propagation Delay
 20. Multicorner Timing Analysis Summary
 21. Progagation Delay
 22. Minimum Progagation Delay
 23. Clock Transfers
 24. Report TCCS
 25. Report RSKM
 26. Unconstrained Paths
 27. TimeQuest Timing Analyzer Messages



----------------
; Legal Notice ;
----------------
Copyright (C) 1991-2013 Altera Corporation
Your use of Altera Corporation's design tools, logic functions 
and other software and tools, and its AMPP partner logic 
functions, and any output files from any of the foregoing 
(including device programming or simulation files), and any 
associated documentation or information are expressly subject 
to the terms and conditions of the Altera Program License 
Subscription Agreement, Altera MegaCore Function License 
Agreement, or other applicable license agreement, including, 
without limitation, that your use is for the sole purpose of 
programming logic devices manufactured by Altera and sold by 
Altera or its authorized distributors.  Please refer to the 
applicable agreement for further details.



+----------------------------------------------------------------------------------------+
; TimeQuest Timing Analyzer Summary                                                      ;
+--------------------+-------------------------------------------------------------------+
; Quartus II Version ; Version 13.0.1 Build 232 06/12/2013 Service Pack 1 SJ Web Edition ;
; Revision Name      ; Add_sub                                                           ;
; Device Family      ; Cyclone II                                                        ;
; Device Name        ; EP2C35U484C6                                                      ;
; Timing Models      ; Final                                                             ;
; Delay Model        ; Combined                                                          ;
; Rise/Fall Delays   ; Unavailable                                                       ;
+--------------------+-------------------------------------------------------------------+


+------------------------------------------+
; Parallel Compilation                     ;
+----------------------------+-------------+
; Processors                 ; Number      ;
+----------------------------+-------------+
; Number detected on machine ; 4           ;
; Maximum allowed            ; 4           ;
;                            ;             ;
; Average used               ; 1.00        ;
; Maximum used               ; 1           ;
;                            ;             ;
; Usage by Processor         ; % Time Used ;
;     Processor 1            ; 100.0%      ;
;     Processors 2-4         ;   0.0%      ;
+----------------------------+-------------+


----------
; Clocks ;
----------
No clocks to report.


---------------------------
; Slow Model Fmax Summary ;
---------------------------
No paths to report.


----------------------------
; Slow Model Setup Summary ;
----------------------------
No paths to report.


---------------------------
; Slow Model Hold Summary ;
---------------------------
No paths to report.


-------------------------------
; Slow Model Recovery Summary ;
-------------------------------
No paths to report.


------------------------------
; Slow Model Removal Summary ;
------------------------------
No paths to report.


------------------------------------------
; Slow Model Minimum Pulse Width Summary ;
------------------------------------------
No paths to report.


+--------------------------------------------------------------+
; Propagation Delay                                            ;
+------------+-------------+--------+--------+--------+--------+
; Input Port ; Output Port ; RR     ; RF     ; FR     ; FF     ;
+------------+-------------+--------+--------+--------+--------+
; a[0]       ; cout        ; 17.038 ; 17.038 ; 17.038 ; 17.038 ;
; a[0]       ; overflow    ; 17.223 ; 17.223 ; 17.223 ; 17.223 ;
; a[0]       ; sum[0]      ; 11.908 ; 11.908 ; 11.908 ; 11.908 ;
; a[0]       ; sum[1]      ; 13.802 ; 13.802 ; 13.802 ; 13.802 ;
; a[0]       ; sum[2]      ; 13.650 ; 13.650 ; 13.650 ; 13.650 ;
; a[0]       ; sum[3]      ; 13.543 ; 13.543 ; 13.543 ; 13.543 ;
; a[0]       ; sum[4]      ; 14.035 ; 14.035 ; 14.035 ; 14.035 ;
; a[0]       ; sum[5]      ; 13.711 ; 13.711 ; 13.711 ; 13.711 ;
; a[0]       ; sum[6]      ; 13.612 ; 13.612 ; 13.612 ; 13.612 ;
; a[0]       ; sum[7]      ; 14.766 ; 14.766 ; 14.766 ; 14.766 ;
; a[1]       ; cout        ; 16.845 ; 16.845 ; 16.845 ; 16.845 ;
; a[1]       ; overflow    ; 17.030 ; 17.030 ; 17.030 ; 17.030 ;
; a[1]       ; sum[1]      ; 13.465 ; 13.465 ; 13.465 ; 13.465 ;
; a[1]       ; sum[2]      ; 13.445 ; 13.445 ; 13.445 ; 13.445 ;
; a[1]       ; sum[3]      ; 13.526 ; 13.526 ; 13.526 ; 13.526 ;
; a[1]       ; sum[4]      ; 14.105 ; 14.105 ; 14.105 ; 14.105 ;
; a[1]       ; sum[5]      ; 13.781 ; 13.781 ; 13.781 ; 13.781 ;
; a[1]       ; sum[6]      ; 13.682 ; 13.682 ; 13.682 ; 13.682 ;
; a[1]       ; sum[7]      ; 14.573 ; 14.573 ; 14.573 ; 14.573 ;
; a[2]       ; cout        ; 17.305 ; 17.305 ; 17.305 ; 17.305 ;
; a[2]       ; overflow    ; 17.490 ; 17.490 ; 17.490 ; 17.490 ;
; a[2]       ; sum[2]      ; 13.657 ; 13.657 ; 13.657 ; 13.657 ;
; a[2]       ; sum[3]      ; 13.810 ; 13.810 ; 13.810 ; 13.810 ;
; a[2]       ; sum[4]      ; 13.654 ; 13.654 ; 13.654 ; 13.654 ;
; a[2]       ; sum[5]      ; 13.624 ; 13.624 ; 13.624 ; 13.624 ;
; a[2]       ; sum[6]      ; 13.308 ; 13.308 ; 13.308 ; 13.308 ;
; a[2]       ; sum[7]      ; 15.033 ; 15.033 ; 15.033 ; 15.033 ;
; a[3]       ; cout        ; 14.653 ; 14.653 ; 14.653 ; 14.653 ;
; a[3]       ; overflow    ; 14.838 ; 14.838 ; 14.838 ; 14.838 ;
; a[3]       ; sum[3]      ; 10.730 ; 10.730 ; 10.730 ; 10.730 ;
; a[3]       ; sum[4]      ; 11.469 ; 11.469 ; 11.469 ; 11.469 ;
; a[3]       ; sum[5]      ; 11.834 ; 11.834 ; 11.834 ; 11.834 ;
; a[3]       ; sum[6]      ; 14.417 ; 14.417 ; 14.417 ; 14.417 ;
; a[3]       ; sum[7]      ; 12.835 ; 12.835 ; 12.835 ; 12.835 ;
; a[4]       ; cout        ; 14.993 ; 14.993 ; 14.993 ; 14.993 ;
; a[4]       ; overflow    ; 15.178 ; 15.178 ; 15.178 ; 15.178 ;
; a[4]       ; sum[4]      ; 11.091 ; 11.091 ; 11.091 ; 11.091 ;
; a[4]       ; sum[5]      ; 11.478 ; 11.478 ; 11.478 ; 11.478 ;
; a[4]       ; sum[6]      ; 14.757 ; 14.757 ; 14.757 ; 14.757 ;
; a[4]       ; sum[7]      ; 13.010 ; 13.010 ; 13.010 ; 13.010 ;
; a[5]       ; cout        ; 15.432 ; 15.432 ; 15.432 ; 15.432 ;
; a[5]       ; overflow    ; 15.617 ; 15.617 ; 15.617 ; 15.617 ;
; a[5]       ; sum[5]      ; 11.513 ; 11.513 ; 11.513 ; 11.513 ;
; a[5]       ; sum[6]      ; 15.196 ; 15.196 ; 15.196 ; 15.196 ;
; a[5]       ; sum[7]      ; 13.269 ; 13.269 ; 13.269 ; 13.269 ;
; a[6]       ; cout        ; 12.471 ; 12.471 ; 12.471 ; 12.471 ;
; a[6]       ; overflow    ; 12.656 ; 12.656 ; 12.656 ; 12.656 ;
; a[6]       ; sum[6]      ; 10.478 ; 10.478 ; 10.478 ; 10.478 ;
; a[6]       ; sum[7]      ; 11.671 ; 11.671 ; 11.671 ; 11.671 ;
; a[7]       ; cout        ; 10.088 ;        ;        ; 10.088 ;
; a[7]       ; overflow    ; 10.273 ; 10.273 ; 10.273 ; 10.273 ;
; a[7]       ; sum[7]      ; 9.599  ; 9.599  ; 9.599  ; 9.599  ;
; b[0]       ; cout        ; 17.327 ; 17.327 ; 17.327 ; 17.327 ;
; b[0]       ; overflow    ; 17.512 ; 17.512 ; 17.512 ; 17.512 ;
; b[0]       ; sum[0]      ; 12.186 ; 12.186 ; 12.186 ; 12.186 ;
; b[0]       ; sum[1]      ; 14.088 ; 14.088 ; 14.088 ; 14.088 ;
; b[0]       ; sum[2]      ; 13.928 ; 13.928 ; 13.928 ; 13.928 ;
; b[0]       ; sum[3]      ; 13.832 ; 13.832 ; 13.832 ; 13.832 ;
; b[0]       ; sum[4]      ; 14.324 ; 14.324 ; 14.324 ; 14.324 ;
; b[0]       ; sum[5]      ; 14.000 ; 14.000 ; 14.000 ; 14.000 ;
; b[0]       ; sum[6]      ; 13.901 ; 13.901 ; 13.901 ; 13.901 ;
; b[0]       ; sum[7]      ; 15.055 ; 15.055 ; 15.055 ; 15.055 ;
; b[1]       ; cout        ; 16.749 ; 16.749 ; 16.749 ; 16.749 ;
; b[1]       ; overflow    ; 16.934 ; 16.934 ; 16.934 ; 16.934 ;
; b[1]       ; sum[1]      ; 13.369 ; 13.369 ; 13.369 ; 13.369 ;
; b[1]       ; sum[2]      ; 13.349 ; 13.349 ; 13.349 ; 13.349 ;
; b[1]       ; sum[3]      ; 13.430 ; 13.430 ; 13.430 ; 13.430 ;
; b[1]       ; sum[4]      ; 14.009 ; 14.009 ; 14.009 ; 14.009 ;
; b[1]       ; sum[5]      ; 13.685 ; 13.685 ; 13.685 ; 13.685 ;
; b[1]       ; sum[6]      ; 13.586 ; 13.586 ; 13.586 ; 13.586 ;
; b[1]       ; sum[7]      ; 14.477 ; 14.477 ; 14.477 ; 14.477 ;
; b[2]       ; cout        ; 17.242 ; 17.242 ; 17.242 ; 17.242 ;
; b[2]       ; overflow    ; 17.427 ; 17.427 ; 17.427 ; 17.427 ;
; b[2]       ; sum[2]      ; 13.594 ; 13.594 ; 13.594 ; 13.594 ;
; b[2]       ; sum[3]      ; 13.747 ; 13.747 ; 13.747 ; 13.747 ;
; b[2]       ; sum[4]      ; 13.590 ; 13.590 ; 13.590 ; 13.590 ;
; b[2]       ; sum[5]      ; 13.560 ; 13.560 ; 13.560 ; 13.560 ;
; b[2]       ; sum[6]      ; 13.245 ; 13.245 ; 13.245 ; 13.245 ;
; b[2]       ; sum[7]      ; 14.970 ; 14.970 ; 14.970 ; 14.970 ;
; b[3]       ; cout        ; 15.051 ; 15.051 ; 15.051 ; 15.051 ;
; b[3]       ; overflow    ; 15.236 ; 15.236 ; 15.236 ; 15.236 ;
; b[3]       ; sum[3]      ; 11.128 ; 11.128 ; 11.128 ; 11.128 ;
; b[3]       ; sum[4]      ; 11.867 ; 11.867 ; 11.867 ; 11.867 ;
; b[3]       ; sum[5]      ; 12.236 ; 12.236 ; 12.236 ; 12.236 ;
; b[3]       ; sum[6]      ; 14.815 ; 14.815 ; 14.815 ; 14.815 ;
; b[3]       ; sum[7]      ; 13.237 ; 13.237 ; 13.237 ; 13.237 ;
; b[4]       ; cout        ; 14.854 ; 14.854 ; 14.854 ; 14.854 ;
; b[4]       ; overflow    ; 15.039 ; 15.039 ; 15.039 ; 15.039 ;
; b[4]       ; sum[4]      ; 10.952 ; 10.952 ; 10.952 ; 10.952 ;
; b[4]       ; sum[5]      ; 11.339 ; 11.339 ; 11.339 ; 11.339 ;
; b[4]       ; sum[6]      ; 14.618 ; 14.618 ; 14.618 ; 14.618 ;
; b[4]       ; sum[7]      ; 12.871 ; 12.871 ; 12.871 ; 12.871 ;
; b[5]       ; cout        ; 15.465 ; 15.465 ; 15.465 ; 15.465 ;
; b[5]       ; overflow    ; 15.650 ; 15.650 ; 15.650 ; 15.650 ;
; b[5]       ; sum[5]      ; 11.546 ; 11.546 ; 11.546 ; 11.546 ;
; b[5]       ; sum[6]      ; 15.229 ; 15.229 ; 15.229 ; 15.229 ;
; b[5]       ; sum[7]      ; 13.302 ; 13.302 ; 13.302 ; 13.302 ;
; b[6]       ; cout        ; 12.510 ; 12.510 ; 12.510 ; 12.510 ;
; b[6]       ; overflow    ; 12.695 ; 12.695 ; 12.695 ; 12.695 ;
; b[6]       ; sum[6]      ; 10.517 ; 10.517 ; 10.517 ; 10.517 ;
; b[6]       ; sum[7]      ; 11.710 ; 11.710 ; 11.710 ; 11.710 ;
; b[7]       ; cout        ; 10.292 ; 10.292 ; 10.292 ; 10.292 ;
; b[7]       ; overflow    ; 10.477 ; 10.477 ; 10.477 ; 10.477 ;
; b[7]       ; sum[7]      ; 9.653  ; 9.653  ; 9.653  ; 9.653  ;
; cin        ; cout        ; 16.857 ;        ;        ; 16.857 ;
; cin        ; overflow    ; 17.042 ; 17.042 ; 17.042 ; 17.042 ;
; cin        ; sum[0]      ; 11.718 ; 11.718 ; 11.718 ; 11.718 ;
; cin        ; sum[1]      ; 13.616 ; 13.616 ; 13.616 ; 13.616 ;
; cin        ; sum[2]      ; 13.066 ; 13.066 ; 13.066 ; 13.066 ;
; cin        ; sum[3]      ; 13.362 ; 13.362 ; 13.362 ; 13.362 ;
; cin        ; sum[4]      ; 13.854 ; 13.854 ; 13.854 ; 13.854 ;
; cin        ; sum[5]      ; 13.530 ; 13.530 ; 13.530 ; 13.530 ;
; cin        ; sum[6]      ; 13.431 ; 13.431 ; 13.431 ; 13.431 ;
; cin        ; sum[7]      ; 14.585 ; 14.585 ; 14.585 ; 14.585 ;
; subtract   ; cout        ; 17.028 ; 17.028 ; 17.028 ; 17.028 ;
; subtract   ; overflow    ; 17.213 ; 17.213 ; 17.213 ; 17.213 ;
; subtract   ; sum[0]      ; 11.659 ; 11.659 ; 11.659 ; 11.659 ;
; subtract   ; sum[1]      ; 13.557 ; 13.557 ; 13.557 ; 13.557 ;
; subtract   ; sum[2]      ; 13.399 ; 13.399 ; 13.399 ; 13.399 ;
; subtract   ; sum[3]      ; 13.533 ; 13.533 ; 13.533 ; 13.533 ;
; subtract   ; sum[4]      ; 13.809 ; 13.809 ; 13.809 ; 13.809 ;
; subtract   ; sum[5]      ; 13.485 ; 13.485 ; 13.485 ; 13.485 ;
; subtract   ; sum[6]      ; 15.372 ; 15.372 ; 15.372 ; 15.372 ;
; subtract   ; sum[7]      ; 14.756 ; 14.756 ; 14.756 ; 14.756 ;
+------------+-------------+--------+--------+--------+--------+


+--------------------------------------------------------------+
; Minimum Propagation Delay                                    ;
+------------+-------------+--------+--------+--------+--------+
; Input Port ; Output Port ; RR     ; RF     ; FR     ; FF     ;
+------------+-------------+--------+--------+--------+--------+
; a[0]       ; cout        ; 16.931 ; 17.038 ; 17.038 ; 16.931 ;
; a[0]       ; overflow    ; 15.293 ; 15.293 ; 15.293 ; 15.293 ;
; a[0]       ; sum[0]      ; 11.908 ; 11.908 ; 11.908 ; 11.908 ;
; a[0]       ; sum[1]      ; 13.802 ; 13.802 ; 13.802 ; 13.802 ;
; a[0]       ; sum[2]      ; 13.247 ; 13.247 ; 13.247 ; 13.247 ;
; a[0]       ; sum[3]      ; 13.436 ; 13.436 ; 13.436 ; 13.436 ;
; a[0]       ; sum[4]      ; 13.898 ; 13.898 ; 13.898 ; 13.898 ;
; a[0]       ; sum[5]      ; 13.574 ; 13.574 ; 13.574 ; 13.574 ;
; a[0]       ; sum[6]      ; 13.475 ; 13.475 ; 13.475 ; 13.475 ;
; a[0]       ; sum[7]      ; 14.659 ; 14.659 ; 14.659 ; 14.659 ;
; a[1]       ; cout        ; 16.031 ; 16.845 ; 16.845 ; 16.031 ;
; a[1]       ; overflow    ; 14.393 ; 14.393 ; 14.393 ; 14.393 ;
; a[1]       ; sum[1]      ; 13.465 ; 13.465 ; 13.465 ; 13.465 ;
; a[1]       ; sum[2]      ; 13.323 ; 13.323 ; 13.323 ; 13.323 ;
; a[1]       ; sum[3]      ; 13.350 ; 13.350 ; 13.350 ; 13.350 ;
; a[1]       ; sum[4]      ; 13.816 ; 13.816 ; 13.816 ; 13.816 ;
; a[1]       ; sum[5]      ; 13.492 ; 13.492 ; 13.492 ; 13.492 ;
; a[1]       ; sum[6]      ; 13.393 ; 13.393 ; 13.393 ; 13.393 ;
; a[1]       ; sum[7]      ; 13.759 ; 13.759 ; 13.759 ; 13.759 ;
; a[2]       ; cout        ; 16.576 ; 16.925 ; 16.925 ; 16.576 ;
; a[2]       ; overflow    ; 14.938 ; 14.938 ; 14.938 ; 14.938 ;
; a[2]       ; sum[2]      ; 13.657 ; 13.657 ; 13.657 ; 13.657 ;
; a[2]       ; sum[3]      ; 12.794 ; 12.794 ; 12.794 ; 12.794 ;
; a[2]       ; sum[4]      ; 13.606 ; 13.606 ; 13.606 ; 13.606 ;
; a[2]       ; sum[5]      ; 13.282 ; 13.282 ; 13.282 ; 13.282 ;
; a[2]       ; sum[6]      ; 13.068 ; 13.068 ; 13.068 ; 13.068 ;
; a[2]       ; sum[7]      ; 14.304 ; 14.304 ; 14.304 ; 14.304 ;
; a[3]       ; cout        ; 14.389 ; 14.653 ; 14.653 ; 14.389 ;
; a[3]       ; overflow    ; 13.015 ; 13.015 ; 13.015 ; 13.015 ;
; a[3]       ; sum[3]      ; 10.730 ; 10.730 ; 10.730 ; 10.730 ;
; a[3]       ; sum[4]      ; 10.749 ; 10.749 ; 10.749 ; 10.749 ;
; a[3]       ; sum[5]      ; 11.145 ; 11.145 ; 11.145 ; 11.145 ;
; a[3]       ; sum[6]      ; 11.875 ; 11.875 ; 11.875 ; 11.875 ;
; a[3]       ; sum[7]      ; 12.381 ; 12.381 ; 12.381 ; 12.381 ;
; a[4]       ; cout        ; 14.474 ; 14.564 ; 14.564 ; 14.474 ;
; a[4]       ; overflow    ; 13.355 ; 13.355 ; 13.355 ; 13.355 ;
; a[4]       ; sum[4]      ; 11.091 ; 11.091 ; 11.091 ; 11.091 ;
; a[4]       ; sum[5]      ; 11.077 ; 11.077 ; 11.077 ; 11.077 ;
; a[4]       ; sum[6]      ; 12.050 ; 12.050 ; 12.050 ; 12.050 ;
; a[4]       ; sum[7]      ; 12.721 ; 12.721 ; 12.721 ; 12.721 ;
; a[5]       ; cout        ; 11.951 ; 14.819 ; 14.819 ; 11.951 ;
; a[5]       ; overflow    ; 11.505 ; 11.505 ; 11.505 ; 11.505 ;
; a[5]       ; sum[5]      ; 11.513 ; 11.513 ; 11.513 ; 11.513 ;
; a[5]       ; sum[6]      ; 9.863  ; 9.863  ; 9.863  ; 9.863  ;
; a[5]       ; sum[7]      ; 10.882 ; 10.882 ; 10.882 ; 10.882 ;
; a[6]       ; cout        ; 11.024 ; 12.471 ; 12.471 ; 11.024 ;
; a[6]       ; overflow    ; 10.807 ; 10.807 ; 10.807 ; 10.807 ;
; a[6]       ; sum[6]      ; 10.478 ; 10.478 ; 10.478 ; 10.478 ;
; a[6]       ; sum[7]      ; 10.176 ; 10.176 ; 10.176 ; 10.176 ;
; a[7]       ; cout        ; 10.088 ;        ;        ; 10.088 ;
; a[7]       ; overflow    ; 10.273 ; 10.273 ; 10.273 ; 10.273 ;
; a[7]       ; sum[7]      ; 9.599  ; 9.599  ; 9.599  ; 9.599  ;
; b[0]       ; cout        ; 17.209 ; 17.209 ; 17.209 ; 17.209 ;
; b[0]       ; overflow    ; 15.571 ; 15.571 ; 15.571 ; 15.571 ;
; b[0]       ; sum[0]      ; 12.186 ; 12.186 ; 12.186 ; 12.186 ;
; b[0]       ; sum[1]      ; 14.088 ; 14.088 ; 14.088 ; 14.088 ;
; b[0]       ; sum[2]      ; 13.536 ; 13.536 ; 13.536 ; 13.536 ;
; b[0]       ; sum[3]      ; 13.714 ; 13.714 ; 13.714 ; 13.714 ;
; b[0]       ; sum[4]      ; 14.176 ; 14.176 ; 14.176 ; 14.176 ;
; b[0]       ; sum[5]      ; 13.852 ; 13.852 ; 13.852 ; 13.852 ;
; b[0]       ; sum[6]      ; 13.753 ; 13.753 ; 13.753 ; 13.753 ;
; b[0]       ; sum[7]      ; 14.937 ; 14.937 ; 14.937 ; 14.937 ;
; b[1]       ; cout        ; 15.933 ; 15.933 ; 15.933 ; 15.933 ;
; b[1]       ; overflow    ; 14.295 ; 14.295 ; 14.295 ; 14.295 ;
; b[1]       ; sum[1]      ; 13.369 ; 13.369 ; 13.369 ; 13.369 ;
; b[1]       ; sum[2]      ; 13.053 ; 13.053 ; 13.053 ; 13.053 ;
; b[1]       ; sum[3]      ; 13.254 ; 13.254 ; 13.254 ; 13.254 ;
; b[1]       ; sum[4]      ; 13.720 ; 13.720 ; 13.720 ; 13.720 ;
; b[1]       ; sum[5]      ; 13.396 ; 13.396 ; 13.396 ; 13.396 ;
; b[1]       ; sum[6]      ; 13.297 ; 13.297 ; 13.297 ; 13.297 ;
; b[1]       ; sum[7]      ; 13.661 ; 13.661 ; 13.661 ; 13.661 ;
; b[2]       ; cout        ; 16.512 ; 16.512 ; 16.512 ; 16.512 ;
; b[2]       ; overflow    ; 14.874 ; 14.874 ; 14.874 ; 14.874 ;
; b[2]       ; sum[2]      ; 13.594 ; 13.594 ; 13.594 ; 13.594 ;
; b[2]       ; sum[3]      ; 12.730 ; 12.730 ; 12.730 ; 12.730 ;
; b[2]       ; sum[4]      ; 13.543 ; 13.543 ; 13.543 ; 13.543 ;
; b[2]       ; sum[5]      ; 13.219 ; 13.219 ; 13.219 ; 13.219 ;
; b[2]       ; sum[6]      ; 13.004 ; 13.004 ; 13.004 ; 13.004 ;
; b[2]       ; sum[7]      ; 14.240 ; 14.240 ; 14.240 ; 14.240 ;
; b[3]       ; cout        ; 14.791 ; 14.791 ; 14.791 ; 14.791 ;
; b[3]       ; overflow    ; 13.413 ; 13.413 ; 13.413 ; 13.413 ;
; b[3]       ; sum[3]      ; 11.128 ; 11.128 ; 11.128 ; 11.128 ;
; b[3]       ; sum[4]      ; 11.152 ; 11.152 ; 11.152 ; 11.152 ;
; b[3]       ; sum[5]      ; 11.543 ; 11.543 ; 11.543 ; 11.543 ;
; b[3]       ; sum[6]      ; 12.277 ; 12.277 ; 12.277 ; 12.277 ;
; b[3]       ; sum[7]      ; 12.779 ; 12.779 ; 12.779 ; 12.779 ;
; b[4]       ; cout        ; 14.331 ; 14.331 ; 14.331 ; 14.331 ;
; b[4]       ; overflow    ; 13.216 ; 13.216 ; 13.216 ; 13.216 ;
; b[4]       ; sum[4]      ; 10.952 ; 10.952 ; 10.952 ; 10.952 ;
; b[4]       ; sum[5]      ; 10.938 ; 10.938 ; 10.938 ; 10.938 ;
; b[4]       ; sum[6]      ; 11.911 ; 11.911 ; 11.911 ; 11.911 ;
; b[4]       ; sum[7]      ; 12.582 ; 12.582 ; 12.582 ; 12.582 ;
; b[5]       ; cout        ; 11.985 ; 11.985 ; 11.985 ; 11.985 ;
; b[5]       ; overflow    ; 11.538 ; 11.538 ; 11.538 ; 11.538 ;
; b[5]       ; sum[5]      ; 11.546 ; 11.546 ; 11.546 ; 11.546 ;
; b[5]       ; sum[6]      ; 9.895  ; 9.895  ; 9.895  ; 9.895  ;
; b[5]       ; sum[7]      ; 10.915 ; 10.915 ; 10.915 ; 10.915 ;
; b[6]       ; cout        ; 11.645 ; 11.645 ; 11.645 ; 11.645 ;
; b[6]       ; overflow    ; 10.846 ; 10.846 ; 10.846 ; 10.846 ;
; b[6]       ; sum[6]      ; 10.517 ; 10.517 ; 10.517 ; 10.517 ;
; b[6]       ; sum[7]      ; 10.215 ; 10.215 ; 10.215 ; 10.215 ;
; b[7]       ; cout        ; 10.292 ; 10.292 ; 10.292 ; 10.292 ;
; b[7]       ; overflow    ; 10.477 ; 10.477 ; 10.477 ; 10.477 ;
; b[7]       ; sum[7]      ; 9.653  ; 9.653  ; 9.653  ; 9.653  ;
; cin        ; cout        ; 16.857 ;        ;        ; 16.857 ;
; cin        ; overflow    ; 15.219 ; 15.219 ; 15.219 ; 15.219 ;
; cin        ; sum[0]      ; 11.718 ; 11.718 ; 11.718 ; 11.718 ;
; cin        ; sum[1]      ; 13.616 ; 13.616 ; 13.616 ; 13.616 ;
; cin        ; sum[2]      ; 13.066 ; 13.066 ; 13.066 ; 13.066 ;
; cin        ; sum[3]      ; 13.362 ; 13.362 ; 13.362 ; 13.362 ;
; cin        ; sum[4]      ; 13.854 ; 13.854 ; 13.854 ; 13.854 ;
; cin        ; sum[5]      ; 13.530 ; 13.530 ; 13.530 ; 13.530 ;
; cin        ; sum[6]      ; 13.431 ; 13.431 ; 13.431 ; 13.431 ;
; cin        ; sum[7]      ; 14.585 ; 14.585 ; 14.585 ; 14.585 ;
; subtract   ; cout        ; 10.611 ; 10.611 ; 10.611 ; 10.611 ;
; subtract   ; overflow    ; 10.367 ; 10.367 ; 10.367 ; 10.367 ;
; subtract   ; sum[0]      ; 11.659 ; 11.659 ; 11.659 ; 11.659 ;
; subtract   ; sum[1]      ; 13.469 ; 13.469 ; 13.469 ; 13.469 ;
; subtract   ; sum[2]      ; 12.851 ; 12.851 ; 12.851 ; 12.851 ;
; subtract   ; sum[3]      ; 10.638 ; 10.638 ; 10.638 ; 10.638 ;
; subtract   ; sum[4]      ; 10.662 ; 10.662 ; 10.662 ; 10.662 ;
; subtract   ; sum[5]      ; 10.802 ; 10.802 ; 10.802 ; 10.802 ;
; subtract   ; sum[6]      ; 10.038 ; 10.038 ; 10.038 ; 10.038 ;
; subtract   ; sum[7]      ; 9.736  ; 9.736  ; 9.736  ; 9.736  ;
+------------+-------------+--------+--------+--------+--------+


----------------------------
; Fast Model Setup Summary ;
----------------------------
No paths to report.


---------------------------
; Fast Model Hold Summary ;
---------------------------
No paths to report.


-------------------------------
; Fast Model Recovery Summary ;
-------------------------------
No paths to report.


------------------------------
; Fast Model Removal Summary ;
------------------------------
No paths to report.


------------------------------------------
; Fast Model Minimum Pulse Width Summary ;
------------------------------------------
No paths to report.


+----------------------------------------------------------+
; Propagation Delay                                        ;
+------------+-------------+-------+-------+-------+-------+
; Input Port ; Output Port ; RR    ; RF    ; FR    ; FF    ;
+------------+-------------+-------+-------+-------+-------+
; a[0]       ; cout        ; 8.773 ; 8.773 ; 8.773 ; 8.773 ;
; a[0]       ; overflow    ; 8.771 ; 8.771 ; 8.771 ; 8.771 ;
; a[0]       ; sum[0]      ; 6.486 ; 6.486 ; 6.486 ; 6.486 ;
; a[0]       ; sum[1]      ; 7.479 ; 7.479 ; 7.479 ; 7.479 ;
; a[0]       ; sum[2]      ; 7.264 ; 7.264 ; 7.264 ; 7.264 ;
; a[0]       ; sum[3]      ; 7.128 ; 7.128 ; 7.128 ; 7.128 ;
; a[0]       ; sum[4]      ; 7.362 ; 7.362 ; 7.362 ; 7.362 ;
; a[0]       ; sum[5]      ; 7.213 ; 7.213 ; 7.213 ; 7.213 ;
; a[0]       ; sum[6]      ; 7.157 ; 7.157 ; 7.157 ; 7.157 ;
; a[0]       ; sum[7]      ; 7.681 ; 7.681 ; 7.681 ; 7.681 ;
; a[1]       ; cout        ; 8.678 ; 8.678 ; 8.678 ; 8.678 ;
; a[1]       ; overflow    ; 8.676 ; 8.676 ; 8.676 ; 8.676 ;
; a[1]       ; sum[1]      ; 7.346 ; 7.346 ; 7.346 ; 7.346 ;
; a[1]       ; sum[2]      ; 7.187 ; 7.187 ; 7.187 ; 7.187 ;
; a[1]       ; sum[3]      ; 7.120 ; 7.120 ; 7.120 ; 7.120 ;
; a[1]       ; sum[4]      ; 7.409 ; 7.409 ; 7.409 ; 7.409 ;
; a[1]       ; sum[5]      ; 7.260 ; 7.260 ; 7.260 ; 7.260 ;
; a[1]       ; sum[6]      ; 7.204 ; 7.204 ; 7.204 ; 7.204 ;
; a[1]       ; sum[7]      ; 7.586 ; 7.586 ; 7.586 ; 7.586 ;
; a[2]       ; cout        ; 8.947 ; 8.947 ; 8.947 ; 8.947 ;
; a[2]       ; overflow    ; 8.945 ; 8.945 ; 8.945 ; 8.945 ;
; a[2]       ; sum[2]      ; 7.332 ; 7.332 ; 7.332 ; 7.332 ;
; a[2]       ; sum[3]      ; 7.302 ; 7.302 ; 7.302 ; 7.302 ;
; a[2]       ; sum[4]      ; 7.241 ; 7.241 ; 7.241 ; 7.241 ;
; a[2]       ; sum[5]      ; 7.225 ; 7.225 ; 7.225 ; 7.225 ;
; a[2]       ; sum[6]      ; 7.103 ; 7.103 ; 7.103 ; 7.103 ;
; a[2]       ; sum[7]      ; 7.855 ; 7.855 ; 7.855 ; 7.855 ;
; a[3]       ; cout        ; 7.629 ; 7.629 ; 7.629 ; 7.629 ;
; a[3]       ; overflow    ; 7.627 ; 7.627 ; 7.627 ; 7.627 ;
; a[3]       ; sum[3]      ; 5.787 ; 5.787 ; 5.787 ; 5.787 ;
; a[3]       ; sum[4]      ; 6.146 ; 6.146 ; 6.146 ; 6.146 ;
; a[3]       ; sum[5]      ; 6.282 ; 6.282 ; 6.282 ; 6.282 ;
; a[3]       ; sum[6]      ; 7.531 ; 7.531 ; 7.531 ; 7.531 ;
; a[3]       ; sum[7]      ; 6.742 ; 6.742 ; 6.742 ; 6.742 ;
; a[4]       ; cout        ; 7.776 ; 7.776 ; 7.776 ; 7.776 ;
; a[4]       ; overflow    ; 7.774 ; 7.774 ; 7.774 ; 7.774 ;
; a[4]       ; sum[4]      ; 5.988 ; 5.988 ; 5.988 ; 5.988 ;
; a[4]       ; sum[5]      ; 6.126 ; 6.126 ; 6.126 ; 6.126 ;
; a[4]       ; sum[6]      ; 7.678 ; 7.678 ; 7.678 ; 7.678 ;
; a[4]       ; sum[7]      ; 6.813 ; 6.813 ; 6.813 ; 6.813 ;
; a[5]       ; cout        ; 7.973 ; 7.973 ; 7.973 ; 7.973 ;
; a[5]       ; overflow    ; 7.971 ; 7.971 ; 7.971 ; 7.971 ;
; a[5]       ; sum[5]      ; 6.160 ; 6.160 ; 6.160 ; 6.160 ;
; a[5]       ; sum[6]      ; 7.875 ; 7.875 ; 7.875 ; 7.875 ;
; a[5]       ; sum[7]      ; 6.940 ; 6.940 ; 6.940 ; 6.940 ;
; a[6]       ; cout        ; 6.655 ; 6.655 ; 6.655 ; 6.655 ;
; a[6]       ; overflow    ; 6.653 ; 6.653 ; 6.653 ; 6.653 ;
; a[6]       ; sum[6]      ; 5.710 ; 5.710 ; 5.710 ; 5.710 ;
; a[6]       ; sum[7]      ; 6.214 ; 6.214 ; 6.214 ; 6.214 ;
; a[7]       ; cout        ; 5.591 ;       ;       ; 5.591 ;
; a[7]       ; overflow    ; 5.589 ; 5.589 ; 5.589 ; 5.589 ;
; a[7]       ; sum[7]      ; 5.267 ; 5.267 ; 5.267 ; 5.267 ;
; b[0]       ; cout        ; 8.970 ; 8.970 ; 8.970 ; 8.970 ;
; b[0]       ; overflow    ; 8.968 ; 8.968 ; 8.968 ; 8.968 ;
; b[0]       ; sum[0]      ; 6.678 ; 6.678 ; 6.678 ; 6.678 ;
; b[0]       ; sum[1]      ; 7.678 ; 7.678 ; 7.678 ; 7.678 ;
; b[0]       ; sum[2]      ; 7.452 ; 7.452 ; 7.452 ; 7.452 ;
; b[0]       ; sum[3]      ; 7.325 ; 7.325 ; 7.325 ; 7.325 ;
; b[0]       ; sum[4]      ; 7.559 ; 7.559 ; 7.559 ; 7.559 ;
; b[0]       ; sum[5]      ; 7.410 ; 7.410 ; 7.410 ; 7.410 ;
; b[0]       ; sum[6]      ; 7.354 ; 7.354 ; 7.354 ; 7.354 ;
; b[0]       ; sum[7]      ; 7.878 ; 7.878 ; 7.878 ; 7.878 ;
; b[1]       ; cout        ; 8.625 ; 8.625 ; 8.625 ; 8.625 ;
; b[1]       ; overflow    ; 8.623 ; 8.623 ; 8.623 ; 8.623 ;
; b[1]       ; sum[1]      ; 7.292 ; 7.292 ; 7.292 ; 7.292 ;
; b[1]       ; sum[2]      ; 7.134 ; 7.134 ; 7.134 ; 7.134 ;
; b[1]       ; sum[3]      ; 7.042 ; 7.042 ; 7.042 ; 7.042 ;
; b[1]       ; sum[4]      ; 7.331 ; 7.331 ; 7.331 ; 7.331 ;
; b[1]       ; sum[5]      ; 7.182 ; 7.182 ; 7.182 ; 7.182 ;
; b[1]       ; sum[6]      ; 7.126 ; 7.126 ; 7.126 ; 7.126 ;
; b[1]       ; sum[7]      ; 7.533 ; 7.533 ; 7.533 ; 7.533 ;
; b[2]       ; cout        ; 8.865 ; 8.865 ; 8.865 ; 8.865 ;
; b[2]       ; overflow    ; 8.863 ; 8.863 ; 8.863 ; 8.863 ;
; b[2]       ; sum[2]      ; 7.250 ; 7.250 ; 7.250 ; 7.250 ;
; b[2]       ; sum[3]      ; 7.220 ; 7.220 ; 7.220 ; 7.220 ;
; b[2]       ; sum[4]      ; 7.134 ; 7.134 ; 7.134 ; 7.134 ;
; b[2]       ; sum[5]      ; 7.118 ; 7.118 ; 7.118 ; 7.118 ;
; b[2]       ; sum[6]      ; 7.021 ; 7.021 ; 7.021 ; 7.021 ;
; b[2]       ; sum[7]      ; 7.773 ; 7.773 ; 7.773 ; 7.773 ;
; b[3]       ; cout        ; 7.848 ; 7.848 ; 7.848 ; 7.848 ;
; b[3]       ; overflow    ; 7.846 ; 7.846 ; 7.846 ; 7.846 ;
; b[3]       ; sum[3]      ; 6.006 ; 6.006 ; 6.006 ; 6.006 ;
; b[3]       ; sum[4]      ; 6.365 ; 6.365 ; 6.365 ; 6.365 ;
; b[3]       ; sum[5]      ; 6.480 ; 6.480 ; 6.480 ; 6.480 ;
; b[3]       ; sum[6]      ; 7.750 ; 7.750 ; 7.750 ; 7.750 ;
; b[3]       ; sum[7]      ; 6.940 ; 6.940 ; 6.940 ; 6.940 ;
; b[4]       ; cout        ; 7.715 ; 7.715 ; 7.715 ; 7.715 ;
; b[4]       ; overflow    ; 7.713 ; 7.713 ; 7.713 ; 7.713 ;
; b[4]       ; sum[4]      ; 5.927 ; 5.927 ; 5.927 ; 5.927 ;
; b[4]       ; sum[5]      ; 6.065 ; 6.065 ; 6.065 ; 6.065 ;
; b[4]       ; sum[6]      ; 7.617 ; 7.617 ; 7.617 ; 7.617 ;
; b[4]       ; sum[7]      ; 6.752 ; 6.752 ; 6.752 ; 6.752 ;
; b[5]       ; cout        ; 8.005 ; 8.005 ; 8.005 ; 8.005 ;
; b[5]       ; overflow    ; 8.003 ; 8.003 ; 8.003 ; 8.003 ;
; b[5]       ; sum[5]      ; 6.192 ; 6.192 ; 6.192 ; 6.192 ;
; b[5]       ; sum[6]      ; 7.907 ; 7.907 ; 7.907 ; 7.907 ;
; b[5]       ; sum[7]      ; 6.972 ; 6.972 ; 6.972 ; 6.972 ;
; b[6]       ; cout        ; 6.701 ; 6.701 ; 6.701 ; 6.701 ;
; b[6]       ; overflow    ; 6.699 ; 6.699 ; 6.699 ; 6.699 ;
; b[6]       ; sum[6]      ; 5.756 ; 5.756 ; 5.756 ; 5.756 ;
; b[6]       ; sum[7]      ; 6.260 ; 6.260 ; 6.260 ; 6.260 ;
; b[7]       ; cout        ; 5.693 ; 5.693 ; 5.693 ; 5.693 ;
; b[7]       ; overflow    ; 5.691 ; 5.691 ; 5.691 ; 5.691 ;
; b[7]       ; sum[7]      ; 5.294 ; 5.294 ; 5.294 ; 5.294 ;
; cin        ; cout        ; 8.695 ;       ;       ; 8.695 ;
; cin        ; overflow    ; 8.693 ; 8.693 ; 8.693 ; 8.693 ;
; cin        ; sum[0]      ; 6.379 ; 6.379 ; 6.379 ; 6.379 ;
; cin        ; sum[1]      ; 7.376 ; 7.376 ; 7.376 ; 7.376 ;
; cin        ; sum[2]      ; 7.013 ; 7.013 ; 7.013 ; 7.013 ;
; cin        ; sum[3]      ; 7.050 ; 7.050 ; 7.050 ; 7.050 ;
; cin        ; sum[4]      ; 7.284 ; 7.284 ; 7.284 ; 7.284 ;
; cin        ; sum[5]      ; 7.135 ; 7.135 ; 7.135 ; 7.135 ;
; cin        ; sum[6]      ; 7.079 ; 7.079 ; 7.079 ; 7.079 ;
; cin        ; sum[7]      ; 7.603 ; 7.603 ; 7.603 ; 7.603 ;
; subtract   ; cout        ; 8.795 ; 8.795 ; 8.795 ; 8.795 ;
; subtract   ; overflow    ; 8.793 ; 8.793 ; 8.793 ; 8.793 ;
; subtract   ; sum[0]      ; 6.405 ; 6.405 ; 6.405 ; 6.405 ;
; subtract   ; sum[1]      ; 7.401 ; 7.401 ; 7.401 ; 7.401 ;
; subtract   ; sum[2]      ; 7.180 ; 7.180 ; 7.180 ; 7.180 ;
; subtract   ; sum[3]      ; 7.150 ; 7.150 ; 7.150 ; 7.150 ;
; subtract   ; sum[4]      ; 7.281 ; 7.281 ; 7.281 ; 7.281 ;
; subtract   ; sum[5]      ; 7.132 ; 7.132 ; 7.132 ; 7.132 ;
; subtract   ; sum[6]      ; 7.958 ; 7.958 ; 7.958 ; 7.958 ;
; subtract   ; sum[7]      ; 7.703 ; 7.703 ; 7.703 ; 7.703 ;
+------------+-------------+-------+-------+-------+-------+


+----------------------------------------------------------+
; Minimum Propagation Delay                                ;
+------------+-------------+-------+-------+-------+-------+
; Input Port ; Output Port ; RR    ; RF    ; FR    ; FF    ;
+------------+-------------+-------+-------+-------+-------+
; a[0]       ; cout        ; 8.710 ; 8.773 ; 8.773 ; 8.710 ;
; a[0]       ; overflow    ; 7.932 ; 7.932 ; 7.932 ; 7.932 ;
; a[0]       ; sum[0]      ; 6.486 ; 6.486 ; 6.486 ; 6.486 ;
; a[0]       ; sum[1]      ; 7.479 ; 7.479 ; 7.479 ; 7.479 ;
; a[0]       ; sum[2]      ; 7.091 ; 7.091 ; 7.091 ; 7.091 ;
; a[0]       ; sum[3]      ; 7.065 ; 7.065 ; 7.065 ; 7.065 ;
; a[0]       ; sum[4]      ; 7.301 ; 7.301 ; 7.301 ; 7.301 ;
; a[0]       ; sum[5]      ; 7.152 ; 7.152 ; 7.152 ; 7.152 ;
; a[0]       ; sum[6]      ; 7.096 ; 7.096 ; 7.096 ; 7.096 ;
; a[0]       ; sum[7]      ; 7.618 ; 7.618 ; 7.618 ; 7.618 ;
; a[1]       ; cout        ; 8.342 ; 8.678 ; 8.678 ; 8.342 ;
; a[1]       ; overflow    ; 7.564 ; 7.564 ; 7.564 ; 7.564 ;
; a[1]       ; sum[1]      ; 7.346 ; 7.346 ; 7.346 ; 7.346 ;
; a[1]       ; sum[2]      ; 7.133 ; 7.133 ; 7.133 ; 7.133 ;
; a[1]       ; sum[3]      ; 7.033 ; 7.033 ; 7.033 ; 7.033 ;
; a[1]       ; sum[4]      ; 7.269 ; 7.269 ; 7.269 ; 7.269 ;
; a[1]       ; sum[5]      ; 7.120 ; 7.120 ; 7.120 ; 7.120 ;
; a[1]       ; sum[6]      ; 7.064 ; 7.064 ; 7.064 ; 7.064 ;
; a[1]       ; sum[7]      ; 7.250 ; 7.250 ; 7.250 ; 7.250 ;
; a[2]       ; cout        ; 8.643 ; 8.759 ; 8.759 ; 8.643 ;
; a[2]       ; overflow    ; 7.865 ; 7.865 ; 7.865 ; 7.865 ;
; a[2]       ; sum[2]      ; 7.332 ; 7.332 ; 7.332 ; 7.332 ;
; a[2]       ; sum[3]      ; 6.842 ; 6.842 ; 6.842 ; 6.842 ;
; a[2]       ; sum[4]      ; 7.188 ; 7.188 ; 7.188 ; 7.188 ;
; a[2]       ; sum[5]      ; 7.039 ; 7.039 ; 7.039 ; 7.039 ;
; a[2]       ; sum[6]      ; 7.024 ; 7.024 ; 7.024 ; 7.024 ;
; a[2]       ; sum[7]      ; 7.551 ; 7.551 ; 7.551 ; 7.551 ;
; a[3]       ; cout        ; 7.511 ; 7.629 ; 7.629 ; 7.511 ;
; a[3]       ; overflow    ; 6.851 ; 6.851 ; 6.851 ; 6.851 ;
; a[3]       ; sum[3]      ; 5.787 ; 5.787 ; 5.787 ; 5.787 ;
; a[3]       ; sum[4]      ; 5.812 ; 5.812 ; 5.812 ; 5.812 ;
; a[3]       ; sum[5]      ; 5.997 ; 5.997 ; 5.997 ; 5.997 ;
; a[3]       ; sum[6]      ; 6.344 ; 6.344 ; 6.344 ; 6.344 ;
; a[3]       ; sum[7]      ; 6.537 ; 6.537 ; 6.537 ; 6.537 ;
; a[4]       ; cout        ; 7.548 ; 7.582 ; 7.582 ; 7.548 ;
; a[4]       ; overflow    ; 6.998 ; 6.998 ; 6.998 ; 6.998 ;
; a[4]       ; sum[4]      ; 5.988 ; 5.988 ; 5.988 ; 5.988 ;
; a[4]       ; sum[5]      ; 5.965 ; 5.965 ; 5.965 ; 5.965 ;
; a[4]       ; sum[6]      ; 6.415 ; 6.415 ; 6.415 ; 6.415 ;
; a[4]       ; sum[7]      ; 6.684 ; 6.684 ; 6.684 ; 6.684 ;
; a[5]       ; cout        ; 6.401 ; 7.718 ; 7.718 ; 6.401 ;
; a[5]       ; overflow    ; 6.157 ; 6.157 ; 6.157 ; 6.157 ;
; a[5]       ; sum[5]      ; 6.160 ; 6.160 ; 6.160 ; 6.160 ;
; a[5]       ; sum[6]      ; 5.409 ; 5.409 ; 5.409 ; 5.409 ;
; a[5]       ; sum[7]      ; 5.854 ; 5.854 ; 5.854 ; 5.854 ;
; a[6]       ; cout        ; 6.044 ; 6.655 ; 6.655 ; 6.044 ;
; a[6]       ; overflow    ; 5.879 ; 5.879 ; 5.879 ; 5.879 ;
; a[6]       ; sum[6]      ; 5.710 ; 5.710 ; 5.710 ; 5.710 ;
; a[6]       ; sum[7]      ; 5.568 ; 5.568 ; 5.568 ; 5.568 ;
; a[7]       ; cout        ; 5.591 ;       ;       ; 5.591 ;
; a[7]       ; overflow    ; 5.589 ; 5.589 ; 5.589 ; 5.589 ;
; a[7]       ; sum[7]      ; 5.267 ; 5.267 ; 5.267 ; 5.267 ;
; b[0]       ; cout        ; 8.898 ; 8.898 ; 8.898 ; 8.898 ;
; b[0]       ; overflow    ; 8.120 ; 8.120 ; 8.120 ; 8.120 ;
; b[0]       ; sum[0]      ; 6.678 ; 6.678 ; 6.678 ; 6.678 ;
; b[0]       ; sum[1]      ; 7.678 ; 7.678 ; 7.678 ; 7.678 ;
; b[0]       ; sum[2]      ; 7.288 ; 7.288 ; 7.288 ; 7.288 ;
; b[0]       ; sum[3]      ; 7.253 ; 7.253 ; 7.253 ; 7.253 ;
; b[0]       ; sum[4]      ; 7.489 ; 7.489 ; 7.489 ; 7.489 ;
; b[0]       ; sum[5]      ; 7.340 ; 7.340 ; 7.340 ; 7.340 ;
; b[0]       ; sum[6]      ; 7.284 ; 7.284 ; 7.284 ; 7.284 ;
; b[0]       ; sum[7]      ; 7.806 ; 7.806 ; 7.806 ; 7.806 ;
; b[1]       ; cout        ; 8.265 ; 8.265 ; 8.265 ; 8.265 ;
; b[1]       ; overflow    ; 7.487 ; 7.487 ; 7.487 ; 7.487 ;
; b[1]       ; sum[1]      ; 7.292 ; 7.292 ; 7.292 ; 7.292 ;
; b[1]       ; sum[2]      ; 7.001 ; 7.001 ; 7.001 ; 7.001 ;
; b[1]       ; sum[3]      ; 6.980 ; 6.980 ; 6.980 ; 6.980 ;
; b[1]       ; sum[4]      ; 7.216 ; 7.216 ; 7.216 ; 7.216 ;
; b[1]       ; sum[5]      ; 7.067 ; 7.067 ; 7.067 ; 7.067 ;
; b[1]       ; sum[6]      ; 7.011 ; 7.011 ; 7.011 ; 7.011 ;
; b[1]       ; sum[7]      ; 7.173 ; 7.173 ; 7.173 ; 7.173 ;
; b[2]       ; cout        ; 8.536 ; 8.536 ; 8.536 ; 8.536 ;
; b[2]       ; overflow    ; 7.758 ; 7.758 ; 7.758 ; 7.758 ;
; b[2]       ; sum[2]      ; 7.250 ; 7.250 ; 7.250 ; 7.250 ;
; b[2]       ; sum[3]      ; 6.760 ; 6.760 ; 6.760 ; 6.760 ;
; b[2]       ; sum[4]      ; 7.106 ; 7.106 ; 7.106 ; 7.106 ;
; b[2]       ; sum[5]      ; 6.957 ; 6.957 ; 6.957 ; 6.957 ;
; b[2]       ; sum[6]      ; 6.917 ; 6.917 ; 6.917 ; 6.917 ;
; b[2]       ; sum[7]      ; 7.444 ; 7.444 ; 7.444 ; 7.444 ;
; b[3]       ; cout        ; 7.709 ; 7.709 ; 7.709 ; 7.709 ;
; b[3]       ; overflow    ; 7.070 ; 7.070 ; 7.070 ; 7.070 ;
; b[3]       ; sum[3]      ; 6.006 ; 6.006 ; 6.006 ; 6.006 ;
; b[3]       ; sum[4]      ; 6.037 ; 6.037 ; 6.037 ; 6.037 ;
; b[3]       ; sum[5]      ; 6.216 ; 6.216 ; 6.216 ; 6.216 ;
; b[3]       ; sum[6]      ; 6.542 ; 6.542 ; 6.542 ; 6.542 ;
; b[3]       ; sum[7]      ; 6.756 ; 6.756 ; 6.756 ; 6.756 ;
; b[4]       ; cout        ; 7.479 ; 7.479 ; 7.479 ; 7.479 ;
; b[4]       ; overflow    ; 6.937 ; 6.937 ; 6.937 ; 6.937 ;
; b[4]       ; sum[4]      ; 5.927 ; 5.927 ; 5.927 ; 5.927 ;
; b[4]       ; sum[5]      ; 5.904 ; 5.904 ; 5.904 ; 5.904 ;
; b[4]       ; sum[6]      ; 6.354 ; 6.354 ; 6.354 ; 6.354 ;
; b[4]       ; sum[7]      ; 6.623 ; 6.623 ; 6.623 ; 6.623 ;
; b[5]       ; cout        ; 6.427 ; 6.427 ; 6.427 ; 6.427 ;
; b[5]       ; overflow    ; 6.189 ; 6.189 ; 6.189 ; 6.189 ;
; b[5]       ; sum[5]      ; 6.192 ; 6.192 ; 6.192 ; 6.192 ;
; b[5]       ; sum[6]      ; 5.437 ; 5.437 ; 5.437 ; 5.437 ;
; b[5]       ; sum[7]      ; 5.886 ; 5.886 ; 5.886 ; 5.886 ;
; b[6]       ; cout        ; 6.337 ; 6.337 ; 6.337 ; 6.337 ;
; b[6]       ; overflow    ; 5.925 ; 5.925 ; 5.925 ; 5.925 ;
; b[6]       ; sum[6]      ; 5.756 ; 5.756 ; 5.756 ; 5.756 ;
; b[6]       ; sum[7]      ; 5.614 ; 5.614 ; 5.614 ; 5.614 ;
; b[7]       ; cout        ; 5.693 ; 5.693 ; 5.693 ; 5.693 ;
; b[7]       ; overflow    ; 5.691 ; 5.691 ; 5.691 ; 5.691 ;
; b[7]       ; sum[7]      ; 5.294 ; 5.294 ; 5.294 ; 5.294 ;
; cin        ; cout        ; 8.695 ;       ;       ; 8.695 ;
; cin        ; overflow    ; 7.917 ; 7.917 ; 7.917 ; 7.917 ;
; cin        ; sum[0]      ; 6.379 ; 6.379 ; 6.379 ; 6.379 ;
; cin        ; sum[1]      ; 7.376 ; 7.376 ; 7.376 ; 7.376 ;
; cin        ; sum[2]      ; 7.013 ; 7.013 ; 7.013 ; 7.013 ;
; cin        ; sum[3]      ; 7.050 ; 7.050 ; 7.050 ; 7.050 ;
; cin        ; sum[4]      ; 7.284 ; 7.284 ; 7.284 ; 7.284 ;
; cin        ; sum[5]      ; 7.135 ; 7.135 ; 7.135 ; 7.135 ;
; cin        ; sum[6]      ; 7.079 ; 7.079 ; 7.079 ; 7.079 ;
; cin        ; sum[7]      ; 7.603 ; 7.603 ; 7.603 ; 7.603 ;
; subtract   ; cout        ; 5.856 ; 5.856 ; 5.856 ; 5.856 ;
; subtract   ; overflow    ; 5.672 ; 5.672 ; 5.672 ; 5.672 ;
; subtract   ; sum[0]      ; 6.405 ; 6.405 ; 6.405 ; 6.405 ;
; subtract   ; sum[1]      ; 7.365 ; 7.365 ; 7.365 ; 7.365 ;
; subtract   ; sum[2]      ; 6.949 ; 6.949 ; 6.949 ; 6.949 ;
; subtract   ; sum[3]      ; 5.754 ; 5.754 ; 5.754 ; 5.754 ;
; subtract   ; sum[4]      ; 5.784 ; 5.784 ; 5.784 ; 5.784 ;
; subtract   ; sum[5]      ; 5.838 ; 5.838 ; 5.838 ; 5.838 ;
; subtract   ; sum[6]      ; 5.495 ; 5.495 ; 5.495 ; 5.495 ;
; subtract   ; sum[7]      ; 5.361 ; 5.361 ; 5.361 ; 5.361 ;
+------------+-------------+-------+-------+-------+-------+


+----------------------------------------------------------------------------+
; Multicorner Timing Analysis Summary                                        ;
+------------------+-------+------+----------+---------+---------------------+
; Clock            ; Setup ; Hold ; Recovery ; Removal ; Minimum Pulse Width ;
+------------------+-------+------+----------+---------+---------------------+
; Worst-case Slack ; N/A   ; N/A  ; N/A      ; N/A     ; N/A                 ;
; Design-wide TNS  ; 0.0   ; 0.0  ; 0.0      ; 0.0     ; 0.0                 ;
+------------------+-------+------+----------+---------+---------------------+


+--------------------------------------------------------------+
; Progagation Delay                                            ;
+------------+-------------+--------+--------+--------+--------+
; Input Port ; Output Port ; RR     ; RF     ; FR     ; FF     ;
+------------+-------------+--------+--------+--------+--------+
; a[0]       ; cout        ; 17.038 ; 17.038 ; 17.038 ; 17.038 ;
; a[0]       ; overflow    ; 17.223 ; 17.223 ; 17.223 ; 17.223 ;
; a[0]       ; sum[0]      ; 11.908 ; 11.908 ; 11.908 ; 11.908 ;
; a[0]       ; sum[1]      ; 13.802 ; 13.802 ; 13.802 ; 13.802 ;
; a[0]       ; sum[2]      ; 13.650 ; 13.650 ; 13.650 ; 13.650 ;
; a[0]       ; sum[3]      ; 13.543 ; 13.543 ; 13.543 ; 13.543 ;
; a[0]       ; sum[4]      ; 14.035 ; 14.035 ; 14.035 ; 14.035 ;
; a[0]       ; sum[5]      ; 13.711 ; 13.711 ; 13.711 ; 13.711 ;
; a[0]       ; sum[6]      ; 13.612 ; 13.612 ; 13.612 ; 13.612 ;
; a[0]       ; sum[7]      ; 14.766 ; 14.766 ; 14.766 ; 14.766 ;
; a[1]       ; cout        ; 16.845 ; 16.845 ; 16.845 ; 16.845 ;
; a[1]       ; overflow    ; 17.030 ; 17.030 ; 17.030 ; 17.030 ;
; a[1]       ; sum[1]      ; 13.465 ; 13.465 ; 13.465 ; 13.465 ;
; a[1]       ; sum[2]      ; 13.445 ; 13.445 ; 13.445 ; 13.445 ;
; a[1]       ; sum[3]      ; 13.526 ; 13.526 ; 13.526 ; 13.526 ;
; a[1]       ; sum[4]      ; 14.105 ; 14.105 ; 14.105 ; 14.105 ;
; a[1]       ; sum[5]      ; 13.781 ; 13.781 ; 13.781 ; 13.781 ;
; a[1]       ; sum[6]      ; 13.682 ; 13.682 ; 13.682 ; 13.682 ;
; a[1]       ; sum[7]      ; 14.573 ; 14.573 ; 14.573 ; 14.573 ;
; a[2]       ; cout        ; 17.305 ; 17.305 ; 17.305 ; 17.305 ;
; a[2]       ; overflow    ; 17.490 ; 17.490 ; 17.490 ; 17.490 ;
; a[2]       ; sum[2]      ; 13.657 ; 13.657 ; 13.657 ; 13.657 ;
; a[2]       ; sum[3]      ; 13.810 ; 13.810 ; 13.810 ; 13.810 ;
; a[2]       ; sum[4]      ; 13.654 ; 13.654 ; 13.654 ; 13.654 ;
; a[2]       ; sum[5]      ; 13.624 ; 13.624 ; 13.624 ; 13.624 ;
; a[2]       ; sum[6]      ; 13.308 ; 13.308 ; 13.308 ; 13.308 ;
; a[2]       ; sum[7]      ; 15.033 ; 15.033 ; 15.033 ; 15.033 ;
; a[3]       ; cout        ; 14.653 ; 14.653 ; 14.653 ; 14.653 ;
; a[3]       ; overflow    ; 14.838 ; 14.838 ; 14.838 ; 14.838 ;
; a[3]       ; sum[3]      ; 10.730 ; 10.730 ; 10.730 ; 10.730 ;
; a[3]       ; sum[4]      ; 11.469 ; 11.469 ; 11.469 ; 11.469 ;
; a[3]       ; sum[5]      ; 11.834 ; 11.834 ; 11.834 ; 11.834 ;
; a[3]       ; sum[6]      ; 14.417 ; 14.417 ; 14.417 ; 14.417 ;
; a[3]       ; sum[7]      ; 12.835 ; 12.835 ; 12.835 ; 12.835 ;
; a[4]       ; cout        ; 14.993 ; 14.993 ; 14.993 ; 14.993 ;
; a[4]       ; overflow    ; 15.178 ; 15.178 ; 15.178 ; 15.178 ;
; a[4]       ; sum[4]      ; 11.091 ; 11.091 ; 11.091 ; 11.091 ;
; a[4]       ; sum[5]      ; 11.478 ; 11.478 ; 11.478 ; 11.478 ;
; a[4]       ; sum[6]      ; 14.757 ; 14.757 ; 14.757 ; 14.757 ;
; a[4]       ; sum[7]      ; 13.010 ; 13.010 ; 13.010 ; 13.010 ;
; a[5]       ; cout        ; 15.432 ; 15.432 ; 15.432 ; 15.432 ;
; a[5]       ; overflow    ; 15.617 ; 15.617 ; 15.617 ; 15.617 ;
; a[5]       ; sum[5]      ; 11.513 ; 11.513 ; 11.513 ; 11.513 ;
; a[5]       ; sum[6]      ; 15.196 ; 15.196 ; 15.196 ; 15.196 ;
; a[5]       ; sum[7]      ; 13.269 ; 13.269 ; 13.269 ; 13.269 ;
; a[6]       ; cout        ; 12.471 ; 12.471 ; 12.471 ; 12.471 ;
; a[6]       ; overflow    ; 12.656 ; 12.656 ; 12.656 ; 12.656 ;
; a[6]       ; sum[6]      ; 10.478 ; 10.478 ; 10.478 ; 10.478 ;
; a[6]       ; sum[7]      ; 11.671 ; 11.671 ; 11.671 ; 11.671 ;
; a[7]       ; cout        ; 10.088 ;        ;        ; 10.088 ;
; a[7]       ; overflow    ; 10.273 ; 10.273 ; 10.273 ; 10.273 ;
; a[7]       ; sum[7]      ; 9.599  ; 9.599  ; 9.599  ; 9.599  ;
; b[0]       ; cout        ; 17.327 ; 17.327 ; 17.327 ; 17.327 ;
; b[0]       ; overflow    ; 17.512 ; 17.512 ; 17.512 ; 17.512 ;
; b[0]       ; sum[0]      ; 12.186 ; 12.186 ; 12.186 ; 12.186 ;
; b[0]       ; sum[1]      ; 14.088 ; 14.088 ; 14.088 ; 14.088 ;
; b[0]       ; sum[2]      ; 13.928 ; 13.928 ; 13.928 ; 13.928 ;
; b[0]       ; sum[3]      ; 13.832 ; 13.832 ; 13.832 ; 13.832 ;
; b[0]       ; sum[4]      ; 14.324 ; 14.324 ; 14.324 ; 14.324 ;
; b[0]       ; sum[5]      ; 14.000 ; 14.000 ; 14.000 ; 14.000 ;
; b[0]       ; sum[6]      ; 13.901 ; 13.901 ; 13.901 ; 13.901 ;
; b[0]       ; sum[7]      ; 15.055 ; 15.055 ; 15.055 ; 15.055 ;
; b[1]       ; cout        ; 16.749 ; 16.749 ; 16.749 ; 16.749 ;
; b[1]       ; overflow    ; 16.934 ; 16.934 ; 16.934 ; 16.934 ;
; b[1]       ; sum[1]      ; 13.369 ; 13.369 ; 13.369 ; 13.369 ;
; b[1]       ; sum[2]      ; 13.349 ; 13.349 ; 13.349 ; 13.349 ;
; b[1]       ; sum[3]      ; 13.430 ; 13.430 ; 13.430 ; 13.430 ;
; b[1]       ; sum[4]      ; 14.009 ; 14.009 ; 14.009 ; 14.009 ;
; b[1]       ; sum[5]      ; 13.685 ; 13.685 ; 13.685 ; 13.685 ;
; b[1]       ; sum[6]      ; 13.586 ; 13.586 ; 13.586 ; 13.586 ;
; b[1]       ; sum[7]      ; 14.477 ; 14.477 ; 14.477 ; 14.477 ;
; b[2]       ; cout        ; 17.242 ; 17.242 ; 17.242 ; 17.242 ;
; b[2]       ; overflow    ; 17.427 ; 17.427 ; 17.427 ; 17.427 ;
; b[2]       ; sum[2]      ; 13.594 ; 13.594 ; 13.594 ; 13.594 ;
; b[2]       ; sum[3]      ; 13.747 ; 13.747 ; 13.747 ; 13.747 ;
; b[2]       ; sum[4]      ; 13.590 ; 13.590 ; 13.590 ; 13.590 ;
; b[2]       ; sum[5]      ; 13.560 ; 13.560 ; 13.560 ; 13.560 ;
; b[2]       ; sum[6]      ; 13.245 ; 13.245 ; 13.245 ; 13.245 ;
; b[2]       ; sum[7]      ; 14.970 ; 14.970 ; 14.970 ; 14.970 ;
; b[3]       ; cout        ; 15.051 ; 15.051 ; 15.051 ; 15.051 ;
; b[3]       ; overflow    ; 15.236 ; 15.236 ; 15.236 ; 15.236 ;
; b[3]       ; sum[3]      ; 11.128 ; 11.128 ; 11.128 ; 11.128 ;
; b[3]       ; sum[4]      ; 11.867 ; 11.867 ; 11.867 ; 11.867 ;
; b[3]       ; sum[5]      ; 12.236 ; 12.236 ; 12.236 ; 12.236 ;
; b[3]       ; sum[6]      ; 14.815 ; 14.815 ; 14.815 ; 14.815 ;
; b[3]       ; sum[7]      ; 13.237 ; 13.237 ; 13.237 ; 13.237 ;
; b[4]       ; cout        ; 14.854 ; 14.854 ; 14.854 ; 14.854 ;
; b[4]       ; overflow    ; 15.039 ; 15.039 ; 15.039 ; 15.039 ;
; b[4]       ; sum[4]      ; 10.952 ; 10.952 ; 10.952 ; 10.952 ;
; b[4]       ; sum[5]      ; 11.339 ; 11.339 ; 11.339 ; 11.339 ;
; b[4]       ; sum[6]      ; 14.618 ; 14.618 ; 14.618 ; 14.618 ;
; b[4]       ; sum[7]      ; 12.871 ; 12.871 ; 12.871 ; 12.871 ;
; b[5]       ; cout        ; 15.465 ; 15.465 ; 15.465 ; 15.465 ;
; b[5]       ; overflow    ; 15.650 ; 15.650 ; 15.650 ; 15.650 ;
; b[5]       ; sum[5]      ; 11.546 ; 11.546 ; 11.546 ; 11.546 ;
; b[5]       ; sum[6]      ; 15.229 ; 15.229 ; 15.229 ; 15.229 ;
; b[5]       ; sum[7]      ; 13.302 ; 13.302 ; 13.302 ; 13.302 ;
; b[6]       ; cout        ; 12.510 ; 12.510 ; 12.510 ; 12.510 ;
; b[6]       ; overflow    ; 12.695 ; 12.695 ; 12.695 ; 12.695 ;
; b[6]       ; sum[6]      ; 10.517 ; 10.517 ; 10.517 ; 10.517 ;
; b[6]       ; sum[7]      ; 11.710 ; 11.710 ; 11.710 ; 11.710 ;
; b[7]       ; cout        ; 10.292 ; 10.292 ; 10.292 ; 10.292 ;
; b[7]       ; overflow    ; 10.477 ; 10.477 ; 10.477 ; 10.477 ;
; b[7]       ; sum[7]      ; 9.653  ; 9.653  ; 9.653  ; 9.653  ;
; cin        ; cout        ; 16.857 ;        ;        ; 16.857 ;
; cin        ; overflow    ; 17.042 ; 17.042 ; 17.042 ; 17.042 ;
; cin        ; sum[0]      ; 11.718 ; 11.718 ; 11.718 ; 11.718 ;
; cin        ; sum[1]      ; 13.616 ; 13.616 ; 13.616 ; 13.616 ;
; cin        ; sum[2]      ; 13.066 ; 13.066 ; 13.066 ; 13.066 ;
; cin        ; sum[3]      ; 13.362 ; 13.362 ; 13.362 ; 13.362 ;
; cin        ; sum[4]      ; 13.854 ; 13.854 ; 13.854 ; 13.854 ;
; cin        ; sum[5]      ; 13.530 ; 13.530 ; 13.530 ; 13.530 ;
; cin        ; sum[6]      ; 13.431 ; 13.431 ; 13.431 ; 13.431 ;
; cin        ; sum[7]      ; 14.585 ; 14.585 ; 14.585 ; 14.585 ;
; subtract   ; cout        ; 17.028 ; 17.028 ; 17.028 ; 17.028 ;
; subtract   ; overflow    ; 17.213 ; 17.213 ; 17.213 ; 17.213 ;
; subtract   ; sum[0]      ; 11.659 ; 11.659 ; 11.659 ; 11.659 ;
; subtract   ; sum[1]      ; 13.557 ; 13.557 ; 13.557 ; 13.557 ;
; subtract   ; sum[2]      ; 13.399 ; 13.399 ; 13.399 ; 13.399 ;
; subtract   ; sum[3]      ; 13.533 ; 13.533 ; 13.533 ; 13.533 ;
; subtract   ; sum[4]      ; 13.809 ; 13.809 ; 13.809 ; 13.809 ;
; subtract   ; sum[5]      ; 13.485 ; 13.485 ; 13.485 ; 13.485 ;
; subtract   ; sum[6]      ; 15.372 ; 15.372 ; 15.372 ; 15.372 ;
; subtract   ; sum[7]      ; 14.756 ; 14.756 ; 14.756 ; 14.756 ;
+------------+-------------+--------+--------+--------+--------+


+----------------------------------------------------------+
; Minimum Progagation Delay                                ;
+------------+-------------+-------+-------+-------+-------+
; Input Port ; Output Port ; RR    ; RF    ; FR    ; FF    ;
+------------+-------------+-------+-------+-------+-------+
; a[0]       ; cout        ; 8.710 ; 8.773 ; 8.773 ; 8.710 ;
; a[0]       ; overflow    ; 7.932 ; 7.932 ; 7.932 ; 7.932 ;
; a[0]       ; sum[0]      ; 6.486 ; 6.486 ; 6.486 ; 6.486 ;
; a[0]       ; sum[1]      ; 7.479 ; 7.479 ; 7.479 ; 7.479 ;
; a[0]       ; sum[2]      ; 7.091 ; 7.091 ; 7.091 ; 7.091 ;
; a[0]       ; sum[3]      ; 7.065 ; 7.065 ; 7.065 ; 7.065 ;
; a[0]       ; sum[4]      ; 7.301 ; 7.301 ; 7.301 ; 7.301 ;
; a[0]       ; sum[5]      ; 7.152 ; 7.152 ; 7.152 ; 7.152 ;
; a[0]       ; sum[6]      ; 7.096 ; 7.096 ; 7.096 ; 7.096 ;
; a[0]       ; sum[7]      ; 7.618 ; 7.618 ; 7.618 ; 7.618 ;
; a[1]       ; cout        ; 8.342 ; 8.678 ; 8.678 ; 8.342 ;
; a[1]       ; overflow    ; 7.564 ; 7.564 ; 7.564 ; 7.564 ;
; a[1]       ; sum[1]      ; 7.346 ; 7.346 ; 7.346 ; 7.346 ;
; a[1]       ; sum[2]      ; 7.133 ; 7.133 ; 7.133 ; 7.133 ;
; a[1]       ; sum[3]      ; 7.033 ; 7.033 ; 7.033 ; 7.033 ;
; a[1]       ; sum[4]      ; 7.269 ; 7.269 ; 7.269 ; 7.269 ;
; a[1]       ; sum[5]      ; 7.120 ; 7.120 ; 7.120 ; 7.120 ;
; a[1]       ; sum[6]      ; 7.064 ; 7.064 ; 7.064 ; 7.064 ;
; a[1]       ; sum[7]      ; 7.250 ; 7.250 ; 7.250 ; 7.250 ;
; a[2]       ; cout        ; 8.643 ; 8.759 ; 8.759 ; 8.643 ;
; a[2]       ; overflow    ; 7.865 ; 7.865 ; 7.865 ; 7.865 ;
; a[2]       ; sum[2]      ; 7.332 ; 7.332 ; 7.332 ; 7.332 ;
; a[2]       ; sum[3]      ; 6.842 ; 6.842 ; 6.842 ; 6.842 ;
; a[2]       ; sum[4]      ; 7.188 ; 7.188 ; 7.188 ; 7.188 ;
; a[2]       ; sum[5]      ; 7.039 ; 7.039 ; 7.039 ; 7.039 ;
; a[2]       ; sum[6]      ; 7.024 ; 7.024 ; 7.024 ; 7.024 ;
; a[2]       ; sum[7]      ; 7.551 ; 7.551 ; 7.551 ; 7.551 ;
; a[3]       ; cout        ; 7.511 ; 7.629 ; 7.629 ; 7.511 ;
; a[3]       ; overflow    ; 6.851 ; 6.851 ; 6.851 ; 6.851 ;
; a[3]       ; sum[3]      ; 5.787 ; 5.787 ; 5.787 ; 5.787 ;
; a[3]       ; sum[4]      ; 5.812 ; 5.812 ; 5.812 ; 5.812 ;
; a[3]       ; sum[5]      ; 5.997 ; 5.997 ; 5.997 ; 5.997 ;
; a[3]       ; sum[6]      ; 6.344 ; 6.344 ; 6.344 ; 6.344 ;
; a[3]       ; sum[7]      ; 6.537 ; 6.537 ; 6.537 ; 6.537 ;
; a[4]       ; cout        ; 7.548 ; 7.582 ; 7.582 ; 7.548 ;
; a[4]       ; overflow    ; 6.998 ; 6.998 ; 6.998 ; 6.998 ;
; a[4]       ; sum[4]      ; 5.988 ; 5.988 ; 5.988 ; 5.988 ;
; a[4]       ; sum[5]      ; 5.965 ; 5.965 ; 5.965 ; 5.965 ;
; a[4]       ; sum[6]      ; 6.415 ; 6.415 ; 6.415 ; 6.415 ;
; a[4]       ; sum[7]      ; 6.684 ; 6.684 ; 6.684 ; 6.684 ;
; a[5]       ; cout        ; 6.401 ; 7.718 ; 7.718 ; 6.401 ;
; a[5]       ; overflow    ; 6.157 ; 6.157 ; 6.157 ; 6.157 ;
; a[5]       ; sum[5]      ; 6.160 ; 6.160 ; 6.160 ; 6.160 ;
; a[5]       ; sum[6]      ; 5.409 ; 5.409 ; 5.409 ; 5.409 ;
; a[5]       ; sum[7]      ; 5.854 ; 5.854 ; 5.854 ; 5.854 ;
; a[6]       ; cout        ; 6.044 ; 6.655 ; 6.655 ; 6.044 ;
; a[6]       ; overflow    ; 5.879 ; 5.879 ; 5.879 ; 5.879 ;
; a[6]       ; sum[6]      ; 5.710 ; 5.710 ; 5.710 ; 5.710 ;
; a[6]       ; sum[7]      ; 5.568 ; 5.568 ; 5.568 ; 5.568 ;
; a[7]       ; cout        ; 5.591 ;       ;       ; 5.591 ;
; a[7]       ; overflow    ; 5.589 ; 5.589 ; 5.589 ; 5.589 ;
; a[7]       ; sum[7]      ; 5.267 ; 5.267 ; 5.267 ; 5.267 ;
; b[0]       ; cout        ; 8.898 ; 8.898 ; 8.898 ; 8.898 ;
; b[0]       ; overflow    ; 8.120 ; 8.120 ; 8.120 ; 8.120 ;
; b[0]       ; sum[0]      ; 6.678 ; 6.678 ; 6.678 ; 6.678 ;
; b[0]       ; sum[1]      ; 7.678 ; 7.678 ; 7.678 ; 7.678 ;
; b[0]       ; sum[2]      ; 7.288 ; 7.288 ; 7.288 ; 7.288 ;
; b[0]       ; sum[3]      ; 7.253 ; 7.253 ; 7.253 ; 7.253 ;
; b[0]       ; sum[4]      ; 7.489 ; 7.489 ; 7.489 ; 7.489 ;
; b[0]       ; sum[5]      ; 7.340 ; 7.340 ; 7.340 ; 7.340 ;
; b[0]       ; sum[6]      ; 7.284 ; 7.284 ; 7.284 ; 7.284 ;
; b[0]       ; sum[7]      ; 7.806 ; 7.806 ; 7.806 ; 7.806 ;
; b[1]       ; cout        ; 8.265 ; 8.265 ; 8.265 ; 8.265 ;
; b[1]       ; overflow    ; 7.487 ; 7.487 ; 7.487 ; 7.487 ;
; b[1]       ; sum[1]      ; 7.292 ; 7.292 ; 7.292 ; 7.292 ;
; b[1]       ; sum[2]      ; 7.001 ; 7.001 ; 7.001 ; 7.001 ;
; b[1]       ; sum[3]      ; 6.980 ; 6.980 ; 6.980 ; 6.980 ;
; b[1]       ; sum[4]      ; 7.216 ; 7.216 ; 7.216 ; 7.216 ;
; b[1]       ; sum[5]      ; 7.067 ; 7.067 ; 7.067 ; 7.067 ;
; b[1]       ; sum[6]      ; 7.011 ; 7.011 ; 7.011 ; 7.011 ;
; b[1]       ; sum[7]      ; 7.173 ; 7.173 ; 7.173 ; 7.173 ;
; b[2]       ; cout        ; 8.536 ; 8.536 ; 8.536 ; 8.536 ;
; b[2]       ; overflow    ; 7.758 ; 7.758 ; 7.758 ; 7.758 ;
; b[2]       ; sum[2]      ; 7.250 ; 7.250 ; 7.250 ; 7.250 ;
; b[2]       ; sum[3]      ; 6.760 ; 6.760 ; 6.760 ; 6.760 ;
; b[2]       ; sum[4]      ; 7.106 ; 7.106 ; 7.106 ; 7.106 ;
; b[2]       ; sum[5]      ; 6.957 ; 6.957 ; 6.957 ; 6.957 ;
; b[2]       ; sum[6]      ; 6.917 ; 6.917 ; 6.917 ; 6.917 ;
; b[2]       ; sum[7]      ; 7.444 ; 7.444 ; 7.444 ; 7.444 ;
; b[3]       ; cout        ; 7.709 ; 7.709 ; 7.709 ; 7.709 ;
; b[3]       ; overflow    ; 7.070 ; 7.070 ; 7.070 ; 7.070 ;
; b[3]       ; sum[3]      ; 6.006 ; 6.006 ; 6.006 ; 6.006 ;
; b[3]       ; sum[4]      ; 6.037 ; 6.037 ; 6.037 ; 6.037 ;
; b[3]       ; sum[5]      ; 6.216 ; 6.216 ; 6.216 ; 6.216 ;
; b[3]       ; sum[6]      ; 6.542 ; 6.542 ; 6.542 ; 6.542 ;
; b[3]       ; sum[7]      ; 6.756 ; 6.756 ; 6.756 ; 6.756 ;
; b[4]       ; cout        ; 7.479 ; 7.479 ; 7.479 ; 7.479 ;
; b[4]       ; overflow    ; 6.937 ; 6.937 ; 6.937 ; 6.937 ;
; b[4]       ; sum[4]      ; 5.927 ; 5.927 ; 5.927 ; 5.927 ;
; b[4]       ; sum[5]      ; 5.904 ; 5.904 ; 5.904 ; 5.904 ;
; b[4]       ; sum[6]      ; 6.354 ; 6.354 ; 6.354 ; 6.354 ;
; b[4]       ; sum[7]      ; 6.623 ; 6.623 ; 6.623 ; 6.623 ;
; b[5]       ; cout        ; 6.427 ; 6.427 ; 6.427 ; 6.427 ;
; b[5]       ; overflow    ; 6.189 ; 6.189 ; 6.189 ; 6.189 ;
; b[5]       ; sum[5]      ; 6.192 ; 6.192 ; 6.192 ; 6.192 ;
; b[5]       ; sum[6]      ; 5.437 ; 5.437 ; 5.437 ; 5.437 ;
; b[5]       ; sum[7]      ; 5.886 ; 5.886 ; 5.886 ; 5.886 ;
; b[6]       ; cout        ; 6.337 ; 6.337 ; 6.337 ; 6.337 ;
; b[6]       ; overflow    ; 5.925 ; 5.925 ; 5.925 ; 5.925 ;
; b[6]       ; sum[6]      ; 5.756 ; 5.756 ; 5.756 ; 5.756 ;
; b[6]       ; sum[7]      ; 5.614 ; 5.614 ; 5.614 ; 5.614 ;
; b[7]       ; cout        ; 5.693 ; 5.693 ; 5.693 ; 5.693 ;
; b[7]       ; overflow    ; 5.691 ; 5.691 ; 5.691 ; 5.691 ;
; b[7]       ; sum[7]      ; 5.294 ; 5.294 ; 5.294 ; 5.294 ;
; cin        ; cout        ; 8.695 ;       ;       ; 8.695 ;
; cin        ; overflow    ; 7.917 ; 7.917 ; 7.917 ; 7.917 ;
; cin        ; sum[0]      ; 6.379 ; 6.379 ; 6.379 ; 6.379 ;
; cin        ; sum[1]      ; 7.376 ; 7.376 ; 7.376 ; 7.376 ;
; cin        ; sum[2]      ; 7.013 ; 7.013 ; 7.013 ; 7.013 ;
; cin        ; sum[3]      ; 7.050 ; 7.050 ; 7.050 ; 7.050 ;
; cin        ; sum[4]      ; 7.284 ; 7.284 ; 7.284 ; 7.284 ;
; cin        ; sum[5]      ; 7.135 ; 7.135 ; 7.135 ; 7.135 ;
; cin        ; sum[6]      ; 7.079 ; 7.079 ; 7.079 ; 7.079 ;
; cin        ; sum[7]      ; 7.603 ; 7.603 ; 7.603 ; 7.603 ;
; subtract   ; cout        ; 5.856 ; 5.856 ; 5.856 ; 5.856 ;
; subtract   ; overflow    ; 5.672 ; 5.672 ; 5.672 ; 5.672 ;
; subtract   ; sum[0]      ; 6.405 ; 6.405 ; 6.405 ; 6.405 ;
; subtract   ; sum[1]      ; 7.365 ; 7.365 ; 7.365 ; 7.365 ;
; subtract   ; sum[2]      ; 6.949 ; 6.949 ; 6.949 ; 6.949 ;
; subtract   ; sum[3]      ; 5.754 ; 5.754 ; 5.754 ; 5.754 ;
; subtract   ; sum[4]      ; 5.784 ; 5.784 ; 5.784 ; 5.784 ;
; subtract   ; sum[5]      ; 5.838 ; 5.838 ; 5.838 ; 5.838 ;
; subtract   ; sum[6]      ; 5.495 ; 5.495 ; 5.495 ; 5.495 ;
; subtract   ; sum[7]      ; 5.361 ; 5.361 ; 5.361 ; 5.361 ;
+------------+-------------+-------+-------+-------+-------+


-------------------
; Clock Transfers ;
-------------------
Nothing to report.


---------------
; Report TCCS ;
---------------
No dedicated SERDES Transmitter circuitry present in device or used in design


---------------
; Report RSKM ;
---------------
No dedicated SERDES Receiver circuitry present in device or used in design


+------------------------------------------------+
; Unconstrained Paths                            ;
+---------------------------------+-------+------+
; Property                        ; Setup ; Hold ;
+---------------------------------+-------+------+
; Illegal Clocks                  ; 0     ; 0    ;
; Unconstrained Clocks            ; 0     ; 0    ;
; Unconstrained Input Ports       ; 18    ; 18   ;
; Unconstrained Input Port Paths  ; 124   ; 124  ;
; Unconstrained Output Ports      ; 10    ; 10   ;
; Unconstrained Output Port Paths ; 124   ; 124  ;
+---------------------------------+-------+------+


+------------------------------------+
; TimeQuest Timing Analyzer Messages ;
+------------------------------------+
Info: *******************************************************************
Info: Running Quartus II 64-Bit TimeQuest Timing Analyzer
    Info: Version 13.0.1 Build 232 06/12/2013 Service Pack 1 SJ Web Edition
    Info: Processing started: Mon Oct 05 18:02:04 2015
Info: Command: quartus_sta Add_sub -c Add_sub
Info: qsta_default_script.tcl version: #1
Info (20030): Parallel compilation is enabled and will use 4 of the 4 processors detected
Info (21077): Low junction temperature is 0 degrees C
Info (21077): High junction temperature is 85 degrees C
Critical Warning (332012): Synopsys Design Constraints File file not found: 'Add_sub.sdc'. A Synopsys Design Constraints File is required by the TimeQuest Timing Analyzer to get proper timing constraints. Without it, the Compiler will not properly optimize the design.
Info (332142): No user constrained base clocks found in the design. Calling "derive_clocks -period 1.0"
Info (332096): The command derive_clocks did not find any clocks to derive.  No clocks were created or changed.
Warning (332068): No clocks defined in design.
Info: Found TIMEQUEST_REPORT_SCRIPT_INCLUDE_DEFAULT_ANALYSIS = ON
Info (332159): No clocks to report
Info: Analyzing Slow Model
Info (332140): No fmax paths to report
Info (332140): No Setup paths to report
Info (332140): No Hold paths to report
Info (332140): No Recovery paths to report
Info (332140): No Removal paths to report
Info (332140): No Minimum Pulse Width paths to report
Info (332001): The selected device family is not supported by the report_metastability command.
Info: Analyzing Fast Model
Info (332142): No user constrained base clocks found in the design. Calling "derive_clocks -period 1.0"
Info (332096): The command derive_clocks did not find any clocks to derive.  No clocks were created or changed.
Warning (332068): No clocks defined in design.
Info (332140): No Setup paths to report
Info (332140): No Hold paths to report
Info (332140): No Recovery paths to report
Info (332140): No Removal paths to report
Info (332140): No Minimum Pulse Width paths to report
Info (332001): The selected device family is not supported by the report_metastability command.
Info (332102): Design is not fully constrained for setup requirements
Info (332102): Design is not fully constrained for hold requirements
Info: Quartus II 64-Bit TimeQuest Timing Analyzer was successful. 0 errors, 3 warnings
    Info: Peak virtual memory: 469 megabytes
    Info: Processing ended: Mon Oct 05 18:02:04 2015
    Info: Elapsed time: 00:00:00
    Info: Total CPU time (on all processors): 00:00:01


