/*
WARNING: Do NOT edit the input and output ports in this file in a text
editor if you plan to continue editing the block that represents it in
the Block Editor! File corruption is VERY likely to occur.
*/
/*
Copyright (C) 1991-2010 Altera Corporation
Your use of Altera Corporation's design tools, logic functions 
and other software and tools, and its AMPP partner logic 
functions, and any output files from any of the foregoing 
(including device programming or simulation files), and any 
associated documentation or information are expressly subject 
to the terms and conditions of the Altera Program License 
Subscription Agreement, Altera MegaCore Function License 
Agreement, or other applicable license agreement, including, 
without limitation, that your use is for the sole purpose of 
programming logic devices manufactured by Altera and sold by 
Altera or its authorized distributors.  Please refer to the 
applicable agreement for further details.
*/
//#pragma file_not_in_maxplusii_format
(header "graphic" (version "1.3"))
(pin
	(input)
	(rect 56 216 224 232)
	(text "INPUT" (rect 133 0 161 10)(font "Arial" (font_size 6)))
	(text "w" (rect 5 0 12 12)(font "Arial" ))
	(pt 168 8)
	(drawing
		(line (pt 92 12)(pt 117 12)(line_width 1))
		(line (pt 92 4)(pt 117 4)(line_width 1))
		(line (pt 121 8)(pt 168 8)(line_width 1))
		(line (pt 92 12)(pt 92 4)(line_width 1))
		(line (pt 117 4)(pt 121 8)(line_width 1))
		(line (pt 117 12)(pt 121 8)(line_width 1))
	)
	(text "VCC" (rect 136 7 156 17)(font "Arial" (font_size 6)))
)
(pin
	(input)
	(rect 8 -248 176 -232)
	(text "INPUT" (rect 133 0 161 10)(font "Arial" (font_size 6)))
	(text "clk_en" (rect 5 0 36 12)(font "Arial" ))
	(pt 168 8)
	(drawing
		(line (pt 92 12)(pt 117 12)(line_width 1))
		(line (pt 92 4)(pt 117 4)(line_width 1))
		(line (pt 121 8)(pt 168 8)(line_width 1))
		(line (pt 92 12)(pt 92 4)(line_width 1))
		(line (pt 117 4)(pt 121 8)(line_width 1))
		(line (pt 117 12)(pt 121 8)(line_width 1))
	)
	(text "VCC" (rect 136 7 156 17)(font "Arial" (font_size 6)))
	(annotation_block (location)(rect -40 -232 8 -216))
)
(pin
	(input)
	(rect 8 -264 176 -248)
	(text "INPUT" (rect 133 0 161 10)(font "Arial" (font_size 6)))
	(text "clock" (rect 5 0 30 12)(font "Arial" ))
	(pt 168 8)
	(drawing
		(line (pt 92 12)(pt 117 12)(line_width 1))
		(line (pt 92 4)(pt 117 4)(line_width 1))
		(line (pt 121 8)(pt 168 8)(line_width 1))
		(line (pt 92 12)(pt 92 4)(line_width 1))
		(line (pt 117 4)(pt 121 8)(line_width 1))
		(line (pt 117 12)(pt 121 8)(line_width 1))
	)
	(text "VCC" (rect 136 7 156 17)(font "Arial" (font_size 6)))
)
(pin
	(input)
	(rect 8 -232 176 -216)
	(text "INPUT" (rect 133 0 161 10)(font "Arial" (font_size 6)))
	(text "aclr" (rect 5 0 22 12)(font "Arial" ))
	(pt 168 8)
	(drawing
		(line (pt 92 12)(pt 117 12)(line_width 1))
		(line (pt 92 4)(pt 117 4)(line_width 1))
		(line (pt 121 8)(pt 168 8)(line_width 1))
		(line (pt 92 12)(pt 92 4)(line_width 1))
		(line (pt 117 4)(pt 121 8)(line_width 1))
		(line (pt 117 12)(pt 121 8)(line_width 1))
	)
	(text "VCC" (rect 136 7 156 17)(font "Arial" (font_size 6)))
)
(pin
	(input)
	(rect 56 232 224 248)
	(text "INPUT" (rect 133 0 161 10)(font "Arial" (font_size 6)))
	(text "ck" (rect 5 0 16 12)(font "Arial" ))
	(pt 168 8)
	(drawing
		(line (pt 92 12)(pt 117 12)(line_width 1))
		(line (pt 92 4)(pt 117 4)(line_width 1))
		(line (pt 121 8)(pt 168 8)(line_width 1))
		(line (pt 92 12)(pt 92 4)(line_width 1))
		(line (pt 117 4)(pt 121 8)(line_width 1))
		(line (pt 117 12)(pt 121 8)(line_width 1))
	)
	(text "VCC" (rect 136 7 156 17)(font "Arial" (font_size 6)))
	(annotation_block (location)(rect 8 248 56 264))
)
(pin
	(output)
	(rect 672 -352 848 -336)
	(text "OUTPUT" (rect 1 0 39 10)(font "Arial" (font_size 6)))
	(text "segment_a" (rect 90 0 144 12)(font "Arial" ))
	(pt 0 8)
	(drawing
		(line (pt 0 8)(pt 52 8)(line_width 1))
		(line (pt 52 4)(pt 78 4)(line_width 1))
		(line (pt 52 12)(pt 78 12)(line_width 1))
		(line (pt 52 12)(pt 52 4)(line_width 1))
		(line (pt 78 4)(pt 82 8)(line_width 1))
		(line (pt 82 8)(pt 78 12)(line_width 1))
		(line (pt 78 12)(pt 82 8)(line_width 1))
	)
)
(pin
	(output)
	(rect 672 -336 848 -320)
	(text "OUTPUT" (rect 1 0 39 10)(font "Arial" (font_size 6)))
	(text "segment_b" (rect 90 0 144 12)(font "Arial" ))
	(pt 0 8)
	(drawing
		(line (pt 0 8)(pt 52 8)(line_width 1))
		(line (pt 52 4)(pt 78 4)(line_width 1))
		(line (pt 52 12)(pt 78 12)(line_width 1))
		(line (pt 52 12)(pt 52 4)(line_width 1))
		(line (pt 78 4)(pt 82 8)(line_width 1))
		(line (pt 82 8)(pt 78 12)(line_width 1))
		(line (pt 78 12)(pt 82 8)(line_width 1))
	)
)
(pin
	(output)
	(rect 672 -320 848 -304)
	(text "OUTPUT" (rect 1 0 39 10)(font "Arial" (font_size 6)))
	(text "segment_c" (rect 90 0 144 12)(font "Arial" ))
	(pt 0 8)
	(drawing
		(line (pt 0 8)(pt 52 8)(line_width 1))
		(line (pt 52 4)(pt 78 4)(line_width 1))
		(line (pt 52 12)(pt 78 12)(line_width 1))
		(line (pt 52 12)(pt 52 4)(line_width 1))
		(line (pt 78 4)(pt 82 8)(line_width 1))
		(line (pt 82 8)(pt 78 12)(line_width 1))
		(line (pt 78 12)(pt 82 8)(line_width 1))
	)
)
(pin
	(output)
	(rect 672 -304 848 -288)
	(text "OUTPUT" (rect 1 0 39 10)(font "Arial" (font_size 6)))
	(text "segment_d" (rect 90 0 144 12)(font "Arial" ))
	(pt 0 8)
	(drawing
		(line (pt 0 8)(pt 52 8)(line_width 1))
		(line (pt 52 4)(pt 78 4)(line_width 1))
		(line (pt 52 12)(pt 78 12)(line_width 1))
		(line (pt 52 12)(pt 52 4)(line_width 1))
		(line (pt 78 4)(pt 82 8)(line_width 1))
		(line (pt 82 8)(pt 78 12)(line_width 1))
		(line (pt 78 12)(pt 82 8)(line_width 1))
	)
)
(pin
	(output)
	(rect 672 -288 848 -272)
	(text "OUTPUT" (rect 1 0 39 10)(font "Arial" (font_size 6)))
	(text "segment_e" (rect 90 0 144 12)(font "Arial" ))
	(pt 0 8)
	(drawing
		(line (pt 0 8)(pt 52 8)(line_width 1))
		(line (pt 52 4)(pt 78 4)(line_width 1))
		(line (pt 52 12)(pt 78 12)(line_width 1))
		(line (pt 52 12)(pt 52 4)(line_width 1))
		(line (pt 78 4)(pt 82 8)(line_width 1))
		(line (pt 82 8)(pt 78 12)(line_width 1))
		(line (pt 78 12)(pt 82 8)(line_width 1))
	)
)
(pin
	(output)
	(rect 672 -272 848 -256)
	(text "OUTPUT" (rect 1 0 39 10)(font "Arial" (font_size 6)))
	(text "segment_f" (rect 90 0 143 12)(font "Arial" ))
	(pt 0 8)
	(drawing
		(line (pt 0 8)(pt 52 8)(line_width 1))
		(line (pt 52 4)(pt 78 4)(line_width 1))
		(line (pt 52 12)(pt 78 12)(line_width 1))
		(line (pt 52 12)(pt 52 4)(line_width 1))
		(line (pt 78 4)(pt 82 8)(line_width 1))
		(line (pt 82 8)(pt 78 12)(line_width 1))
		(line (pt 78 12)(pt 82 8)(line_width 1))
	)
)
(pin
	(output)
	(rect 672 -256 848 -240)
	(text "OUTPUT" (rect 1 0 39 10)(font "Arial" (font_size 6)))
	(text "segment_g" (rect 90 0 144 12)(font "Arial" ))
	(pt 0 8)
	(drawing
		(line (pt 0 8)(pt 52 8)(line_width 1))
		(line (pt 52 4)(pt 78 4)(line_width 1))
		(line (pt 52 12)(pt 78 12)(line_width 1))
		(line (pt 52 12)(pt 52 4)(line_width 1))
		(line (pt 78 4)(pt 82 8)(line_width 1))
		(line (pt 82 8)(pt 78 12)(line_width 1))
		(line (pt 78 12)(pt 82 8)(line_width 1))
	)
)
(pin
	(output)
	(rect 672 -240 848 -224)
	(text "OUTPUT" (rect 1 0 39 10)(font "Arial" (font_size 6)))
	(text "segment_a1" (rect 90 0 150 12)(font "Arial" ))
	(pt 0 8)
	(drawing
		(line (pt 0 8)(pt 52 8)(line_width 1))
		(line (pt 52 4)(pt 78 4)(line_width 1))
		(line (pt 52 12)(pt 78 12)(line_width 1))
		(line (pt 52 12)(pt 52 4)(line_width 1))
		(line (pt 78 4)(pt 82 8)(line_width 1))
		(line (pt 82 8)(pt 78 12)(line_width 1))
		(line (pt 78 12)(pt 82 8)(line_width 1))
	)
)
(pin
	(output)
	(rect 672 -224 848 -208)
	(text "OUTPUT" (rect 1 0 39 10)(font "Arial" (font_size 6)))
	(text "segment_c1" (rect 90 0 150 12)(font "Arial" ))
	(pt 0 8)
	(drawing
		(line (pt 0 8)(pt 52 8)(line_width 1))
		(line (pt 52 4)(pt 78 4)(line_width 1))
		(line (pt 52 12)(pt 78 12)(line_width 1))
		(line (pt 52 12)(pt 52 4)(line_width 1))
		(line (pt 78 4)(pt 82 8)(line_width 1))
		(line (pt 82 8)(pt 78 12)(line_width 1))
		(line (pt 78 12)(pt 82 8)(line_width 1))
	)
)
(pin
	(output)
	(rect 672 -208 848 -192)
	(text "OUTPUT" (rect 1 0 39 10)(font "Arial" (font_size 6)))
	(text "segment_b1" (rect 90 0 150 12)(font "Arial" ))
	(pt 0 8)
	(drawing
		(line (pt 0 8)(pt 52 8)(line_width 1))
		(line (pt 52 4)(pt 78 4)(line_width 1))
		(line (pt 52 12)(pt 78 12)(line_width 1))
		(line (pt 52 12)(pt 52 4)(line_width 1))
		(line (pt 78 4)(pt 82 8)(line_width 1))
		(line (pt 82 8)(pt 78 12)(line_width 1))
		(line (pt 78 12)(pt 82 8)(line_width 1))
	)
)
(pin
	(output)
	(rect 672 -192 848 -176)
	(text "OUTPUT" (rect 1 0 39 10)(font "Arial" (font_size 6)))
	(text "segment_d1" (rect 90 0 150 12)(font "Arial" ))
	(pt 0 8)
	(drawing
		(line (pt 0 8)(pt 52 8)(line_width 1))
		(line (pt 52 4)(pt 78 4)(line_width 1))
		(line (pt 52 12)(pt 78 12)(line_width 1))
		(line (pt 52 12)(pt 52 4)(line_width 1))
		(line (pt 78 4)(pt 82 8)(line_width 1))
		(line (pt 82 8)(pt 78 12)(line_width 1))
		(line (pt 78 12)(pt 82 8)(line_width 1))
	)
)
(pin
	(output)
	(rect 672 -176 848 -160)
	(text "OUTPUT" (rect 1 0 39 10)(font "Arial" (font_size 6)))
	(text "segment_e1" (rect 90 0 150 12)(font "Arial" ))
	(pt 0 8)
	(drawing
		(line (pt 0 8)(pt 52 8)(line_width 1))
		(line (pt 52 4)(pt 78 4)(line_width 1))
		(line (pt 52 12)(pt 78 12)(line_width 1))
		(line (pt 52 12)(pt 52 4)(line_width 1))
		(line (pt 78 4)(pt 82 8)(line_width 1))
		(line (pt 82 8)(pt 78 12)(line_width 1))
		(line (pt 78 12)(pt 82 8)(line_width 1))
	)
)
(pin
	(output)
	(rect 672 -160 848 -144)
	(text "OUTPUT" (rect 1 0 39 10)(font "Arial" (font_size 6)))
	(text "segment_f1" (rect 90 0 149 12)(font "Arial" ))
	(pt 0 8)
	(drawing
		(line (pt 0 8)(pt 52 8)(line_width 1))
		(line (pt 52 4)(pt 78 4)(line_width 1))
		(line (pt 52 12)(pt 78 12)(line_width 1))
		(line (pt 52 12)(pt 52 4)(line_width 1))
		(line (pt 78 4)(pt 82 8)(line_width 1))
		(line (pt 82 8)(pt 78 12)(line_width 1))
		(line (pt 78 12)(pt 82 8)(line_width 1))
	)
)
(pin
	(output)
	(rect 672 -144 848 -128)
	(text "OUTPUT" (rect 1 0 39 10)(font "Arial" (font_size 6)))
	(text "segment_g1" (rect 90 0 150 12)(font "Arial" ))
	(pt 0 8)
	(drawing
		(line (pt 0 8)(pt 52 8)(line_width 1))
		(line (pt 52 4)(pt 78 4)(line_width 1))
		(line (pt 52 12)(pt 78 12)(line_width 1))
		(line (pt 52 12)(pt 52 4)(line_width 1))
		(line (pt 78 4)(pt 82 8)(line_width 1))
		(line (pt 82 8)(pt 78 12)(line_width 1))
		(line (pt 78 12)(pt 82 8)(line_width 1))
	)
)
(pin
	(output)
	(rect 672 -128 848 -112)
	(text "OUTPUT" (rect 1 0 39 10)(font "Arial" (font_size 6)))
	(text "segment_a2" (rect 90 0 150 12)(font "Arial" ))
	(pt 0 8)
	(drawing
		(line (pt 0 8)(pt 52 8)(line_width 1))
		(line (pt 52 4)(pt 78 4)(line_width 1))
		(line (pt 52 12)(pt 78 12)(line_width 1))
		(line (pt 52 12)(pt 52 4)(line_width 1))
		(line (pt 78 4)(pt 82 8)(line_width 1))
		(line (pt 82 8)(pt 78 12)(line_width 1))
		(line (pt 78 12)(pt 82 8)(line_width 1))
	)
)
(pin
	(output)
	(rect 672 -112 848 -96)
	(text "OUTPUT" (rect 1 0 39 10)(font "Arial" (font_size 6)))
	(text "segment_b2" (rect 90 0 150 12)(font "Arial" ))
	(pt 0 8)
	(drawing
		(line (pt 0 8)(pt 52 8)(line_width 1))
		(line (pt 52 4)(pt 78 4)(line_width 1))
		(line (pt 52 12)(pt 78 12)(line_width 1))
		(line (pt 52 12)(pt 52 4)(line_width 1))
		(line (pt 78 4)(pt 82 8)(line_width 1))
		(line (pt 82 8)(pt 78 12)(line_width 1))
		(line (pt 78 12)(pt 82 8)(line_width 1))
	)
)
(pin
	(output)
	(rect 672 -96 848 -80)
	(text "OUTPUT" (rect 1 0 39 10)(font "Arial" (font_size 6)))
	(text "segment_c2" (rect 90 0 150 12)(font "Arial" ))
	(pt 0 8)
	(drawing
		(line (pt 0 8)(pt 52 8)(line_width 1))
		(line (pt 52 4)(pt 78 4)(line_width 1))
		(line (pt 52 12)(pt 78 12)(line_width 1))
		(line (pt 52 12)(pt 52 4)(line_width 1))
		(line (pt 78 4)(pt 82 8)(line_width 1))
		(line (pt 82 8)(pt 78 12)(line_width 1))
		(line (pt 78 12)(pt 82 8)(line_width 1))
	)
)
(pin
	(output)
	(rect 672 -80 848 -64)
	(text "OUTPUT" (rect 1 0 39 10)(font "Arial" (font_size 6)))
	(text "segment_d2" (rect 90 0 150 12)(font "Arial" ))
	(pt 0 8)
	(drawing
		(line (pt 0 8)(pt 52 8)(line_width 1))
		(line (pt 52 4)(pt 78 4)(line_width 1))
		(line (pt 52 12)(pt 78 12)(line_width 1))
		(line (pt 52 12)(pt 52 4)(line_width 1))
		(line (pt 78 4)(pt 82 8)(line_width 1))
		(line (pt 82 8)(pt 78 12)(line_width 1))
		(line (pt 78 12)(pt 82 8)(line_width 1))
	)
)
(pin
	(output)
	(rect 672 -64 848 -48)
	(text "OUTPUT" (rect 1 0 39 10)(font "Arial" (font_size 6)))
	(text "segment_e2" (rect 90 0 150 12)(font "Arial" ))
	(pt 0 8)
	(drawing
		(line (pt 0 8)(pt 52 8)(line_width 1))
		(line (pt 52 4)(pt 78 4)(line_width 1))
		(line (pt 52 12)(pt 78 12)(line_width 1))
		(line (pt 52 12)(pt 52 4)(line_width 1))
		(line (pt 78 4)(pt 82 8)(line_width 1))
		(line (pt 82 8)(pt 78 12)(line_width 1))
		(line (pt 78 12)(pt 82 8)(line_width 1))
	)
)
(pin
	(output)
	(rect 672 -48 848 -32)
	(text "OUTPUT" (rect 1 0 39 10)(font "Arial" (font_size 6)))
	(text "segment_f2" (rect 90 0 149 12)(font "Arial" ))
	(pt 0 8)
	(drawing
		(line (pt 0 8)(pt 52 8)(line_width 1))
		(line (pt 52 4)(pt 78 4)(line_width 1))
		(line (pt 52 12)(pt 78 12)(line_width 1))
		(line (pt 52 12)(pt 52 4)(line_width 1))
		(line (pt 78 4)(pt 82 8)(line_width 1))
		(line (pt 82 8)(pt 78 12)(line_width 1))
		(line (pt 78 12)(pt 82 8)(line_width 1))
	)
)
(pin
	(output)
	(rect 672 -32 848 -16)
	(text "OUTPUT" (rect 1 0 39 10)(font "Arial" (font_size 6)))
	(text "segment_g2" (rect 90 0 150 12)(font "Arial" ))
	(pt 0 8)
	(drawing
		(line (pt 0 8)(pt 52 8)(line_width 1))
		(line (pt 52 4)(pt 78 4)(line_width 1))
		(line (pt 52 12)(pt 78 12)(line_width 1))
		(line (pt 52 12)(pt 52 4)(line_width 1))
		(line (pt 78 4)(pt 82 8)(line_width 1))
		(line (pt 82 8)(pt 78 12)(line_width 1))
		(line (pt 78 12)(pt 82 8)(line_width 1))
	)
)
(pin
	(output)
	(rect 672 -16 848 0)
	(text "OUTPUT" (rect 1 0 39 10)(font "Arial" (font_size 6)))
	(text "segment_a3" (rect 90 0 150 12)(font "Arial" ))
	(pt 0 8)
	(drawing
		(line (pt 0 8)(pt 52 8)(line_width 1))
		(line (pt 52 4)(pt 78 4)(line_width 1))
		(line (pt 52 12)(pt 78 12)(line_width 1))
		(line (pt 52 12)(pt 52 4)(line_width 1))
		(line (pt 78 4)(pt 82 8)(line_width 1))
		(line (pt 82 8)(pt 78 12)(line_width 1))
		(line (pt 78 12)(pt 82 8)(line_width 1))
	)
)
(pin
	(output)
	(rect 672 0 848 16)
	(text "OUTPUT" (rect 1 0 39 10)(font "Arial" (font_size 6)))
	(text "segment_b3" (rect 90 0 150 12)(font "Arial" ))
	(pt 0 8)
	(drawing
		(line (pt 0 8)(pt 52 8)(line_width 1))
		(line (pt 52 4)(pt 78 4)(line_width 1))
		(line (pt 52 12)(pt 78 12)(line_width 1))
		(line (pt 52 12)(pt 52 4)(line_width 1))
		(line (pt 78 4)(pt 82 8)(line_width 1))
		(line (pt 82 8)(pt 78 12)(line_width 1))
		(line (pt 78 12)(pt 82 8)(line_width 1))
	)
)
(pin
	(output)
	(rect 672 16 848 32)
	(text "OUTPUT" (rect 1 0 39 10)(font "Arial" (font_size 6)))
	(text "segment_c3" (rect 90 0 150 12)(font "Arial" ))
	(pt 0 8)
	(drawing
		(line (pt 0 8)(pt 52 8)(line_width 1))
		(line (pt 52 4)(pt 78 4)(line_width 1))
		(line (pt 52 12)(pt 78 12)(line_width 1))
		(line (pt 52 12)(pt 52 4)(line_width 1))
		(line (pt 78 4)(pt 82 8)(line_width 1))
		(line (pt 82 8)(pt 78 12)(line_width 1))
		(line (pt 78 12)(pt 82 8)(line_width 1))
	)
)
(pin
	(output)
	(rect 672 32 848 48)
	(text "OUTPUT" (rect 1 0 39 10)(font "Arial" (font_size 6)))
	(text "segment_d3" (rect 90 0 150 12)(font "Arial" ))
	(pt 0 8)
	(drawing
		(line (pt 0 8)(pt 52 8)(line_width 1))
		(line (pt 52 4)(pt 78 4)(line_width 1))
		(line (pt 52 12)(pt 78 12)(line_width 1))
		(line (pt 52 12)(pt 52 4)(line_width 1))
		(line (pt 78 4)(pt 82 8)(line_width 1))
		(line (pt 82 8)(pt 78 12)(line_width 1))
		(line (pt 78 12)(pt 82 8)(line_width 1))
	)
)
(pin
	(output)
	(rect 672 48 848 64)
	(text "OUTPUT" (rect 1 0 39 10)(font "Arial" (font_size 6)))
	(text "segment_e3" (rect 90 0 150 12)(font "Arial" ))
	(pt 0 8)
	(drawing
		(line (pt 0 8)(pt 52 8)(line_width 1))
		(line (pt 52 4)(pt 78 4)(line_width 1))
		(line (pt 52 12)(pt 78 12)(line_width 1))
		(line (pt 52 12)(pt 52 4)(line_width 1))
		(line (pt 78 4)(pt 82 8)(line_width 1))
		(line (pt 82 8)(pt 78 12)(line_width 1))
		(line (pt 78 12)(pt 82 8)(line_width 1))
	)
)
(pin
	(output)
	(rect 672 64 848 80)
	(text "OUTPUT" (rect 1 0 39 10)(font "Arial" (font_size 6)))
	(text "segment_f3" (rect 90 0 149 12)(font "Arial" ))
	(pt 0 8)
	(drawing
		(line (pt 0 8)(pt 52 8)(line_width 1))
		(line (pt 52 4)(pt 78 4)(line_width 1))
		(line (pt 52 12)(pt 78 12)(line_width 1))
		(line (pt 52 12)(pt 52 4)(line_width 1))
		(line (pt 78 4)(pt 82 8)(line_width 1))
		(line (pt 82 8)(pt 78 12)(line_width 1))
		(line (pt 78 12)(pt 82 8)(line_width 1))
	)
)
(pin
	(output)
	(rect 672 80 848 96)
	(text "OUTPUT" (rect 1 0 39 10)(font "Arial" (font_size 6)))
	(text "segment_g3" (rect 90 0 150 12)(font "Arial" ))
	(pt 0 8)
	(drawing
		(line (pt 0 8)(pt 52 8)(line_width 1))
		(line (pt 52 4)(pt 78 4)(line_width 1))
		(line (pt 52 12)(pt 78 12)(line_width 1))
		(line (pt 52 12)(pt 52 4)(line_width 1))
		(line (pt 78 4)(pt 82 8)(line_width 1))
		(line (pt 82 8)(pt 78 12)(line_width 1))
		(line (pt 78 12)(pt 82 8)(line_width 1))
	)
)
(pin
	(output)
	(rect 672 96 848 112)
	(text "OUTPUT" (rect 1 0 39 10)(font "Arial" (font_size 6)))
	(text "segment_a4" (rect 90 0 150 12)(font "Arial" ))
	(pt 0 8)
	(drawing
		(line (pt 0 8)(pt 52 8)(line_width 1))
		(line (pt 52 4)(pt 78 4)(line_width 1))
		(line (pt 52 12)(pt 78 12)(line_width 1))
		(line (pt 52 12)(pt 52 4)(line_width 1))
		(line (pt 78 4)(pt 82 8)(line_width 1))
		(line (pt 82 8)(pt 78 12)(line_width 1))
		(line (pt 78 12)(pt 82 8)(line_width 1))
	)
)
(pin
	(output)
	(rect 672 112 848 128)
	(text "OUTPUT" (rect 1 0 39 10)(font "Arial" (font_size 6)))
	(text "segment_b4" (rect 90 0 150 12)(font "Arial" ))
	(pt 0 8)
	(drawing
		(line (pt 0 8)(pt 52 8)(line_width 1))
		(line (pt 52 4)(pt 78 4)(line_width 1))
		(line (pt 52 12)(pt 78 12)(line_width 1))
		(line (pt 52 12)(pt 52 4)(line_width 1))
		(line (pt 78 4)(pt 82 8)(line_width 1))
		(line (pt 82 8)(pt 78 12)(line_width 1))
		(line (pt 78 12)(pt 82 8)(line_width 1))
	)
)
(pin
	(output)
	(rect 672 128 848 144)
	(text "OUTPUT" (rect 1 0 39 10)(font "Arial" (font_size 6)))
	(text "segment_c4" (rect 90 0 150 12)(font "Arial" ))
	(pt 0 8)
	(drawing
		(line (pt 0 8)(pt 52 8)(line_width 1))
		(line (pt 52 4)(pt 78 4)(line_width 1))
		(line (pt 52 12)(pt 78 12)(line_width 1))
		(line (pt 52 12)(pt 52 4)(line_width 1))
		(line (pt 78 4)(pt 82 8)(line_width 1))
		(line (pt 82 8)(pt 78 12)(line_width 1))
		(line (pt 78 12)(pt 82 8)(line_width 1))
	)
)
(pin
	(output)
	(rect 672 144 848 160)
	(text "OUTPUT" (rect 1 0 39 10)(font "Arial" (font_size 6)))
	(text "segment_d4" (rect 90 0 150 12)(font "Arial" ))
	(pt 0 8)
	(drawing
		(line (pt 0 8)(pt 52 8)(line_width 1))
		(line (pt 52 4)(pt 78 4)(line_width 1))
		(line (pt 52 12)(pt 78 12)(line_width 1))
		(line (pt 52 12)(pt 52 4)(line_width 1))
		(line (pt 78 4)(pt 82 8)(line_width 1))
		(line (pt 82 8)(pt 78 12)(line_width 1))
		(line (pt 78 12)(pt 82 8)(line_width 1))
	)
)
(pin
	(output)
	(rect 672 160 848 176)
	(text "OUTPUT" (rect 1 0 39 10)(font "Arial" (font_size 6)))
	(text "segment_e4" (rect 90 0 150 12)(font "Arial" ))
	(pt 0 8)
	(drawing
		(line (pt 0 8)(pt 52 8)(line_width 1))
		(line (pt 52 4)(pt 78 4)(line_width 1))
		(line (pt 52 12)(pt 78 12)(line_width 1))
		(line (pt 52 12)(pt 52 4)(line_width 1))
		(line (pt 78 4)(pt 82 8)(line_width 1))
		(line (pt 82 8)(pt 78 12)(line_width 1))
		(line (pt 78 12)(pt 82 8)(line_width 1))
	)
)
(pin
	(output)
	(rect 672 176 848 192)
	(text "OUTPUT" (rect 1 0 39 10)(font "Arial" (font_size 6)))
	(text "segment_f4" (rect 90 0 149 12)(font "Arial" ))
	(pt 0 8)
	(drawing
		(line (pt 0 8)(pt 52 8)(line_width 1))
		(line (pt 52 4)(pt 78 4)(line_width 1))
		(line (pt 52 12)(pt 78 12)(line_width 1))
		(line (pt 52 12)(pt 52 4)(line_width 1))
		(line (pt 78 4)(pt 82 8)(line_width 1))
		(line (pt 82 8)(pt 78 12)(line_width 1))
		(line (pt 78 12)(pt 82 8)(line_width 1))
	)
)
(pin
	(output)
	(rect 672 192 848 208)
	(text "OUTPUT" (rect 1 0 39 10)(font "Arial" (font_size 6)))
	(text "segment_g4" (rect 90 0 150 12)(font "Arial" ))
	(pt 0 8)
	(drawing
		(line (pt 0 8)(pt 52 8)(line_width 1))
		(line (pt 52 4)(pt 78 4)(line_width 1))
		(line (pt 52 12)(pt 78 12)(line_width 1))
		(line (pt 52 12)(pt 52 4)(line_width 1))
		(line (pt 78 4)(pt 82 8)(line_width 1))
		(line (pt 82 8)(pt 78 12)(line_width 1))
		(line (pt 78 12)(pt 82 8)(line_width 1))
	)
)
(pin
	(output)
	(rect 672 208 848 224)
	(text "OUTPUT" (rect 1 0 39 10)(font "Arial" (font_size 6)))
	(text "segment_a5" (rect 90 0 150 12)(font "Arial" ))
	(pt 0 8)
	(drawing
		(line (pt 0 8)(pt 52 8)(line_width 1))
		(line (pt 52 4)(pt 78 4)(line_width 1))
		(line (pt 52 12)(pt 78 12)(line_width 1))
		(line (pt 52 12)(pt 52 4)(line_width 1))
		(line (pt 78 4)(pt 82 8)(line_width 1))
		(line (pt 82 8)(pt 78 12)(line_width 1))
		(line (pt 78 12)(pt 82 8)(line_width 1))
	)
)
(pin
	(output)
	(rect 672 224 848 240)
	(text "OUTPUT" (rect 1 0 39 10)(font "Arial" (font_size 6)))
	(text "segment_b5" (rect 90 0 150 12)(font "Arial" ))
	(pt 0 8)
	(drawing
		(line (pt 0 8)(pt 52 8)(line_width 1))
		(line (pt 52 4)(pt 78 4)(line_width 1))
		(line (pt 52 12)(pt 78 12)(line_width 1))
		(line (pt 52 12)(pt 52 4)(line_width 1))
		(line (pt 78 4)(pt 82 8)(line_width 1))
		(line (pt 82 8)(pt 78 12)(line_width 1))
		(line (pt 78 12)(pt 82 8)(line_width 1))
	)
)
(pin
	(output)
	(rect 672 240 848 256)
	(text "OUTPUT" (rect 1 0 39 10)(font "Arial" (font_size 6)))
	(text "segment_c5" (rect 90 0 150 12)(font "Arial" ))
	(pt 0 8)
	(drawing
		(line (pt 0 8)(pt 52 8)(line_width 1))
		(line (pt 52 4)(pt 78 4)(line_width 1))
		(line (pt 52 12)(pt 78 12)(line_width 1))
		(line (pt 52 12)(pt 52 4)(line_width 1))
		(line (pt 78 4)(pt 82 8)(line_width 1))
		(line (pt 82 8)(pt 78 12)(line_width 1))
		(line (pt 78 12)(pt 82 8)(line_width 1))
	)
)
(pin
	(output)
	(rect 672 256 848 272)
	(text "OUTPUT" (rect 1 0 39 10)(font "Arial" (font_size 6)))
	(text "segment_d5" (rect 90 0 150 12)(font "Arial" ))
	(pt 0 8)
	(drawing
		(line (pt 0 8)(pt 52 8)(line_width 1))
		(line (pt 52 4)(pt 78 4)(line_width 1))
		(line (pt 52 12)(pt 78 12)(line_width 1))
		(line (pt 52 12)(pt 52 4)(line_width 1))
		(line (pt 78 4)(pt 82 8)(line_width 1))
		(line (pt 82 8)(pt 78 12)(line_width 1))
		(line (pt 78 12)(pt 82 8)(line_width 1))
	)
)
(pin
	(output)
	(rect 672 272 848 288)
	(text "OUTPUT" (rect 1 0 39 10)(font "Arial" (font_size 6)))
	(text "segment_e5" (rect 90 0 150 12)(font "Arial" ))
	(pt 0 8)
	(drawing
		(line (pt 0 8)(pt 52 8)(line_width 1))
		(line (pt 52 4)(pt 78 4)(line_width 1))
		(line (pt 52 12)(pt 78 12)(line_width 1))
		(line (pt 52 12)(pt 52 4)(line_width 1))
		(line (pt 78 4)(pt 82 8)(line_width 1))
		(line (pt 82 8)(pt 78 12)(line_width 1))
		(line (pt 78 12)(pt 82 8)(line_width 1))
	)
)
(pin
	(output)
	(rect 672 288 848 304)
	(text "OUTPUT" (rect 1 0 39 10)(font "Arial" (font_size 6)))
	(text "segment_f5" (rect 90 0 149 12)(font "Arial" ))
	(pt 0 8)
	(drawing
		(line (pt 0 8)(pt 52 8)(line_width 1))
		(line (pt 52 4)(pt 78 4)(line_width 1))
		(line (pt 52 12)(pt 78 12)(line_width 1))
		(line (pt 52 12)(pt 52 4)(line_width 1))
		(line (pt 78 4)(pt 82 8)(line_width 1))
		(line (pt 82 8)(pt 78 12)(line_width 1))
		(line (pt 78 12)(pt 82 8)(line_width 1))
	)
)
(pin
	(output)
	(rect 672 304 848 320)
	(text "OUTPUT" (rect 1 0 39 10)(font "Arial" (font_size 6)))
	(text "segment_g5" (rect 90 0 150 12)(font "Arial" ))
	(pt 0 8)
	(drawing
		(line (pt 0 8)(pt 52 8)(line_width 1))
		(line (pt 52 4)(pt 78 4)(line_width 1))
		(line (pt 52 12)(pt 78 12)(line_width 1))
		(line (pt 52 12)(pt 52 4)(line_width 1))
		(line (pt 78 4)(pt 82 8)(line_width 1))
		(line (pt 82 8)(pt 78 12)(line_width 1))
		(line (pt 78 12)(pt 82 8)(line_width 1))
	)
)
(pin
	(output)
	(rect 672 320 848 336)
	(text "OUTPUT" (rect 1 0 39 10)(font "Arial" (font_size 6)))
	(text "segment_a7" (rect 90 0 150 12)(font "Arial" ))
	(pt 0 8)
	(drawing
		(line (pt 0 8)(pt 52 8)(line_width 1))
		(line (pt 52 4)(pt 78 4)(line_width 1))
		(line (pt 52 12)(pt 78 12)(line_width 1))
		(line (pt 52 12)(pt 52 4)(line_width 1))
		(line (pt 78 4)(pt 82 8)(line_width 1))
		(line (pt 82 8)(pt 78 12)(line_width 1))
		(line (pt 78 12)(pt 82 8)(line_width 1))
	)
)
(pin
	(output)
	(rect 672 336 848 352)
	(text "OUTPUT" (rect 1 0 39 10)(font "Arial" (font_size 6)))
	(text "segment_b7" (rect 90 0 150 12)(font "Arial" ))
	(pt 0 8)
	(drawing
		(line (pt 0 8)(pt 52 8)(line_width 1))
		(line (pt 52 4)(pt 78 4)(line_width 1))
		(line (pt 52 12)(pt 78 12)(line_width 1))
		(line (pt 52 12)(pt 52 4)(line_width 1))
		(line (pt 78 4)(pt 82 8)(line_width 1))
		(line (pt 82 8)(pt 78 12)(line_width 1))
		(line (pt 78 12)(pt 82 8)(line_width 1))
	)
)
(pin
	(output)
	(rect 672 352 848 368)
	(text "OUTPUT" (rect 1 0 39 10)(font "Arial" (font_size 6)))
	(text "segment_c7" (rect 90 0 150 12)(font "Arial" ))
	(pt 0 8)
	(drawing
		(line (pt 0 8)(pt 52 8)(line_width 1))
		(line (pt 52 4)(pt 78 4)(line_width 1))
		(line (pt 52 12)(pt 78 12)(line_width 1))
		(line (pt 52 12)(pt 52 4)(line_width 1))
		(line (pt 78 4)(pt 82 8)(line_width 1))
		(line (pt 82 8)(pt 78 12)(line_width 1))
		(line (pt 78 12)(pt 82 8)(line_width 1))
	)
)
(pin
	(output)
	(rect 672 368 848 384)
	(text "OUTPUT" (rect 1 0 39 10)(font "Arial" (font_size 6)))
	(text "segment_d7" (rect 90 0 150 12)(font "Arial" ))
	(pt 0 8)
	(drawing
		(line (pt 0 8)(pt 52 8)(line_width 1))
		(line (pt 52 4)(pt 78 4)(line_width 1))
		(line (pt 52 12)(pt 78 12)(line_width 1))
		(line (pt 52 12)(pt 52 4)(line_width 1))
		(line (pt 78 4)(pt 82 8)(line_width 1))
		(line (pt 82 8)(pt 78 12)(line_width 1))
		(line (pt 78 12)(pt 82 8)(line_width 1))
	)
)
(pin
	(output)
	(rect 672 384 848 400)
	(text "OUTPUT" (rect 1 0 39 10)(font "Arial" (font_size 6)))
	(text "segment_e7" (rect 90 0 150 12)(font "Arial" ))
	(pt 0 8)
	(drawing
		(line (pt 0 8)(pt 52 8)(line_width 1))
		(line (pt 52 4)(pt 78 4)(line_width 1))
		(line (pt 52 12)(pt 78 12)(line_width 1))
		(line (pt 52 12)(pt 52 4)(line_width 1))
		(line (pt 78 4)(pt 82 8)(line_width 1))
		(line (pt 82 8)(pt 78 12)(line_width 1))
		(line (pt 78 12)(pt 82 8)(line_width 1))
	)
)
(pin
	(output)
	(rect 672 400 848 416)
	(text "OUTPUT" (rect 1 0 39 10)(font "Arial" (font_size 6)))
	(text "segment_f7" (rect 90 0 149 12)(font "Arial" ))
	(pt 0 8)
	(drawing
		(line (pt 0 8)(pt 52 8)(line_width 1))
		(line (pt 52 4)(pt 78 4)(line_width 1))
		(line (pt 52 12)(pt 78 12)(line_width 1))
		(line (pt 52 12)(pt 52 4)(line_width 1))
		(line (pt 78 4)(pt 82 8)(line_width 1))
		(line (pt 82 8)(pt 78 12)(line_width 1))
		(line (pt 78 12)(pt 82 8)(line_width 1))
	)
)
(pin
	(output)
	(rect 672 416 848 432)
	(text "OUTPUT" (rect 1 0 39 10)(font "Arial" (font_size 6)))
	(text "segment_g7" (rect 90 0 150 12)(font "Arial" ))
	(pt 0 8)
	(drawing
		(line (pt 0 8)(pt 52 8)(line_width 1))
		(line (pt 52 4)(pt 78 4)(line_width 1))
		(line (pt 52 12)(pt 78 12)(line_width 1))
		(line (pt 52 12)(pt 52 4)(line_width 1))
		(line (pt 78 4)(pt 82 8)(line_width 1))
		(line (pt 82 8)(pt 78 12)(line_width 1))
		(line (pt 78 12)(pt 82 8)(line_width 1))
	)
)
(pin
	(output)
	(rect 672 432 848 448)
	(text "OUTPUT" (rect 1 0 39 10)(font "Arial" (font_size 6)))
	(text "segment_a6" (rect 90 0 150 12)(font "Arial" ))
	(pt 0 8)
	(drawing
		(line (pt 0 8)(pt 52 8)(line_width 1))
		(line (pt 52 4)(pt 78 4)(line_width 1))
		(line (pt 52 12)(pt 78 12)(line_width 1))
		(line (pt 52 12)(pt 52 4)(line_width 1))
		(line (pt 78 4)(pt 82 8)(line_width 1))
		(line (pt 82 8)(pt 78 12)(line_width 1))
		(line (pt 78 12)(pt 82 8)(line_width 1))
	)
)
(pin
	(output)
	(rect 672 448 848 464)
	(text "OUTPUT" (rect 1 0 39 10)(font "Arial" (font_size 6)))
	(text "segment_b6" (rect 90 0 150 12)(font "Arial" ))
	(pt 0 8)
	(drawing
		(line (pt 0 8)(pt 52 8)(line_width 1))
		(line (pt 52 4)(pt 78 4)(line_width 1))
		(line (pt 52 12)(pt 78 12)(line_width 1))
		(line (pt 52 12)(pt 52 4)(line_width 1))
		(line (pt 78 4)(pt 82 8)(line_width 1))
		(line (pt 82 8)(pt 78 12)(line_width 1))
		(line (pt 78 12)(pt 82 8)(line_width 1))
	)
)
(pin
	(output)
	(rect 672 464 848 480)
	(text "OUTPUT" (rect 1 0 39 10)(font "Arial" (font_size 6)))
	(text "segment_c6" (rect 90 0 150 12)(font "Arial" ))
	(pt 0 8)
	(drawing
		(line (pt 0 8)(pt 52 8)(line_width 1))
		(line (pt 52 4)(pt 78 4)(line_width 1))
		(line (pt 52 12)(pt 78 12)(line_width 1))
		(line (pt 52 12)(pt 52 4)(line_width 1))
		(line (pt 78 4)(pt 82 8)(line_width 1))
		(line (pt 82 8)(pt 78 12)(line_width 1))
		(line (pt 78 12)(pt 82 8)(line_width 1))
	)
)
(pin
	(output)
	(rect 672 480 848 496)
	(text "OUTPUT" (rect 1 0 39 10)(font "Arial" (font_size 6)))
	(text "segment_d6" (rect 90 0 150 12)(font "Arial" ))
	(pt 0 8)
	(drawing
		(line (pt 0 8)(pt 52 8)(line_width 1))
		(line (pt 52 4)(pt 78 4)(line_width 1))
		(line (pt 52 12)(pt 78 12)(line_width 1))
		(line (pt 52 12)(pt 52 4)(line_width 1))
		(line (pt 78 4)(pt 82 8)(line_width 1))
		(line (pt 82 8)(pt 78 12)(line_width 1))
		(line (pt 78 12)(pt 82 8)(line_width 1))
	)
)
(pin
	(output)
	(rect 672 496 848 512)
	(text "OUTPUT" (rect 1 0 39 10)(font "Arial" (font_size 6)))
	(text "segment_e6" (rect 90 0 150 12)(font "Arial" ))
	(pt 0 8)
	(drawing
		(line (pt 0 8)(pt 52 8)(line_width 1))
		(line (pt 52 4)(pt 78 4)(line_width 1))
		(line (pt 52 12)(pt 78 12)(line_width 1))
		(line (pt 52 12)(pt 52 4)(line_width 1))
		(line (pt 78 4)(pt 82 8)(line_width 1))
		(line (pt 82 8)(pt 78 12)(line_width 1))
		(line (pt 78 12)(pt 82 8)(line_width 1))
	)
)
(pin
	(output)
	(rect 672 512 848 528)
	(text "OUTPUT" (rect 1 0 39 10)(font "Arial" (font_size 6)))
	(text "segment_f6" (rect 90 0 149 12)(font "Arial" ))
	(pt 0 8)
	(drawing
		(line (pt 0 8)(pt 52 8)(line_width 1))
		(line (pt 52 4)(pt 78 4)(line_width 1))
		(line (pt 52 12)(pt 78 12)(line_width 1))
		(line (pt 52 12)(pt 52 4)(line_width 1))
		(line (pt 78 4)(pt 82 8)(line_width 1))
		(line (pt 82 8)(pt 78 12)(line_width 1))
		(line (pt 78 12)(pt 82 8)(line_width 1))
	)
)
(pin
	(output)
	(rect 672 528 848 544)
	(text "OUTPUT" (rect 1 0 39 10)(font "Arial" (font_size 6)))
	(text "segment_g6" (rect 90 0 150 12)(font "Arial" ))
	(pt 0 8)
	(drawing
		(line (pt 0 8)(pt 52 8)(line_width 1))
		(line (pt 52 4)(pt 78 4)(line_width 1))
		(line (pt 52 12)(pt 78 12)(line_width 1))
		(line (pt 52 12)(pt 52 4)(line_width 1))
		(line (pt 78 4)(pt 82 8)(line_width 1))
		(line (pt 82 8)(pt 78 12)(line_width 1))
		(line (pt 78 12)(pt 82 8)(line_width 1))
	)
)
(symbol
	(rect 408 56 496 184)
	(text "mux5" (rect 24 2 61 18)(font "Arial" (font_size 10)))
	(text "inst1" (rect 8 112 31 124)(font "Arial" ))
	(port
		(pt 0 40)
		(input)
		(text "data4" (rect 0 0 31 14)(font "Arial" (font_size 8)))
		(text "data4" (rect 4 27 35 41)(font "Arial" (font_size 8)))
		(line (pt 0 40)(pt 32 40)(line_width 1))
	)
	(port
		(pt 0 56)
		(input)
		(text "data3" (rect 0 0 31 14)(font "Arial" (font_size 8)))
		(text "data3" (rect 4 43 35 57)(font "Arial" (font_size 8)))
		(line (pt 0 56)(pt 32 56)(line_width 1))
	)
	(port
		(pt 0 72)
		(input)
		(text "data2" (rect 0 0 31 14)(font "Arial" (font_size 8)))
		(text "data2" (rect 4 59 35 73)(font "Arial" (font_size 8)))
		(line (pt 0 72)(pt 32 72)(line_width 1))
	)
	(port
		(pt 0 88)
		(input)
		(text "data1" (rect 0 0 31 14)(font "Arial" (font_size 8)))
		(text "data1" (rect 4 75 35 89)(font "Arial" (font_size 8)))
		(line (pt 0 88)(pt 32 88)(line_width 1))
	)
	(port
		(pt 0 104)
		(input)
		(text "data0" (rect 0 0 31 14)(font "Arial" (font_size 8)))
		(text "data0" (rect 4 91 35 105)(font "Arial" (font_size 8)))
		(line (pt 0 104)(pt 32 104)(line_width 1))
	)
	(port
		(pt 40 128)
		(input)
		(text "sel[2..0]" (rect 0 0 44 14)(font "Arial" (font_size 8)))
		(text "sel[2..0]" (rect 44 115 88 129)(font "Arial" (font_size 8)))
		(line (pt 40 128)(pt 40 116)(line_width 3))
	)
	(port
		(pt 88 72)
		(output)
		(text "result" (rect 0 0 31 14)(font "Arial" (font_size 8)))
		(text "result" (rect 58 59 89 73)(font "Arial" (font_size 8)))
		(line (pt 88 72)(pt 48 72)(line_width 1))
	)
	(drawing
		(line (pt 32 24)(pt 32 120)(line_width 1))
		(line (pt 48 32)(pt 48 112)(line_width 1))
		(line (pt 32 24)(pt 48 32)(line_width 1))
		(line (pt 32 120)(pt 48 112)(line_width 1))
	)
)
(symbol
	(rect 264 232 392 328)
	(text "speedchanger" (rect 5 0 73 12)(font "Arial" ))
	(text "inst" (rect 8 80 25 92)(font "Arial" ))
	(port
		(pt 0 32)
		(input)
		(text "w" (rect 0 0 7 12)(font "Arial" ))
		(text "w" (rect 21 27 28 39)(font "Arial" ))
		(line (pt 0 32)(pt 16 32)(line_width 1))
	)
	(port
		(pt 0 48)
		(input)
		(text "clock" (rect 0 0 25 12)(font "Arial" ))
		(text "clock" (rect 21 43 46 55)(font "Arial" ))
		(line (pt 0 48)(pt 16 48)(line_width 1))
	)
	(port
		(pt 128 32)
		(output)
		(text "cout[2..0]" (rect 0 0 47 12)(font "Arial" ))
		(text "cout[2..0]" (rect 60 27 107 39)(font "Arial" ))
		(line (pt 128 32)(pt 112 32)(line_width 3))
	)
	(drawing
		(rectangle (rect 16 16 112 80)(line_width 1))
	)
)
(symbol
	(rect 224 -288 344 -192)
	(text "Fiftymhz" (rect 5 0 49 12)(font "Arial" ))
	(text "inst7" (rect 8 80 31 92)(font "Arial" ))
	(port
		(pt 0 32)
		(input)
		(text "clk_in" (rect 0 0 28 12)(font "Arial" ))
		(text "clk_in" (rect 21 27 49 39)(font "Arial" ))
		(line (pt 0 32)(pt 16 32)(line_width 1))
	)
	(port
		(pt 0 48)
		(input)
		(text "clk_en" (rect 0 0 31 12)(font "Arial" ))
		(text "clk_en" (rect 21 43 52 55)(font "Arial" ))
		(line (pt 0 48)(pt 16 48)(line_width 1))
	)
	(port
		(pt 0 64)
		(input)
		(text "reset" (rect 0 0 24 12)(font "Arial" ))
		(text "reset" (rect 21 59 45 71)(font "Arial" ))
		(line (pt 0 64)(pt 16 64)(line_width 1))
	)
	(port
		(pt 120 32)
		(output)
		(text "clk_out" (rect 0 0 35 12)(font "Arial" ))
		(text "clk_out" (rect 64 27 99 39)(font "Arial" ))
		(line (pt 120 32)(pt 104 32)(line_width 1))
	)
	(drawing
		(rectangle (rect 16 16 104 80)(line_width 1))
	)
)
(symbol
	(rect 224 -192 344 -96)
	(text "sixTsHz" (rect 5 0 43 12)(font "Arial" ))
	(text "inst2" (rect 8 80 31 92)(font "Arial" ))
	(port
		(pt 0 32)
		(input)
		(text "clk_in" (rect 0 0 28 12)(font "Arial" ))
		(text "clk_in" (rect 21 27 49 39)(font "Arial" ))
		(line (pt 0 32)(pt 16 32)(line_width 1))
	)
	(port
		(pt 0 48)
		(input)
		(text "clk_en" (rect 0 0 31 12)(font "Arial" ))
		(text "clk_en" (rect 21 43 52 55)(font "Arial" ))
		(line (pt 0 48)(pt 16 48)(line_width 1))
	)
	(port
		(pt 0 64)
		(input)
		(text "reset" (rect 0 0 24 12)(font "Arial" ))
		(text "reset" (rect 21 59 45 71)(font "Arial" ))
		(line (pt 0 64)(pt 16 64)(line_width 1))
	)
	(port
		(pt 120 32)
		(output)
		(text "clk_out" (rect 0 0 35 12)(font "Arial" ))
		(text "clk_out" (rect 64 27 99 39)(font "Arial" ))
		(line (pt 120 32)(pt 104 32)(line_width 1))
	)
	(drawing
		(rectangle (rect 16 16 104 80)(line_width 1))
	)
)
(symbol
	(rect 224 -96 344 0)
	(text "OneHundredHz" (rect 5 0 79 12)(font "Arial" ))
	(text "inst3" (rect 8 80 31 92)(font "Arial" ))
	(port
		(pt 0 32)
		(input)
		(text "clk_in" (rect 0 0 28 12)(font "Arial" ))
		(text "clk_in" (rect 21 27 49 39)(font "Arial" ))
		(line (pt 0 32)(pt 16 32)(line_width 1))
	)
	(port
		(pt 0 48)
		(input)
		(text "clk_en" (rect 0 0 31 12)(font "Arial" ))
		(text "clk_en" (rect 21 43 52 55)(font "Arial" ))
		(line (pt 0 48)(pt 16 48)(line_width 1))
	)
	(port
		(pt 0 64)
		(input)
		(text "reset" (rect 0 0 24 12)(font "Arial" ))
		(text "reset" (rect 21 59 45 71)(font "Arial" ))
		(line (pt 0 64)(pt 16 64)(line_width 1))
	)
	(port
		(pt 120 32)
		(output)
		(text "clk_out" (rect 0 0 35 12)(font "Arial" ))
		(text "clk_out" (rect 64 27 99 39)(font "Arial" ))
		(line (pt 120 32)(pt 104 32)(line_width 1))
	)
	(drawing
		(rectangle (rect 16 16 104 80)(line_width 1))
	)
)
(symbol
	(rect 224 0 344 96)
	(text "TenHz" (rect 5 0 35 12)(font "Arial" ))
	(text "inst4" (rect 8 80 31 92)(font "Arial" ))
	(port
		(pt 0 32)
		(input)
		(text "clk_in" (rect 0 0 28 12)(font "Arial" ))
		(text "clk_in" (rect 21 27 49 39)(font "Arial" ))
		(line (pt 0 32)(pt 16 32)(line_width 1))
	)
	(port
		(pt 0 48)
		(input)
		(text "clk_en" (rect 0 0 31 12)(font "Arial" ))
		(text "clk_en" (rect 21 43 52 55)(font "Arial" ))
		(line (pt 0 48)(pt 16 48)(line_width 1))
	)
	(port
		(pt 0 64)
		(input)
		(text "reset" (rect 0 0 24 12)(font "Arial" ))
		(text "reset" (rect 21 59 45 71)(font "Arial" ))
		(line (pt 0 64)(pt 16 64)(line_width 1))
	)
	(port
		(pt 120 32)
		(output)
		(text "clk_out" (rect 0 0 35 12)(font "Arial" ))
		(text "clk_out" (rect 64 27 99 39)(font "Arial" ))
		(line (pt 120 32)(pt 104 32)(line_width 1))
	)
	(drawing
		(rectangle (rect 16 16 104 80)(line_width 1))
	)
)
(symbol
	(rect 224 96 344 192)
	(text "TwoHz" (rect 5 0 36 12)(font "Arial" ))
	(text "inst5" (rect 8 80 31 92)(font "Arial" ))
	(port
		(pt 0 32)
		(input)
		(text "clk_in" (rect 0 0 28 12)(font "Arial" ))
		(text "clk_in" (rect 21 27 49 39)(font "Arial" ))
		(line (pt 0 32)(pt 16 32)(line_width 1))
	)
	(port
		(pt 0 48)
		(input)
		(text "clk_en" (rect 0 0 31 12)(font "Arial" ))
		(text "clk_en" (rect 21 43 52 55)(font "Arial" ))
		(line (pt 0 48)(pt 16 48)(line_width 1))
	)
	(port
		(pt 0 64)
		(input)
		(text "reset" (rect 0 0 24 12)(font "Arial" ))
		(text "reset" (rect 21 59 45 71)(font "Arial" ))
		(line (pt 0 64)(pt 16 64)(line_width 1))
	)
	(port
		(pt 120 32)
		(output)
		(text "clk_out" (rect 0 0 35 12)(font "Arial" ))
		(text "clk_out" (rect 64 27 99 39)(font "Arial" ))
		(line (pt 120 32)(pt 104 32)(line_width 1))
	)
	(drawing
		(rectangle (rect 16 16 104 80)(line_width 1))
	)
)
(symbol
	(rect 512 -376 672 584)
	(text "lab6" (rect 5 0 28 14)(font "Arial" (font_size 8)))
	(text "inst9" (rect 8 944 31 956)(font "Arial" ))
	(port
		(pt 0 32)
		(input)
		(text "clock" (rect 0 0 29 14)(font "Arial" (font_size 8)))
		(text "clock" (rect 21 27 50 41)(font "Arial" (font_size 8)))
		(line (pt 0 32)(pt 16 32)(line_width 1))
	)
	(port
		(pt 0 48)
		(input)
		(text "clk_en" (rect 0 0 36 14)(font "Arial" (font_size 8)))
		(text "clk_en" (rect 21 43 57 57)(font "Arial" (font_size 8)))
		(line (pt 0 48)(pt 16 48)(line_width 1))
	)
	(port
		(pt 0 64)
		(input)
		(text "aclr" (rect 0 0 21 14)(font "Arial" (font_size 8)))
		(text "aclr" (rect 21 59 42 73)(font "Arial" (font_size 8)))
		(line (pt 0 64)(pt 16 64)(line_width 1))
	)
	(port
		(pt 160 32)
		(output)
		(text "segment_a" (rect 0 0 62 14)(font "Arial" (font_size 8)))
		(text "segment_a" (rect 77 27 139 41)(font "Arial" (font_size 8)))
		(line (pt 160 32)(pt 144 32)(line_width 1))
	)
	(port
		(pt 160 48)
		(output)
		(text "segment_b" (rect 0 0 62 14)(font "Arial" (font_size 8)))
		(text "segment_b" (rect 77 43 139 57)(font "Arial" (font_size 8)))
		(line (pt 160 48)(pt 144 48)(line_width 1))
	)
	(port
		(pt 160 64)
		(output)
		(text "segment_c" (rect 0 0 62 14)(font "Arial" (font_size 8)))
		(text "segment_c" (rect 77 59 139 73)(font "Arial" (font_size 8)))
		(line (pt 160 64)(pt 144 64)(line_width 1))
	)
	(port
		(pt 160 80)
		(output)
		(text "segment_d" (rect 0 0 62 14)(font "Arial" (font_size 8)))
		(text "segment_d" (rect 77 75 139 89)(font "Arial" (font_size 8)))
		(line (pt 160 80)(pt 144 80)(line_width 1))
	)
	(port
		(pt 160 96)
		(output)
		(text "segment_e" (rect 0 0 62 14)(font "Arial" (font_size 8)))
		(text "segment_e" (rect 77 91 139 105)(font "Arial" (font_size 8)))
		(line (pt 160 96)(pt 144 96)(line_width 1))
	)
	(port
		(pt 160 112)
		(output)
		(text "segment_f" (rect 0 0 60 14)(font "Arial" (font_size 8)))
		(text "segment_f" (rect 79 107 139 121)(font "Arial" (font_size 8)))
		(line (pt 160 112)(pt 144 112)(line_width 1))
	)
	(port
		(pt 160 128)
		(output)
		(text "segment_g" (rect 0 0 62 14)(font "Arial" (font_size 8)))
		(text "segment_g" (rect 77 123 139 137)(font "Arial" (font_size 8)))
		(line (pt 160 128)(pt 144 128)(line_width 1))
	)
	(port
		(pt 160 144)
		(output)
		(text "segment_a1" (rect 0 0 69 14)(font "Arial" (font_size 8)))
		(text "segment_a1" (rect 70 139 139 153)(font "Arial" (font_size 8)))
		(line (pt 160 144)(pt 144 144)(line_width 1))
	)
	(port
		(pt 160 160)
		(output)
		(text "segment_c1" (rect 0 0 69 14)(font "Arial" (font_size 8)))
		(text "segment_c1" (rect 70 155 139 169)(font "Arial" (font_size 8)))
		(line (pt 160 160)(pt 144 160)(line_width 1))
	)
	(port
		(pt 160 176)
		(output)
		(text "segment_b1" (rect 0 0 69 14)(font "Arial" (font_size 8)))
		(text "segment_b1" (rect 70 171 139 185)(font "Arial" (font_size 8)))
		(line (pt 160 176)(pt 144 176)(line_width 1))
	)
	(port
		(pt 160 192)
		(output)
		(text "segment_d1" (rect 0 0 69 14)(font "Arial" (font_size 8)))
		(text "segment_d1" (rect 70 187 139 201)(font "Arial" (font_size 8)))
		(line (pt 160 192)(pt 144 192)(line_width 1))
	)
	(port
		(pt 160 208)
		(output)
		(text "segment_e1" (rect 0 0 69 14)(font "Arial" (font_size 8)))
		(text "segment_e1" (rect 70 203 139 217)(font "Arial" (font_size 8)))
		(line (pt 160 208)(pt 144 208)(line_width 1))
	)
	(port
		(pt 160 224)
		(output)
		(text "segment_f1" (rect 0 0 67 14)(font "Arial" (font_size 8)))
		(text "segment_f1" (rect 72 219 139 233)(font "Arial" (font_size 8)))
		(line (pt 160 224)(pt 144 224)(line_width 1))
	)
	(port
		(pt 160 240)
		(output)
		(text "segment_g1" (rect 0 0 69 14)(font "Arial" (font_size 8)))
		(text "segment_g1" (rect 70 235 139 249)(font "Arial" (font_size 8)))
		(line (pt 160 240)(pt 144 240)(line_width 1))
	)
	(port
		(pt 160 256)
		(output)
		(text "segment_a2" (rect 0 0 69 14)(font "Arial" (font_size 8)))
		(text "segment_a2" (rect 70 251 139 265)(font "Arial" (font_size 8)))
		(line (pt 160 256)(pt 144 256)(line_width 1))
	)
	(port
		(pt 160 272)
		(output)
		(text "segment_b2" (rect 0 0 69 14)(font "Arial" (font_size 8)))
		(text "segment_b2" (rect 70 267 139 281)(font "Arial" (font_size 8)))
		(line (pt 160 272)(pt 144 272)(line_width 1))
	)
	(port
		(pt 160 288)
		(output)
		(text "segment_c2" (rect 0 0 69 14)(font "Arial" (font_size 8)))
		(text "segment_c2" (rect 70 283 139 297)(font "Arial" (font_size 8)))
		(line (pt 160 288)(pt 144 288)(line_width 1))
	)
	(port
		(pt 160 304)
		(output)
		(text "segment_d2" (rect 0 0 69 14)(font "Arial" (font_size 8)))
		(text "segment_d2" (rect 70 299 139 313)(font "Arial" (font_size 8)))
		(line (pt 160 304)(pt 144 304)(line_width 1))
	)
	(port
		(pt 160 320)
		(output)
		(text "segment_e2" (rect 0 0 69 14)(font "Arial" (font_size 8)))
		(text "segment_e2" (rect 70 315 139 329)(font "Arial" (font_size 8)))
		(line (pt 160 320)(pt 144 320)(line_width 1))
	)
	(port
		(pt 160 336)
		(output)
		(text "segment_f2" (rect 0 0 67 14)(font "Arial" (font_size 8)))
		(text "segment_f2" (rect 72 331 139 345)(font "Arial" (font_size 8)))
		(line (pt 160 336)(pt 144 336)(line_width 1))
	)
	(port
		(pt 160 352)
		(output)
		(text "segment_g2" (rect 0 0 69 14)(font "Arial" (font_size 8)))
		(text "segment_g2" (rect 70 347 139 361)(font "Arial" (font_size 8)))
		(line (pt 160 352)(pt 144 352)(line_width 1))
	)
	(port
		(pt 160 368)
		(output)
		(text "segment_a3" (rect 0 0 69 14)(font "Arial" (font_size 8)))
		(text "segment_a3" (rect 70 363 139 377)(font "Arial" (font_size 8)))
		(line (pt 160 368)(pt 144 368)(line_width 1))
	)
	(port
		(pt 160 384)
		(output)
		(text "segment_b3" (rect 0 0 69 14)(font "Arial" (font_size 8)))
		(text "segment_b3" (rect 70 379 139 393)(font "Arial" (font_size 8)))
		(line (pt 160 384)(pt 144 384)(line_width 1))
	)
	(port
		(pt 160 400)
		(output)
		(text "segment_c3" (rect 0 0 69 14)(font "Arial" (font_size 8)))
		(text "segment_c3" (rect 70 395 139 409)(font "Arial" (font_size 8)))
		(line (pt 160 400)(pt 144 400)(line_width 1))
	)
	(port
		(pt 160 416)
		(output)
		(text "segment_d3" (rect 0 0 69 14)(font "Arial" (font_size 8)))
		(text "segment_d3" (rect 70 411 139 425)(font "Arial" (font_size 8)))
		(line (pt 160 416)(pt 144 416)(line_width 1))
	)
	(port
		(pt 160 432)
		(output)
		(text "segment_e3" (rect 0 0 69 14)(font "Arial" (font_size 8)))
		(text "segment_e3" (rect 70 427 139 441)(font "Arial" (font_size 8)))
		(line (pt 160 432)(pt 144 432)(line_width 1))
	)
	(port
		(pt 160 448)
		(output)
		(text "segment_f3" (rect 0 0 67 14)(font "Arial" (font_size 8)))
		(text "segment_f3" (rect 72 443 139 457)(font "Arial" (font_size 8)))
		(line (pt 160 448)(pt 144 448)(line_width 1))
	)
	(port
		(pt 160 464)
		(output)
		(text "segment_g3" (rect 0 0 69 14)(font "Arial" (font_size 8)))
		(text "segment_g3" (rect 70 459 139 473)(font "Arial" (font_size 8)))
		(line (pt 160 464)(pt 144 464)(line_width 1))
	)
	(port
		(pt 160 480)
		(output)
		(text "segment_a4" (rect 0 0 69 14)(font "Arial" (font_size 8)))
		(text "segment_a4" (rect 70 475 139 489)(font "Arial" (font_size 8)))
		(line (pt 160 480)(pt 144 480)(line_width 1))
	)
	(port
		(pt 160 496)
		(output)
		(text "segment_b4" (rect 0 0 69 14)(font "Arial" (font_size 8)))
		(text "segment_b4" (rect 70 491 139 505)(font "Arial" (font_size 8)))
		(line (pt 160 496)(pt 144 496)(line_width 1))
	)
	(port
		(pt 160 512)
		(output)
		(text "segment_c4" (rect 0 0 69 14)(font "Arial" (font_size 8)))
		(text "segment_c4" (rect 70 507 139 521)(font "Arial" (font_size 8)))
		(line (pt 160 512)(pt 144 512)(line_width 1))
	)
	(port
		(pt 160 528)
		(output)
		(text "segment_d4" (rect 0 0 69 14)(font "Arial" (font_size 8)))
		(text "segment_d4" (rect 70 523 139 537)(font "Arial" (font_size 8)))
		(line (pt 160 528)(pt 144 528)(line_width 1))
	)
	(port
		(pt 160 544)
		(output)
		(text "segment_e4" (rect 0 0 69 14)(font "Arial" (font_size 8)))
		(text "segment_e4" (rect 70 539 139 553)(font "Arial" (font_size 8)))
		(line (pt 160 544)(pt 144 544)(line_width 1))
	)
	(port
		(pt 160 560)
		(output)
		(text "segment_f4" (rect 0 0 67 14)(font "Arial" (font_size 8)))
		(text "segment_f4" (rect 72 555 139 569)(font "Arial" (font_size 8)))
		(line (pt 160 560)(pt 144 560)(line_width 1))
	)
	(port
		(pt 160 576)
		(output)
		(text "segment_g4" (rect 0 0 69 14)(font "Arial" (font_size 8)))
		(text "segment_g4" (rect 70 571 139 585)(font "Arial" (font_size 8)))
		(line (pt 160 576)(pt 144 576)(line_width 1))
	)
	(port
		(pt 160 592)
		(output)
		(text "segment_a5" (rect 0 0 69 14)(font "Arial" (font_size 8)))
		(text "segment_a5" (rect 70 587 139 601)(font "Arial" (font_size 8)))
		(line (pt 160 592)(pt 144 592)(line_width 1))
	)
	(port
		(pt 160 608)
		(output)
		(text "segment_b5" (rect 0 0 69 14)(font "Arial" (font_size 8)))
		(text "segment_b5" (rect 70 603 139 617)(font "Arial" (font_size 8)))
		(line (pt 160 608)(pt 144 608)(line_width 1))
	)
	(port
		(pt 160 624)
		(output)
		(text "segment_c5" (rect 0 0 69 14)(font "Arial" (font_size 8)))
		(text "segment_c5" (rect 70 619 139 633)(font "Arial" (font_size 8)))
		(line (pt 160 624)(pt 144 624)(line_width 1))
	)
	(port
		(pt 160 640)
		(output)
		(text "segment_d5" (rect 0 0 69 14)(font "Arial" (font_size 8)))
		(text "segment_d5" (rect 70 635 139 649)(font "Arial" (font_size 8)))
		(line (pt 160 640)(pt 144 640)(line_width 1))
	)
	(port
		(pt 160 656)
		(output)
		(text "segment_e5" (rect 0 0 69 14)(font "Arial" (font_size 8)))
		(text "segment_e5" (rect 70 651 139 665)(font "Arial" (font_size 8)))
		(line (pt 160 656)(pt 144 656)(line_width 1))
	)
	(port
		(pt 160 672)
		(output)
		(text "segment_f5" (rect 0 0 67 14)(font "Arial" (font_size 8)))
		(text "segment_f5" (rect 72 667 139 681)(font "Arial" (font_size 8)))
		(line (pt 160 672)(pt 144 672)(line_width 1))
	)
	(port
		(pt 160 688)
		(output)
		(text "segment_g5" (rect 0 0 69 14)(font "Arial" (font_size 8)))
		(text "segment_g5" (rect 70 683 139 697)(font "Arial" (font_size 8)))
		(line (pt 160 688)(pt 144 688)(line_width 1))
	)
	(port
		(pt 160 704)
		(output)
		(text "segment_a7" (rect 0 0 69 14)(font "Arial" (font_size 8)))
		(text "segment_a7" (rect 70 699 139 713)(font "Arial" (font_size 8)))
		(line (pt 160 704)(pt 144 704)(line_width 1))
	)
	(port
		(pt 160 720)
		(output)
		(text "segment_b7" (rect 0 0 69 14)(font "Arial" (font_size 8)))
		(text "segment_b7" (rect 70 715 139 729)(font "Arial" (font_size 8)))
		(line (pt 160 720)(pt 144 720)(line_width 1))
	)
	(port
		(pt 160 736)
		(output)
		(text "segment_c7" (rect 0 0 69 14)(font "Arial" (font_size 8)))
		(text "segment_c7" (rect 70 731 139 745)(font "Arial" (font_size 8)))
		(line (pt 160 736)(pt 144 736)(line_width 1))
	)
	(port
		(pt 160 752)
		(output)
		(text "segment_d7" (rect 0 0 69 14)(font "Arial" (font_size 8)))
		(text "segment_d7" (rect 70 747 139 761)(font "Arial" (font_size 8)))
		(line (pt 160 752)(pt 144 752)(line_width 1))
	)
	(port
		(pt 160 768)
		(output)
		(text "segment_e7" (rect 0 0 69 14)(font "Arial" (font_size 8)))
		(text "segment_e7" (rect 70 763 139 777)(font "Arial" (font_size 8)))
		(line (pt 160 768)(pt 144 768)(line_width 1))
	)
	(port
		(pt 160 784)
		(output)
		(text "segment_f7" (rect 0 0 67 14)(font "Arial" (font_size 8)))
		(text "segment_f7" (rect 72 779 139 793)(font "Arial" (font_size 8)))
		(line (pt 160 784)(pt 144 784)(line_width 1))
	)
	(port
		(pt 160 800)
		(output)
		(text "segment_g7" (rect 0 0 69 14)(font "Arial" (font_size 8)))
		(text "segment_g7" (rect 70 795 139 809)(font "Arial" (font_size 8)))
		(line (pt 160 800)(pt 144 800)(line_width 1))
	)
	(port
		(pt 160 816)
		(output)
		(text "segment_a6" (rect 0 0 69 14)(font "Arial" (font_size 8)))
		(text "segment_a6" (rect 70 811 139 825)(font "Arial" (font_size 8)))
		(line (pt 160 816)(pt 144 816)(line_width 1))
	)
	(port
		(pt 160 832)
		(output)
		(text "segment_b6" (rect 0 0 69 14)(font "Arial" (font_size 8)))
		(text "segment_b6" (rect 70 827 139 841)(font "Arial" (font_size 8)))
		(line (pt 160 832)(pt 144 832)(line_width 1))
	)
	(port
		(pt 160 848)
		(output)
		(text "segment_c6" (rect 0 0 69 14)(font "Arial" (font_size 8)))
		(text "segment_c6" (rect 70 843 139 857)(font "Arial" (font_size 8)))
		(line (pt 160 848)(pt 144 848)(line_width 1))
	)
	(port
		(pt 160 864)
		(output)
		(text "segment_d6" (rect 0 0 69 14)(font "Arial" (font_size 8)))
		(text "segment_d6" (rect 70 859 139 873)(font "Arial" (font_size 8)))
		(line (pt 160 864)(pt 144 864)(line_width 1))
	)
	(port
		(pt 160 880)
		(output)
		(text "segment_e6" (rect 0 0 69 14)(font "Arial" (font_size 8)))
		(text "segment_e6" (rect 70 875 139 889)(font "Arial" (font_size 8)))
		(line (pt 160 880)(pt 144 880)(line_width 1))
	)
	(port
		(pt 160 896)
		(output)
		(text "segment_f6" (rect 0 0 67 14)(font "Arial" (font_size 8)))
		(text "segment_f6" (rect 72 891 139 905)(font "Arial" (font_size 8)))
		(line (pt 160 896)(pt 144 896)(line_width 1))
	)
	(port
		(pt 160 912)
		(output)
		(text "segment_g6" (rect 0 0 69 14)(font "Arial" (font_size 8)))
		(text "segment_g6" (rect 70 907 139 921)(font "Arial" (font_size 8)))
		(line (pt 160 912)(pt 144 912)(line_width 1))
	)
	(drawing
		(rectangle (rect 16 16 144 944)(line_width 1))
	)
)
(connector
	(pt 344 -64)
	(pt 368 -64)
)
(connector
	(pt 368 -64)
	(pt 368 128)
)
(connector
	(pt 368 128)
	(pt 408 128)
)
(connector
	(pt 344 128)
	(pt 352 128)
)
(connector
	(pt 352 128)
	(pt 352 160)
)
(connector
	(pt 352 160)
	(pt 408 160)
)
(connector
	(pt 360 32)
	(pt 360 144)
)
(connector
	(pt 344 32)
	(pt 360 32)
)
(connector
	(pt 360 144)
	(pt 408 144)
)
(connector
	(pt 344 -160)
	(pt 376 -160)
)
(connector
	(pt 376 112)
	(pt 408 112)
)
(connector
	(pt 376 -160)
	(pt 376 112)
)
(connector
	(pt 344 -256)
	(pt 384 -256)
)
(connector
	(pt 384 96)
	(pt 408 96)
)
(connector
	(pt 384 -256)
	(pt 384 96)
)
(connector
	(pt 216 -160)
	(pt 224 -160)
)
(connector
	(pt 224 -256)
	(pt 216 -256)
)
(connector
	(pt 216 -256)
	(pt 176 -256)
)
(connector
	(pt 216 -64)
	(pt 224 -64)
)
(connector
	(pt 216 -256)
	(pt 216 -160)
)
(connector
	(pt 216 128)
	(pt 224 128)
)
(connector
	(pt 216 -160)
	(pt 216 -64)
)
(connector
	(pt 216 32)
	(pt 224 32)
)
(connector
	(pt 216 -64)
	(pt 216 32)
)
(connector
	(pt 216 32)
	(pt 216 128)
)
(connector
	(pt 208 -144)
	(pt 224 -144)
)
(connector
	(pt 176 -240)
	(pt 208 -240)
)
(connector
	(pt 208 -240)
	(pt 224 -240)
)
(connector
	(pt 208 -48)
	(pt 224 -48)
)
(connector
	(pt 208 48)
	(pt 224 48)
)
(connector
	(pt 208 -144)
	(pt 208 -48)
)
(connector
	(pt 208 144)
	(pt 224 144)
)
(connector
	(pt 208 -48)
	(pt 208 48)
)
(connector
	(pt 208 48)
	(pt 208 144)
)
(connector
	(pt 200 64)
	(pt 224 64)
)
(connector
	(pt 224 -224)
	(pt 200 -224)
)
(connector
	(pt 200 -224)
	(pt 176 -224)
)
(connector
	(pt 200 -128)
	(pt 224 -128)
)
(connector
	(pt 200 -32)
	(pt 224 -32)
)
(connector
	(pt 200 -128)
	(pt 200 -32)
)
(connector
	(pt 200 160)
	(pt 224 160)
)
(connector
	(pt 200 -32)
	(pt 200 64)
)
(connector
	(pt 200 64)
	(pt 200 160)
)
(connector
	(pt 448 264)
	(pt 392 264)
	(bus)
)
(connector
	(pt 448 184)
	(pt 448 264)
	(bus)
)
(connector
	(pt 224 224)
	(pt 256 224)
)
(connector
	(pt 256 264)
	(pt 264 264)
)
(connector
	(pt 248 240)
	(pt 248 280)
)
(connector
	(pt 224 240)
	(pt 248 240)
)
(connector
	(pt 248 280)
	(pt 264 280)
)
(connector
	(pt 256 224)
	(pt 256 264)
)
(connector
	(pt 496 128)
	(pt 504 128)
)
(connector
	(pt 504 -344)
	(pt 512 -344)
)
(connector
	(pt 504 -344)
	(pt 504 128)
)
(connector
	(pt 208 -328)
	(pt 512 -328)
)
(connector
	(pt 208 -328)
	(pt 208 -240)
)
(connector
	(pt 208 -240)
	(pt 208 -144)
)
(connector
	(pt 200 -312)
	(pt 512 -312)
)
(connector
	(pt 200 -312)
	(pt 200 -224)
)
(connector
	(pt 200 -224)
	(pt 200 -128)
)
(junction (pt 216 -256))
(junction (pt 216 -160))
(junction (pt 216 -64))
(junction (pt 216 32))
(junction (pt 208 -240))
(junction (pt 208 -144))
(junction (pt 208 -48))
(junction (pt 208 48))
(junction (pt 200 -224))
(junction (pt 200 -128))
(junction (pt 200 -32))
(junction (pt 200 64))
