/*
WARNING: Do NOT edit the input and output ports in this file in a text
editor if you plan to continue editing the block that represents it in
the Block Editor! File corruption is VERY likely to occur.
*/
/*
Copyright (C) 1991-2009 Altera Corporation
Your use of Altera Corporation's design tools, logic functions 
and other software and tools, and its AMPP partner logic 
functions, and any output files from any of the foregoing 
(including device programming or simulation files), and any 
associated documentation or information are expressly subject 
to the terms and conditions of the Altera Program License 
Subscription Agreement, Altera MegaCore Function License 
Agreement, or other applicable license agreement, including, 
without limitation, that your use is for the sole purpose of 
programming logic devices manufactured by Altera and sold by 
Altera or its authorized distributors.  Please refer to the 
applicable agreement for further details.
*/
//#pragma file_not_in_maxplusii_format
(header "graphic" (version "1.3"))
(pin
	(input)
	(rect -640 208 -472 224)
	(text "INPUT" (rect 133 0 161 10)(font "Arial" (font_size 6)))
	(text "aclr" (rect 5 0 22 12)(font "Arial" ))
	(pt 168 8)
	(drawing
		(line (pt 92 12)(pt 117 12)(line_width 1))
		(line (pt 92 4)(pt 117 4)(line_width 1))
		(line (pt 121 8)(pt 168 8)(line_width 1))
		(line (pt 92 12)(pt 92 4)(line_width 1))
		(line (pt 117 4)(pt 121 8)(line_width 1))
		(line (pt 117 12)(pt 121 8)(line_width 1))
	)
	(text "VCC" (rect 136 7 156 17)(font "Arial" (font_size 6)))
	(annotation_block (location)(rect -736 240 -680 256))
)
(pin
	(input)
	(rect -560 128 -392 144)
	(text "INPUT" (rect 133 0 161 10)(font "Arial" (font_size 6)))
	(text "clk_en" (rect 5 0 36 12)(font "Arial" ))
	(pt 168 8)
	(drawing
		(line (pt 92 12)(pt 117 12)(line_width 1))
		(line (pt 92 4)(pt 117 4)(line_width 1))
		(line (pt 121 8)(pt 168 8)(line_width 1))
		(line (pt 92 12)(pt 92 4)(line_width 1))
		(line (pt 117 4)(pt 121 8)(line_width 1))
		(line (pt 117 12)(pt 121 8)(line_width 1))
	)
	(text "VCC" (rect 136 7 156 17)(font "Arial" (font_size 6)))
	(annotation_block (location)(rect -608 144 -560 160))
)
(pin
	(input)
	(rect -568 88 -400 104)
	(text "INPUT" (rect 133 0 161 10)(font "Arial" (font_size 6)))
	(text "clock" (rect 5 0 30 12)(font "Arial" ))
	(pt 168 8)
	(drawing
		(line (pt 92 12)(pt 117 12)(line_width 1))
		(line (pt 92 4)(pt 117 4)(line_width 1))
		(line (pt 121 8)(pt 168 8)(line_width 1))
		(line (pt 92 12)(pt 92 4)(line_width 1))
		(line (pt 117 4)(pt 121 8)(line_width 1))
		(line (pt 117 12)(pt 121 8)(line_width 1))
	)
	(text "VCC" (rect 136 7 156 17)(font "Arial" (font_size 6)))
	(annotation_block (location)(rect -616 104 -568 120))
)
(pin
	(output)
	(rect -72 -336 -56 -104)
	(text "OUTPUT" (rect 0 193 10 231)(font "Arial" (font_size 6))(vertical))
	(text "segment_a" (rect 0 5 12 59)(font "Arial" )(vertical))
	(pt 8 232)
	(drawing
		(line (pt 8 232)(pt 8 180)(line_width 1))
		(line (pt 4 180)(pt 4 154)(line_width 1))
		(line (pt 12 180)(pt 12 154)(line_width 1))
		(line (pt 12 180)(pt 4 180)(line_width 1))
		(line (pt 4 154)(pt 8 150)(line_width 1))
		(line (pt 8 150)(pt 12 154)(line_width 1))
		(line (pt 12 154)(pt 8 150)(line_width 1))
	)
	(rotate90)
	(annotation_block (location)(rect -56 -104 8 -88))
)
(pin
	(output)
	(rect -56 -336 -40 -104)
	(text "OUTPUT" (rect 0 193 10 231)(font "Arial" (font_size 6))(vertical))
	(text "segment_b" (rect 0 5 12 59)(font "Arial" )(vertical))
	(pt 8 232)
	(drawing
		(line (pt 8 232)(pt 8 180)(line_width 1))
		(line (pt 4 180)(pt 4 154)(line_width 1))
		(line (pt 12 180)(pt 12 154)(line_width 1))
		(line (pt 12 180)(pt 4 180)(line_width 1))
		(line (pt 4 154)(pt 8 150)(line_width 1))
		(line (pt 8 150)(pt 12 154)(line_width 1))
		(line (pt 12 154)(pt 8 150)(line_width 1))
	)
	(rotate90)
	(annotation_block (location)(rect -40 -104 24 -88))
)
(pin
	(output)
	(rect -40 -336 -24 -104)
	(text "OUTPUT" (rect 0 193 10 231)(font "Arial" (font_size 6))(vertical))
	(text "segment_c" (rect 0 5 12 59)(font "Arial" )(vertical))
	(pt 8 232)
	(drawing
		(line (pt 8 232)(pt 8 180)(line_width 1))
		(line (pt 4 180)(pt 4 154)(line_width 1))
		(line (pt 12 180)(pt 12 154)(line_width 1))
		(line (pt 12 180)(pt 4 180)(line_width 1))
		(line (pt 4 154)(pt 8 150)(line_width 1))
		(line (pt 8 150)(pt 12 154)(line_width 1))
		(line (pt 12 154)(pt 8 150)(line_width 1))
	)
	(rotate90)
	(annotation_block (location)(rect -24 -104 40 -88))
)
(pin
	(output)
	(rect -24 -336 -8 -104)
	(text "OUTPUT" (rect 0 193 10 231)(font "Arial" (font_size 6))(vertical))
	(text "segment_d" (rect 0 5 12 59)(font "Arial" )(vertical))
	(pt 8 232)
	(drawing
		(line (pt 8 232)(pt 8 180)(line_width 1))
		(line (pt 4 180)(pt 4 154)(line_width 1))
		(line (pt 12 180)(pt 12 154)(line_width 1))
		(line (pt 12 180)(pt 4 180)(line_width 1))
		(line (pt 4 154)(pt 8 150)(line_width 1))
		(line (pt 8 150)(pt 12 154)(line_width 1))
		(line (pt 12 154)(pt 8 150)(line_width 1))
	)
	(rotate90)
	(annotation_block (location)(rect -8 -104 56 -88))
)
(pin
	(output)
	(rect -8 -336 8 -104)
	(text "OUTPUT" (rect 0 193 10 231)(font "Arial" (font_size 6))(vertical))
	(text "segment_e" (rect 0 5 12 59)(font "Arial" )(vertical))
	(pt 8 232)
	(drawing
		(line (pt 8 232)(pt 8 180)(line_width 1))
		(line (pt 4 180)(pt 4 154)(line_width 1))
		(line (pt 12 180)(pt 12 154)(line_width 1))
		(line (pt 12 180)(pt 4 180)(line_width 1))
		(line (pt 4 154)(pt 8 150)(line_width 1))
		(line (pt 8 150)(pt 12 154)(line_width 1))
		(line (pt 12 154)(pt 8 150)(line_width 1))
	)
	(rotate90)
	(annotation_block (location)(rect 8 -104 72 -88))
)
(pin
	(output)
	(rect 8 -336 24 -104)
	(text "OUTPUT" (rect 0 193 10 231)(font "Arial" (font_size 6))(vertical))
	(text "segment_f" (rect 0 5 12 58)(font "Arial" )(vertical))
	(pt 8 232)
	(drawing
		(line (pt 8 232)(pt 8 180)(line_width 1))
		(line (pt 4 180)(pt 4 154)(line_width 1))
		(line (pt 12 180)(pt 12 154)(line_width 1))
		(line (pt 12 180)(pt 4 180)(line_width 1))
		(line (pt 4 154)(pt 8 150)(line_width 1))
		(line (pt 8 150)(pt 12 154)(line_width 1))
		(line (pt 12 154)(pt 8 150)(line_width 1))
	)
	(rotate90)
	(annotation_block (location)(rect 24 -104 80 -88))
)
(pin
	(output)
	(rect 24 -336 40 -104)
	(text "OUTPUT" (rect 0 193 10 231)(font "Arial" (font_size 6))(vertical))
	(text "segment_g" (rect 0 5 12 59)(font "Arial" )(vertical))
	(pt 8 232)
	(drawing
		(line (pt 8 232)(pt 8 180)(line_width 1))
		(line (pt 4 180)(pt 4 154)(line_width 1))
		(line (pt 12 180)(pt 12 154)(line_width 1))
		(line (pt 12 180)(pt 4 180)(line_width 1))
		(line (pt 4 154)(pt 8 150)(line_width 1))
		(line (pt 8 150)(pt 12 154)(line_width 1))
		(line (pt 12 154)(pt 8 150)(line_width 1))
	)
	(rotate90)
	(annotation_block (location)(rect 40 -104 96 -88))
)
(pin
	(output)
	(rect 240 -280 256 -104)
	(text "OUTPUT" (rect 0 137 10 175)(font "Arial" (font_size 6))(vertical))
	(text "segment_a1" (rect 0 5 12 65)(font "Arial" )(vertical))
	(pt 8 176)
	(drawing
		(line (pt 8 176)(pt 8 124)(line_width 1))
		(line (pt 4 124)(pt 4 98)(line_width 1))
		(line (pt 12 124)(pt 12 98)(line_width 1))
		(line (pt 12 124)(pt 4 124)(line_width 1))
		(line (pt 4 98)(pt 8 94)(line_width 1))
		(line (pt 8 94)(pt 12 98)(line_width 1))
		(line (pt 12 98)(pt 8 94)(line_width 1))
	)
	(rotate90)
	(annotation_block (location)(rect 256 -104 312 -88))
)
(pin
	(output)
	(rect 272 -280 288 -104)
	(text "OUTPUT" (rect 0 137 10 175)(font "Arial" (font_size 6))(vertical))
	(text "segment_c1" (rect 0 5 12 65)(font "Arial" )(vertical))
	(pt 8 176)
	(drawing
		(line (pt 8 176)(pt 8 124)(line_width 1))
		(line (pt 4 124)(pt 4 98)(line_width 1))
		(line (pt 12 124)(pt 12 98)(line_width 1))
		(line (pt 12 124)(pt 4 124)(line_width 1))
		(line (pt 4 98)(pt 8 94)(line_width 1))
		(line (pt 8 94)(pt 12 98)(line_width 1))
		(line (pt 12 98)(pt 8 94)(line_width 1))
	)
	(rotate90)
	(annotation_block (location)(rect 288 -104 344 -88))
)
(pin
	(output)
	(rect 256 -280 272 -104)
	(text "OUTPUT" (rect 0 137 10 175)(font "Arial" (font_size 6))(vertical))
	(text "segment_b1" (rect 0 5 12 65)(font "Arial" )(vertical))
	(pt 8 176)
	(drawing
		(line (pt 8 176)(pt 8 124)(line_width 1))
		(line (pt 4 124)(pt 4 98)(line_width 1))
		(line (pt 12 124)(pt 12 98)(line_width 1))
		(line (pt 12 124)(pt 4 124)(line_width 1))
		(line (pt 4 98)(pt 8 94)(line_width 1))
		(line (pt 8 94)(pt 12 98)(line_width 1))
		(line (pt 12 98)(pt 8 94)(line_width 1))
	)
	(rotate90)
	(annotation_block (location)(rect 272 -104 328 -88))
)
(pin
	(output)
	(rect 288 -280 304 -104)
	(text "OUTPUT" (rect 0 137 10 175)(font "Arial" (font_size 6))(vertical))
	(text "segment_d1" (rect 0 5 12 65)(font "Arial" )(vertical))
	(pt 8 176)
	(drawing
		(line (pt 8 176)(pt 8 124)(line_width 1))
		(line (pt 4 124)(pt 4 98)(line_width 1))
		(line (pt 12 124)(pt 12 98)(line_width 1))
		(line (pt 12 124)(pt 4 124)(line_width 1))
		(line (pt 4 98)(pt 8 94)(line_width 1))
		(line (pt 8 94)(pt 12 98)(line_width 1))
		(line (pt 12 98)(pt 8 94)(line_width 1))
	)
	(rotate90)
	(annotation_block (location)(rect 304 -104 360 -88))
)
(pin
	(output)
	(rect 304 -280 320 -104)
	(text "OUTPUT" (rect 0 137 10 175)(font "Arial" (font_size 6))(vertical))
	(text "segment_e1" (rect 0 5 12 65)(font "Arial" )(vertical))
	(pt 8 176)
	(drawing
		(line (pt 8 176)(pt 8 124)(line_width 1))
		(line (pt 4 124)(pt 4 98)(line_width 1))
		(line (pt 12 124)(pt 12 98)(line_width 1))
		(line (pt 12 124)(pt 4 124)(line_width 1))
		(line (pt 4 98)(pt 8 94)(line_width 1))
		(line (pt 8 94)(pt 12 98)(line_width 1))
		(line (pt 12 98)(pt 8 94)(line_width 1))
	)
	(rotate90)
	(annotation_block (location)(rect 320 -104 384 -88))
)
(pin
	(output)
	(rect 320 -280 336 -104)
	(text "OUTPUT" (rect 0 137 10 175)(font "Arial" (font_size 6))(vertical))
	(text "segment_f1" (rect 0 5 12 64)(font "Arial" )(vertical))
	(pt 8 176)
	(drawing
		(line (pt 8 176)(pt 8 124)(line_width 1))
		(line (pt 4 124)(pt 4 98)(line_width 1))
		(line (pt 12 124)(pt 12 98)(line_width 1))
		(line (pt 12 124)(pt 4 124)(line_width 1))
		(line (pt 4 98)(pt 8 94)(line_width 1))
		(line (pt 8 94)(pt 12 98)(line_width 1))
		(line (pt 12 98)(pt 8 94)(line_width 1))
	)
	(rotate90)
	(annotation_block (location)(rect 336 -104 400 -88))
)
(pin
	(output)
	(rect 336 -280 352 -104)
	(text "OUTPUT" (rect 0 137 10 175)(font "Arial" (font_size 6))(vertical))
	(text "segment_g1" (rect 0 5 12 65)(font "Arial" )(vertical))
	(pt 8 176)
	(drawing
		(line (pt 8 176)(pt 8 124)(line_width 1))
		(line (pt 4 124)(pt 4 98)(line_width 1))
		(line (pt 12 124)(pt 12 98)(line_width 1))
		(line (pt 12 124)(pt 4 124)(line_width 1))
		(line (pt 4 98)(pt 8 94)(line_width 1))
		(line (pt 8 94)(pt 12 98)(line_width 1))
		(line (pt 12 98)(pt 8 94)(line_width 1))
	)
	(rotate90)
	(annotation_block (location)(rect 352 -104 416 -88))
)
(pin
	(output)
	(rect 552 -280 568 -104)
	(text "OUTPUT" (rect 0 137 10 175)(font "Arial" (font_size 6))(vertical))
	(text "segment_a2" (rect 0 5 12 65)(font "Arial" )(vertical))
	(pt 8 176)
	(drawing
		(line (pt 8 176)(pt 8 124)(line_width 1))
		(line (pt 4 124)(pt 4 98)(line_width 1))
		(line (pt 12 124)(pt 12 98)(line_width 1))
		(line (pt 12 124)(pt 4 124)(line_width 1))
		(line (pt 4 98)(pt 8 94)(line_width 1))
		(line (pt 8 94)(pt 12 98)(line_width 1))
		(line (pt 12 98)(pt 8 94)(line_width 1))
	)
	(rotate90)
	(annotation_block (location)(rect 568 -104 632 -88))
)
(pin
	(output)
	(rect 568 -280 584 -104)
	(text "OUTPUT" (rect 0 137 10 175)(font "Arial" (font_size 6))(vertical))
	(text "segment_b2" (rect 0 5 12 65)(font "Arial" )(vertical))
	(pt 8 176)
	(drawing
		(line (pt 8 176)(pt 8 124)(line_width 1))
		(line (pt 4 124)(pt 4 98)(line_width 1))
		(line (pt 12 124)(pt 12 98)(line_width 1))
		(line (pt 12 124)(pt 4 124)(line_width 1))
		(line (pt 4 98)(pt 8 94)(line_width 1))
		(line (pt 8 94)(pt 12 98)(line_width 1))
		(line (pt 12 98)(pt 8 94)(line_width 1))
	)
	(rotate90)
	(annotation_block (location)(rect 584 -104 640 -88))
)
(pin
	(output)
	(rect 584 -280 600 -104)
	(text "OUTPUT" (rect 0 137 10 175)(font "Arial" (font_size 6))(vertical))
	(text "segment_c2" (rect 0 5 12 65)(font "Arial" )(vertical))
	(pt 8 176)
	(drawing
		(line (pt 8 176)(pt 8 124)(line_width 1))
		(line (pt 4 124)(pt 4 98)(line_width 1))
		(line (pt 12 124)(pt 12 98)(line_width 1))
		(line (pt 12 124)(pt 4 124)(line_width 1))
		(line (pt 4 98)(pt 8 94)(line_width 1))
		(line (pt 8 94)(pt 12 98)(line_width 1))
		(line (pt 12 98)(pt 8 94)(line_width 1))
	)
	(rotate90)
	(annotation_block (location)(rect 600 -104 664 -88))
)
(pin
	(output)
	(rect 600 -280 616 -104)
	(text "OUTPUT" (rect 0 137 10 175)(font "Arial" (font_size 6))(vertical))
	(text "segment_d2" (rect 0 5 12 65)(font "Arial" )(vertical))
	(pt 8 176)
	(drawing
		(line (pt 8 176)(pt 8 124)(line_width 1))
		(line (pt 4 124)(pt 4 98)(line_width 1))
		(line (pt 12 124)(pt 12 98)(line_width 1))
		(line (pt 12 124)(pt 4 124)(line_width 1))
		(line (pt 4 98)(pt 8 94)(line_width 1))
		(line (pt 8 94)(pt 12 98)(line_width 1))
		(line (pt 12 98)(pt 8 94)(line_width 1))
	)
	(rotate90)
	(annotation_block (location)(rect 616 -104 680 -88))
)
(pin
	(output)
	(rect 616 -280 632 -104)
	(text "OUTPUT" (rect 0 137 10 175)(font "Arial" (font_size 6))(vertical))
	(text "segment_e2" (rect 0 5 12 65)(font "Arial" )(vertical))
	(pt 8 176)
	(drawing
		(line (pt 8 176)(pt 8 124)(line_width 1))
		(line (pt 4 124)(pt 4 98)(line_width 1))
		(line (pt 12 124)(pt 12 98)(line_width 1))
		(line (pt 12 124)(pt 4 124)(line_width 1))
		(line (pt 4 98)(pt 8 94)(line_width 1))
		(line (pt 8 94)(pt 12 98)(line_width 1))
		(line (pt 12 98)(pt 8 94)(line_width 1))
	)
	(rotate90)
	(annotation_block (location)(rect 632 -104 696 -88))
)
(pin
	(output)
	(rect 632 -280 648 -104)
	(text "OUTPUT" (rect 0 137 10 175)(font "Arial" (font_size 6))(vertical))
	(text "segment_f2" (rect 0 5 12 64)(font "Arial" )(vertical))
	(pt 8 176)
	(drawing
		(line (pt 8 176)(pt 8 124)(line_width 1))
		(line (pt 4 124)(pt 4 98)(line_width 1))
		(line (pt 12 124)(pt 12 98)(line_width 1))
		(line (pt 12 124)(pt 4 124)(line_width 1))
		(line (pt 4 98)(pt 8 94)(line_width 1))
		(line (pt 8 94)(pt 12 98)(line_width 1))
		(line (pt 12 98)(pt 8 94)(line_width 1))
	)
	(rotate90)
	(annotation_block (location)(rect 648 -104 712 -88))
)
(pin
	(output)
	(rect 648 -280 664 -104)
	(text "OUTPUT" (rect 0 137 10 175)(font "Arial" (font_size 6))(vertical))
	(text "segment_g2" (rect 0 5 12 65)(font "Arial" )(vertical))
	(pt 8 176)
	(drawing
		(line (pt 8 176)(pt 8 124)(line_width 1))
		(line (pt 4 124)(pt 4 98)(line_width 1))
		(line (pt 12 124)(pt 12 98)(line_width 1))
		(line (pt 12 124)(pt 4 124)(line_width 1))
		(line (pt 4 98)(pt 8 94)(line_width 1))
		(line (pt 8 94)(pt 12 98)(line_width 1))
		(line (pt 12 98)(pt 8 94)(line_width 1))
	)
	(rotate90)
	(annotation_block (location)(rect 664 -104 720 -88))
)
(pin
	(output)
	(rect 864 -280 880 -104)
	(text "OUTPUT" (rect 0 137 10 175)(font "Arial" (font_size 6))(vertical))
	(text "segment_a3" (rect 0 5 12 65)(font "Arial" )(vertical))
	(pt 8 176)
	(drawing
		(line (pt 8 176)(pt 8 124)(line_width 1))
		(line (pt 4 124)(pt 4 98)(line_width 1))
		(line (pt 12 124)(pt 12 98)(line_width 1))
		(line (pt 12 124)(pt 4 124)(line_width 1))
		(line (pt 4 98)(pt 8 94)(line_width 1))
		(line (pt 8 94)(pt 12 98)(line_width 1))
		(line (pt 12 98)(pt 8 94)(line_width 1))
	)
	(rotate90)
	(annotation_block (location)(rect 880 -104 936 -88))
)
(pin
	(output)
	(rect 880 -280 896 -104)
	(text "OUTPUT" (rect 0 137 10 175)(font "Arial" (font_size 6))(vertical))
	(text "segment_b3" (rect 0 5 12 65)(font "Arial" )(vertical))
	(pt 8 176)
	(drawing
		(line (pt 8 176)(pt 8 124)(line_width 1))
		(line (pt 4 124)(pt 4 98)(line_width 1))
		(line (pt 12 124)(pt 12 98)(line_width 1))
		(line (pt 12 124)(pt 4 124)(line_width 1))
		(line (pt 4 98)(pt 8 94)(line_width 1))
		(line (pt 8 94)(pt 12 98)(line_width 1))
		(line (pt 12 98)(pt 8 94)(line_width 1))
	)
	(rotate90)
	(annotation_block (location)(rect 896 -104 960 -88))
)
(pin
	(output)
	(rect 896 -280 912 -104)
	(text "OUTPUT" (rect 0 137 10 175)(font "Arial" (font_size 6))(vertical))
	(text "segment_c3" (rect 0 5 12 65)(font "Arial" )(vertical))
	(pt 8 176)
	(drawing
		(line (pt 8 176)(pt 8 124)(line_width 1))
		(line (pt 4 124)(pt 4 98)(line_width 1))
		(line (pt 12 124)(pt 12 98)(line_width 1))
		(line (pt 12 124)(pt 4 124)(line_width 1))
		(line (pt 4 98)(pt 8 94)(line_width 1))
		(line (pt 8 94)(pt 12 98)(line_width 1))
		(line (pt 12 98)(pt 8 94)(line_width 1))
	)
	(rotate90)
	(annotation_block (location)(rect 912 -104 976 -88))
)
(pin
	(output)
	(rect 912 -280 928 -104)
	(text "OUTPUT" (rect 0 137 10 175)(font "Arial" (font_size 6))(vertical))
	(text "segment_d3" (rect 0 5 12 65)(font "Arial" )(vertical))
	(pt 8 176)
	(drawing
		(line (pt 8 176)(pt 8 124)(line_width 1))
		(line (pt 4 124)(pt 4 98)(line_width 1))
		(line (pt 12 124)(pt 12 98)(line_width 1))
		(line (pt 12 124)(pt 4 124)(line_width 1))
		(line (pt 4 98)(pt 8 94)(line_width 1))
		(line (pt 8 94)(pt 12 98)(line_width 1))
		(line (pt 12 98)(pt 8 94)(line_width 1))
	)
	(rotate90)
	(annotation_block (location)(rect 928 -104 984 -88))
)
(pin
	(output)
	(rect 928 -280 944 -104)
	(text "OUTPUT" (rect 0 137 10 175)(font "Arial" (font_size 6))(vertical))
	(text "segment_e3" (rect 0 5 12 65)(font "Arial" )(vertical))
	(pt 8 176)
	(drawing
		(line (pt 8 176)(pt 8 124)(line_width 1))
		(line (pt 4 124)(pt 4 98)(line_width 1))
		(line (pt 12 124)(pt 12 98)(line_width 1))
		(line (pt 12 124)(pt 4 124)(line_width 1))
		(line (pt 4 98)(pt 8 94)(line_width 1))
		(line (pt 8 94)(pt 12 98)(line_width 1))
		(line (pt 12 98)(pt 8 94)(line_width 1))
	)
	(rotate90)
	(annotation_block (location)(rect 944 -104 1000 -88))
)
(pin
	(output)
	(rect 944 -280 960 -104)
	(text "OUTPUT" (rect 0 137 10 175)(font "Arial" (font_size 6))(vertical))
	(text "segment_f3" (rect 0 5 12 64)(font "Arial" )(vertical))
	(pt 8 176)
	(drawing
		(line (pt 8 176)(pt 8 124)(line_width 1))
		(line (pt 4 124)(pt 4 98)(line_width 1))
		(line (pt 12 124)(pt 12 98)(line_width 1))
		(line (pt 12 124)(pt 4 124)(line_width 1))
		(line (pt 4 98)(pt 8 94)(line_width 1))
		(line (pt 8 94)(pt 12 98)(line_width 1))
		(line (pt 12 98)(pt 8 94)(line_width 1))
	)
	(rotate90)
	(annotation_block (location)(rect 960 -104 1016 -88))
)
(pin
	(output)
	(rect 960 -280 976 -104)
	(text "OUTPUT" (rect 0 137 10 175)(font "Arial" (font_size 6))(vertical))
	(text "segment_g3" (rect 0 5 12 65)(font "Arial" )(vertical))
	(pt 8 176)
	(drawing
		(line (pt 8 176)(pt 8 124)(line_width 1))
		(line (pt 4 124)(pt 4 98)(line_width 1))
		(line (pt 12 124)(pt 12 98)(line_width 1))
		(line (pt 12 124)(pt 4 124)(line_width 1))
		(line (pt 4 98)(pt 8 94)(line_width 1))
		(line (pt 8 94)(pt 12 98)(line_width 1))
		(line (pt 12 98)(pt 8 94)(line_width 1))
	)
	(rotate90)
	(annotation_block (location)(rect 976 -104 1032 -88))
)
(pin
	(output)
	(rect 1176 -280 1192 -104)
	(text "OUTPUT" (rect 0 137 10 175)(font "Arial" (font_size 6))(vertical))
	(text "segment_a4" (rect 0 5 12 65)(font "Arial" )(vertical))
	(pt 8 176)
	(drawing
		(line (pt 8 176)(pt 8 124)(line_width 1))
		(line (pt 4 124)(pt 4 98)(line_width 1))
		(line (pt 12 124)(pt 12 98)(line_width 1))
		(line (pt 12 124)(pt 4 124)(line_width 1))
		(line (pt 4 98)(pt 8 94)(line_width 1))
		(line (pt 8 94)(pt 12 98)(line_width 1))
		(line (pt 12 98)(pt 8 94)(line_width 1))
	)
	(rotate90)
	(annotation_block (location)(rect 1192 -104 1240 -88))
)
(pin
	(output)
	(rect 1192 -280 1208 -104)
	(text "OUTPUT" (rect 0 137 10 175)(font "Arial" (font_size 6))(vertical))
	(text "segment_b4" (rect 0 5 12 65)(font "Arial" )(vertical))
	(pt 8 176)
	(drawing
		(line (pt 8 176)(pt 8 124)(line_width 1))
		(line (pt 4 124)(pt 4 98)(line_width 1))
		(line (pt 12 124)(pt 12 98)(line_width 1))
		(line (pt 12 124)(pt 4 124)(line_width 1))
		(line (pt 4 98)(pt 8 94)(line_width 1))
		(line (pt 8 94)(pt 12 98)(line_width 1))
		(line (pt 12 98)(pt 8 94)(line_width 1))
	)
	(rotate90)
	(annotation_block (location)(rect 1208 -104 1256 -88))
)
(pin
	(output)
	(rect 1208 -280 1224 -104)
	(text "OUTPUT" (rect 0 137 10 175)(font "Arial" (font_size 6))(vertical))
	(text "segment_c4" (rect 0 5 12 65)(font "Arial" )(vertical))
	(pt 8 176)
	(drawing
		(line (pt 8 176)(pt 8 124)(line_width 1))
		(line (pt 4 124)(pt 4 98)(line_width 1))
		(line (pt 12 124)(pt 12 98)(line_width 1))
		(line (pt 12 124)(pt 4 124)(line_width 1))
		(line (pt 4 98)(pt 8 94)(line_width 1))
		(line (pt 8 94)(pt 12 98)(line_width 1))
		(line (pt 12 98)(pt 8 94)(line_width 1))
	)
	(rotate90)
	(annotation_block (location)(rect 1224 -104 1272 -88))
)
(pin
	(output)
	(rect 1224 -280 1240 -104)
	(text "OUTPUT" (rect 0 137 10 175)(font "Arial" (font_size 6))(vertical))
	(text "segment_d4" (rect 0 5 12 65)(font "Arial" )(vertical))
	(pt 8 176)
	(drawing
		(line (pt 8 176)(pt 8 124)(line_width 1))
		(line (pt 4 124)(pt 4 98)(line_width 1))
		(line (pt 12 124)(pt 12 98)(line_width 1))
		(line (pt 12 124)(pt 4 124)(line_width 1))
		(line (pt 4 98)(pt 8 94)(line_width 1))
		(line (pt 8 94)(pt 12 98)(line_width 1))
		(line (pt 12 98)(pt 8 94)(line_width 1))
	)
	(rotate90)
	(annotation_block (location)(rect 1240 -104 1288 -88))
)
(pin
	(output)
	(rect 1240 -280 1256 -104)
	(text "OUTPUT" (rect 0 137 10 175)(font "Arial" (font_size 6))(vertical))
	(text "segment_e4" (rect 0 5 12 65)(font "Arial" )(vertical))
	(pt 8 176)
	(drawing
		(line (pt 8 176)(pt 8 124)(line_width 1))
		(line (pt 4 124)(pt 4 98)(line_width 1))
		(line (pt 12 124)(pt 12 98)(line_width 1))
		(line (pt 12 124)(pt 4 124)(line_width 1))
		(line (pt 4 98)(pt 8 94)(line_width 1))
		(line (pt 8 94)(pt 12 98)(line_width 1))
		(line (pt 12 98)(pt 8 94)(line_width 1))
	)
	(rotate90)
	(annotation_block (location)(rect 1256 -104 1304 -88))
)
(pin
	(output)
	(rect 1256 -280 1272 -104)
	(text "OUTPUT" (rect 0 137 10 175)(font "Arial" (font_size 6))(vertical))
	(text "segment_f4" (rect 0 5 12 64)(font "Arial" )(vertical))
	(pt 8 176)
	(drawing
		(line (pt 8 176)(pt 8 124)(line_width 1))
		(line (pt 4 124)(pt 4 98)(line_width 1))
		(line (pt 12 124)(pt 12 98)(line_width 1))
		(line (pt 12 124)(pt 4 124)(line_width 1))
		(line (pt 4 98)(pt 8 94)(line_width 1))
		(line (pt 8 94)(pt 12 98)(line_width 1))
		(line (pt 12 98)(pt 8 94)(line_width 1))
	)
	(rotate90)
	(annotation_block (location)(rect 1272 -104 1320 -88))
)
(pin
	(output)
	(rect 1272 -280 1288 -104)
	(text "OUTPUT" (rect 0 137 10 175)(font "Arial" (font_size 6))(vertical))
	(text "segment_g4" (rect 0 5 12 65)(font "Arial" )(vertical))
	(pt 8 176)
	(drawing
		(line (pt 8 176)(pt 8 124)(line_width 1))
		(line (pt 4 124)(pt 4 98)(line_width 1))
		(line (pt 12 124)(pt 12 98)(line_width 1))
		(line (pt 12 124)(pt 4 124)(line_width 1))
		(line (pt 4 98)(pt 8 94)(line_width 1))
		(line (pt 8 94)(pt 12 98)(line_width 1))
		(line (pt 12 98)(pt 8 94)(line_width 1))
	)
	(rotate90)
	(annotation_block (location)(rect 1288 -104 1336 -88))
)
(pin
	(output)
	(rect 1488 -280 1504 -104)
	(text "OUTPUT" (rect 0 137 10 175)(font "Arial" (font_size 6))(vertical))
	(text "segment_a5" (rect 0 5 12 65)(font "Arial" )(vertical))
	(pt 8 176)
	(drawing
		(line (pt 8 176)(pt 8 124)(line_width 1))
		(line (pt 4 124)(pt 4 98)(line_width 1))
		(line (pt 12 124)(pt 12 98)(line_width 1))
		(line (pt 12 124)(pt 4 124)(line_width 1))
		(line (pt 4 98)(pt 8 94)(line_width 1))
		(line (pt 8 94)(pt 12 98)(line_width 1))
		(line (pt 12 98)(pt 8 94)(line_width 1))
	)
	(rotate90)
	(annotation_block (location)(rect 1504 -104 1552 -88))
)
(pin
	(output)
	(rect 1504 -280 1520 -104)
	(text "OUTPUT" (rect 0 137 10 175)(font "Arial" (font_size 6))(vertical))
	(text "segment_b5" (rect 0 5 12 65)(font "Arial" )(vertical))
	(pt 8 176)
	(drawing
		(line (pt 8 176)(pt 8 124)(line_width 1))
		(line (pt 4 124)(pt 4 98)(line_width 1))
		(line (pt 12 124)(pt 12 98)(line_width 1))
		(line (pt 12 124)(pt 4 124)(line_width 1))
		(line (pt 4 98)(pt 8 94)(line_width 1))
		(line (pt 8 94)(pt 12 98)(line_width 1))
		(line (pt 12 98)(pt 8 94)(line_width 1))
	)
	(rotate90)
	(annotation_block (location)(rect 1520 -104 1568 -88))
)
(pin
	(output)
	(rect 1520 -280 1536 -104)
	(text "OUTPUT" (rect 0 137 10 175)(font "Arial" (font_size 6))(vertical))
	(text "segment_c5" (rect 0 5 12 65)(font "Arial" )(vertical))
	(pt 8 176)
	(drawing
		(line (pt 8 176)(pt 8 124)(line_width 1))
		(line (pt 4 124)(pt 4 98)(line_width 1))
		(line (pt 12 124)(pt 12 98)(line_width 1))
		(line (pt 12 124)(pt 4 124)(line_width 1))
		(line (pt 4 98)(pt 8 94)(line_width 1))
		(line (pt 8 94)(pt 12 98)(line_width 1))
		(line (pt 12 98)(pt 8 94)(line_width 1))
	)
	(rotate90)
	(annotation_block (location)(rect 1536 -104 1584 -88))
)
(pin
	(output)
	(rect 1536 -280 1552 -104)
	(text "OUTPUT" (rect 0 137 10 175)(font "Arial" (font_size 6))(vertical))
	(text "segment_d5" (rect 0 5 12 65)(font "Arial" )(vertical))
	(pt 8 176)
	(drawing
		(line (pt 8 176)(pt 8 124)(line_width 1))
		(line (pt 4 124)(pt 4 98)(line_width 1))
		(line (pt 12 124)(pt 12 98)(line_width 1))
		(line (pt 12 124)(pt 4 124)(line_width 1))
		(line (pt 4 98)(pt 8 94)(line_width 1))
		(line (pt 8 94)(pt 12 98)(line_width 1))
		(line (pt 12 98)(pt 8 94)(line_width 1))
	)
	(rotate90)
	(annotation_block (location)(rect 1552 -104 1600 -88))
)
(pin
	(output)
	(rect 1552 -280 1568 -104)
	(text "OUTPUT" (rect 0 137 10 175)(font "Arial" (font_size 6))(vertical))
	(text "segment_e5" (rect 0 5 12 65)(font "Arial" )(vertical))
	(pt 8 176)
	(drawing
		(line (pt 8 176)(pt 8 124)(line_width 1))
		(line (pt 4 124)(pt 4 98)(line_width 1))
		(line (pt 12 124)(pt 12 98)(line_width 1))
		(line (pt 12 124)(pt 4 124)(line_width 1))
		(line (pt 4 98)(pt 8 94)(line_width 1))
		(line (pt 8 94)(pt 12 98)(line_width 1))
		(line (pt 12 98)(pt 8 94)(line_width 1))
	)
	(rotate90)
	(annotation_block (location)(rect 1568 -104 1616 -88))
)
(pin
	(output)
	(rect 1568 -280 1584 -104)
	(text "OUTPUT" (rect 0 137 10 175)(font "Arial" (font_size 6))(vertical))
	(text "segment_f5" (rect 0 5 12 64)(font "Arial" )(vertical))
	(pt 8 176)
	(drawing
		(line (pt 8 176)(pt 8 124)(line_width 1))
		(line (pt 4 124)(pt 4 98)(line_width 1))
		(line (pt 12 124)(pt 12 98)(line_width 1))
		(line (pt 12 124)(pt 4 124)(line_width 1))
		(line (pt 4 98)(pt 8 94)(line_width 1))
		(line (pt 8 94)(pt 12 98)(line_width 1))
		(line (pt 12 98)(pt 8 94)(line_width 1))
	)
	(rotate90)
	(annotation_block (location)(rect 1584 -104 1632 -88))
)
(pin
	(output)
	(rect 1584 -280 1600 -104)
	(text "OUTPUT" (rect 0 137 10 175)(font "Arial" (font_size 6))(vertical))
	(text "segment_g5" (rect 0 5 12 65)(font "Arial" )(vertical))
	(pt 8 176)
	(drawing
		(line (pt 8 176)(pt 8 124)(line_width 1))
		(line (pt 4 124)(pt 4 98)(line_width 1))
		(line (pt 12 124)(pt 12 98)(line_width 1))
		(line (pt 12 124)(pt 4 124)(line_width 1))
		(line (pt 4 98)(pt 8 94)(line_width 1))
		(line (pt 8 94)(pt 12 98)(line_width 1))
		(line (pt 12 98)(pt 8 94)(line_width 1))
	)
	(rotate90)
	(annotation_block (location)(rect 1600 -104 1648 -88))
)
(pin
	(output)
	(rect 1984 -16 2160 0)
	(text "OUTPUT" (rect 1 0 39 10)(font "Arial" (font_size 6)))
	(text "segment_a7" (rect 90 0 150 12)(font "Arial" ))
	(pt 0 8)
	(drawing
		(line (pt 0 8)(pt 52 8)(line_width 1))
		(line (pt 52 4)(pt 78 4)(line_width 1))
		(line (pt 52 12)(pt 78 12)(line_width 1))
		(line (pt 52 12)(pt 52 4)(line_width 1))
		(line (pt 78 4)(pt 82 8)(line_width 1))
		(line (pt 82 8)(pt 78 12)(line_width 1))
		(line (pt 78 12)(pt 82 8)(line_width 1))
	)
	(annotation_block (location)(rect 2160 0 2208 16))
)
(pin
	(output)
	(rect 1984 192 2160 208)
	(text "OUTPUT" (rect 1 0 39 10)(font "Arial" (font_size 6)))
	(text "segment_a6" (rect 90 0 150 12)(font "Arial" ))
	(pt 0 8)
	(drawing
		(line (pt 0 8)(pt 52 8)(line_width 1))
		(line (pt 52 4)(pt 78 4)(line_width 1))
		(line (pt 52 12)(pt 78 12)(line_width 1))
		(line (pt 52 12)(pt 52 4)(line_width 1))
		(line (pt 78 4)(pt 82 8)(line_width 1))
		(line (pt 82 8)(pt 78 12)(line_width 1))
		(line (pt 78 12)(pt 82 8)(line_width 1))
	)
	(annotation_block (location)(rect 2160 208 2208 224))
)
(pin
	(output)
	(rect 1984 0 2160 16)
	(text "OUTPUT" (rect 1 0 39 10)(font "Arial" (font_size 6)))
	(text "segment_b7" (rect 90 0 150 12)(font "Arial" ))
	(pt 0 8)
	(drawing
		(line (pt 0 8)(pt 52 8)(line_width 1))
		(line (pt 52 4)(pt 78 4)(line_width 1))
		(line (pt 52 12)(pt 78 12)(line_width 1))
		(line (pt 52 12)(pt 52 4)(line_width 1))
		(line (pt 78 4)(pt 82 8)(line_width 1))
		(line (pt 82 8)(pt 78 12)(line_width 1))
		(line (pt 78 12)(pt 82 8)(line_width 1))
	)
	(annotation_block (location)(rect 2160 16 2208 32))
)
(pin
	(output)
	(rect 1984 16 2160 32)
	(text "OUTPUT" (rect 1 0 39 10)(font "Arial" (font_size 6)))
	(text "segment_c7" (rect 90 0 150 12)(font "Arial" ))
	(pt 0 8)
	(drawing
		(line (pt 0 8)(pt 52 8)(line_width 1))
		(line (pt 52 4)(pt 78 4)(line_width 1))
		(line (pt 52 12)(pt 78 12)(line_width 1))
		(line (pt 52 12)(pt 52 4)(line_width 1))
		(line (pt 78 4)(pt 82 8)(line_width 1))
		(line (pt 82 8)(pt 78 12)(line_width 1))
		(line (pt 78 12)(pt 82 8)(line_width 1))
	)
	(annotation_block (location)(rect 2160 32 2208 48))
)
(pin
	(output)
	(rect 1984 32 2160 48)
	(text "OUTPUT" (rect 1 0 39 10)(font "Arial" (font_size 6)))
	(text "segment_d7" (rect 90 0 150 12)(font "Arial" ))
	(pt 0 8)
	(drawing
		(line (pt 0 8)(pt 52 8)(line_width 1))
		(line (pt 52 4)(pt 78 4)(line_width 1))
		(line (pt 52 12)(pt 78 12)(line_width 1))
		(line (pt 52 12)(pt 52 4)(line_width 1))
		(line (pt 78 4)(pt 82 8)(line_width 1))
		(line (pt 82 8)(pt 78 12)(line_width 1))
		(line (pt 78 12)(pt 82 8)(line_width 1))
	)
	(annotation_block (location)(rect 2160 48 2208 64))
)
(pin
	(output)
	(rect 1984 48 2160 64)
	(text "OUTPUT" (rect 1 0 39 10)(font "Arial" (font_size 6)))
	(text "segment_e7" (rect 90 0 150 12)(font "Arial" ))
	(pt 0 8)
	(drawing
		(line (pt 0 8)(pt 52 8)(line_width 1))
		(line (pt 52 4)(pt 78 4)(line_width 1))
		(line (pt 52 12)(pt 78 12)(line_width 1))
		(line (pt 52 12)(pt 52 4)(line_width 1))
		(line (pt 78 4)(pt 82 8)(line_width 1))
		(line (pt 82 8)(pt 78 12)(line_width 1))
		(line (pt 78 12)(pt 82 8)(line_width 1))
	)
	(annotation_block (location)(rect 2160 64 2208 80))
)
(pin
	(output)
	(rect 1984 64 2160 80)
	(text "OUTPUT" (rect 1 0 39 10)(font "Arial" (font_size 6)))
	(text "segment_f7" (rect 90 0 149 12)(font "Arial" ))
	(pt 0 8)
	(drawing
		(line (pt 0 8)(pt 52 8)(line_width 1))
		(line (pt 52 4)(pt 78 4)(line_width 1))
		(line (pt 52 12)(pt 78 12)(line_width 1))
		(line (pt 52 12)(pt 52 4)(line_width 1))
		(line (pt 78 4)(pt 82 8)(line_width 1))
		(line (pt 82 8)(pt 78 12)(line_width 1))
		(line (pt 78 12)(pt 82 8)(line_width 1))
	)
	(annotation_block (location)(rect 2160 80 2208 96))
)
(pin
	(output)
	(rect 1984 80 2160 96)
	(text "OUTPUT" (rect 1 0 39 10)(font "Arial" (font_size 6)))
	(text "segment_g7" (rect 90 0 150 12)(font "Arial" ))
	(pt 0 8)
	(drawing
		(line (pt 0 8)(pt 52 8)(line_width 1))
		(line (pt 52 4)(pt 78 4)(line_width 1))
		(line (pt 52 12)(pt 78 12)(line_width 1))
		(line (pt 52 12)(pt 52 4)(line_width 1))
		(line (pt 78 4)(pt 82 8)(line_width 1))
		(line (pt 82 8)(pt 78 12)(line_width 1))
		(line (pt 78 12)(pt 82 8)(line_width 1))
	)
	(annotation_block (location)(rect 2160 96 2208 112))
)
(pin
	(output)
	(rect 1984 208 2160 224)
	(text "OUTPUT" (rect 1 0 39 10)(font "Arial" (font_size 6)))
	(text "segment_b6" (rect 90 0 150 12)(font "Arial" ))
	(pt 0 8)
	(drawing
		(line (pt 0 8)(pt 52 8)(line_width 1))
		(line (pt 52 4)(pt 78 4)(line_width 1))
		(line (pt 52 12)(pt 78 12)(line_width 1))
		(line (pt 52 12)(pt 52 4)(line_width 1))
		(line (pt 78 4)(pt 82 8)(line_width 1))
		(line (pt 82 8)(pt 78 12)(line_width 1))
		(line (pt 78 12)(pt 82 8)(line_width 1))
	)
	(annotation_block (location)(rect 2160 224 2208 240))
)
(pin
	(output)
	(rect 1984 224 2160 240)
	(text "OUTPUT" (rect 1 0 39 10)(font "Arial" (font_size 6)))
	(text "segment_c6" (rect 90 0 150 12)(font "Arial" ))
	(pt 0 8)
	(drawing
		(line (pt 0 8)(pt 52 8)(line_width 1))
		(line (pt 52 4)(pt 78 4)(line_width 1))
		(line (pt 52 12)(pt 78 12)(line_width 1))
		(line (pt 52 12)(pt 52 4)(line_width 1))
		(line (pt 78 4)(pt 82 8)(line_width 1))
		(line (pt 82 8)(pt 78 12)(line_width 1))
		(line (pt 78 12)(pt 82 8)(line_width 1))
	)
	(annotation_block (location)(rect 2160 240 2208 256))
)
(pin
	(output)
	(rect 1984 240 2160 256)
	(text "OUTPUT" (rect 1 0 39 10)(font "Arial" (font_size 6)))
	(text "segment_d6" (rect 90 0 150 12)(font "Arial" ))
	(pt 0 8)
	(drawing
		(line (pt 0 8)(pt 52 8)(line_width 1))
		(line (pt 52 4)(pt 78 4)(line_width 1))
		(line (pt 52 12)(pt 78 12)(line_width 1))
		(line (pt 52 12)(pt 52 4)(line_width 1))
		(line (pt 78 4)(pt 82 8)(line_width 1))
		(line (pt 82 8)(pt 78 12)(line_width 1))
		(line (pt 78 12)(pt 82 8)(line_width 1))
	)
	(annotation_block (location)(rect 2160 256 2208 272))
)
(pin
	(output)
	(rect 1984 256 2160 272)
	(text "OUTPUT" (rect 1 0 39 10)(font "Arial" (font_size 6)))
	(text "segment_e6" (rect 90 0 150 12)(font "Arial" ))
	(pt 0 8)
	(drawing
		(line (pt 0 8)(pt 52 8)(line_width 1))
		(line (pt 52 4)(pt 78 4)(line_width 1))
		(line (pt 52 12)(pt 78 12)(line_width 1))
		(line (pt 52 12)(pt 52 4)(line_width 1))
		(line (pt 78 4)(pt 82 8)(line_width 1))
		(line (pt 82 8)(pt 78 12)(line_width 1))
		(line (pt 78 12)(pt 82 8)(line_width 1))
	)
	(annotation_block (location)(rect 2160 272 2208 288))
)
(pin
	(output)
	(rect 1984 272 2160 288)
	(text "OUTPUT" (rect 1 0 39 10)(font "Arial" (font_size 6)))
	(text "segment_f6" (rect 90 0 149 12)(font "Arial" ))
	(pt 0 8)
	(drawing
		(line (pt 0 8)(pt 52 8)(line_width 1))
		(line (pt 52 4)(pt 78 4)(line_width 1))
		(line (pt 52 12)(pt 78 12)(line_width 1))
		(line (pt 52 12)(pt 52 4)(line_width 1))
		(line (pt 78 4)(pt 82 8)(line_width 1))
		(line (pt 82 8)(pt 78 12)(line_width 1))
		(line (pt 78 12)(pt 82 8)(line_width 1))
	)
	(annotation_block (location)(rect 2160 288 2208 304))
)
(pin
	(output)
	(rect 1984 288 2160 304)
	(text "OUTPUT" (rect 1 0 39 10)(font "Arial" (font_size 6)))
	(text "segment_g6" (rect 90 0 150 12)(font "Arial" ))
	(pt 0 8)
	(drawing
		(line (pt 0 8)(pt 52 8)(line_width 1))
		(line (pt 52 4)(pt 78 4)(line_width 1))
		(line (pt 52 12)(pt 78 12)(line_width 1))
		(line (pt 52 12)(pt 52 4)(line_width 1))
		(line (pt 78 4)(pt 82 8)(line_width 1))
		(line (pt 82 8)(pt 78 12)(line_width 1))
		(line (pt 78 12)(pt 82 8)(line_width 1))
	)
	(annotation_block (location)(rect 2160 304 2208 320))
)
(symbol
	(rect 96 80 240 208)
	(text "mod10_2" (rect 46 1 108 17)(font "Arial" (font_size 10)))
	(text "inst3" (rect 8 112 31 124)(font "Arial" ))
	(port
		(pt 0 32)
		(input)
		(text "clock" (rect 0 0 29 14)(font "Arial" (font_size 8)))
		(text "clock" (rect 26 26 55 40)(font "Arial" (font_size 8)))
		(line (pt 0 32)(pt 16 32)(line_width 1))
	)
	(port
		(pt 80 128)
		(input)
		(text "aclr" (rect 0 0 14 21)(font "Arial" (font_size 8))(vertical))
		(text "aclr" (rect 73 91 87 112)(font "Arial" (font_size 8))(vertical))
		(line (pt 80 128)(pt 80 112)(line_width 1))
	)
	(port
		(pt 144 56)
		(output)
		(text "q[3..0]" (rect 0 0 35 14)(font "Arial" (font_size 8)))
		(text "q[3..0]" (rect 95 50 130 64)(font "Arial" (font_size 8)))
		(line (pt 144 56)(pt 128 56)(line_width 3))
	)
	(port
		(pt 144 72)
		(output)
		(text "cout" (rect 0 0 24 14)(font "Arial" (font_size 8)))
		(text "cout" (rect 104 66 128 80)(font "Arial" (font_size 8)))
		(line (pt 144 72)(pt 128 72)(line_width 1))
	)
	(drawing
		(text "up counter" (rect 84 17 135 29)(font "Arial" ))
		(text "modulus 10" (rect 80 27 136 39)(font "Arial" ))
		(line (pt 16 16)(pt 128 16)(line_width 1))
		(line (pt 128 16)(pt 128 112)(line_width 1))
		(line (pt 128 112)(pt 16 112)(line_width 1))
		(line (pt 16 112)(pt 16 16)(line_width 1))
		(line (pt 16 26)(pt 22 32)(line_width 1))
		(line (pt 22 32)(pt 16 38)(line_width 1))
	)
)
(symbol
	(rect 408 80 552 208)
	(text "mod10_2" (rect 46 1 108 17)(font "Arial" (font_size 10)))
	(text "inst6" (rect 8 112 31 124)(font "Arial" ))
	(port
		(pt 0 32)
		(input)
		(text "clock" (rect 0 0 29 14)(font "Arial" (font_size 8)))
		(text "clock" (rect 26 26 55 40)(font "Arial" (font_size 8)))
		(line (pt 0 32)(pt 16 32)(line_width 1))
	)
	(port
		(pt 80 128)
		(input)
		(text "aclr" (rect 0 0 14 21)(font "Arial" (font_size 8))(vertical))
		(text "aclr" (rect 73 91 87 112)(font "Arial" (font_size 8))(vertical))
		(line (pt 80 128)(pt 80 112)(line_width 1))
	)
	(port
		(pt 144 56)
		(output)
		(text "q[3..0]" (rect 0 0 35 14)(font "Arial" (font_size 8)))
		(text "q[3..0]" (rect 95 50 130 64)(font "Arial" (font_size 8)))
		(line (pt 144 56)(pt 128 56)(line_width 3))
	)
	(port
		(pt 144 72)
		(output)
		(text "cout" (rect 0 0 24 14)(font "Arial" (font_size 8)))
		(text "cout" (rect 104 66 128 80)(font "Arial" (font_size 8)))
		(line (pt 144 72)(pt 128 72)(line_width 1))
	)
	(drawing
		(text "up counter" (rect 84 17 135 29)(font "Arial" ))
		(text "modulus 10" (rect 80 27 136 39)(font "Arial" ))
		(line (pt 16 16)(pt 128 16)(line_width 1))
		(line (pt 128 16)(pt 128 112)(line_width 1))
		(line (pt 128 112)(pt 16 112)(line_width 1))
		(line (pt 16 112)(pt 16 16)(line_width 1))
		(line (pt 16 26)(pt 22 32)(line_width 1))
		(line (pt 22 32)(pt 16 38)(line_width 1))
	)
)
(symbol
	(rect 720 80 864 208)
	(text "mod6" (rect 56 1 93 17)(font "Arial" (font_size 10)))
	(text "inst8" (rect 8 112 31 124)(font "Arial" ))
	(port
		(pt 0 32)
		(input)
		(text "clock" (rect 0 0 29 14)(font "Arial" (font_size 8)))
		(text "clock" (rect 26 26 55 40)(font "Arial" (font_size 8)))
		(line (pt 0 32)(pt 16 32)(line_width 1))
	)
	(port
		(pt 80 128)
		(input)
		(text "aclr" (rect 0 0 14 21)(font "Arial" (font_size 8))(vertical))
		(text "aclr" (rect 73 91 87 112)(font "Arial" (font_size 8))(vertical))
		(line (pt 80 128)(pt 80 112)(line_width 1))
	)
	(port
		(pt 144 56)
		(output)
		(text "q[3..0]" (rect 0 0 35 14)(font "Arial" (font_size 8)))
		(text "q[3..0]" (rect 95 50 130 64)(font "Arial" (font_size 8)))
		(line (pt 144 56)(pt 128 56)(line_width 3))
	)
	(port
		(pt 144 72)
		(output)
		(text "cout" (rect 0 0 24 14)(font "Arial" (font_size 8)))
		(text "cout" (rect 104 66 128 80)(font "Arial" (font_size 8)))
		(line (pt 144 72)(pt 128 72)(line_width 1))
	)
	(drawing
		(text "up counter" (rect 84 17 135 29)(font "Arial" ))
		(text "modulus 6" (rect 85 27 135 39)(font "Arial" ))
		(line (pt 16 16)(pt 128 16)(line_width 1))
		(line (pt 128 16)(pt 128 112)(line_width 1))
		(line (pt 128 112)(pt 16 112)(line_width 1))
		(line (pt 16 112)(pt 16 16)(line_width 1))
		(line (pt 16 26)(pt 22 32)(line_width 1))
		(line (pt 22 32)(pt 16 38)(line_width 1))
	)
)
(symbol
	(rect 1032 80 1176 208)
	(text "mod10_2" (rect 46 1 108 17)(font "Arial" (font_size 10)))
	(text "inst10" (rect 8 112 37 124)(font "Arial" ))
	(port
		(pt 0 32)
		(input)
		(text "clock" (rect 0 0 29 14)(font "Arial" (font_size 8)))
		(text "clock" (rect 26 26 55 40)(font "Arial" (font_size 8)))
		(line (pt 0 32)(pt 16 32)(line_width 1))
	)
	(port
		(pt 80 128)
		(input)
		(text "aclr" (rect 0 0 14 21)(font "Arial" (font_size 8))(vertical))
		(text "aclr" (rect 73 91 87 112)(font "Arial" (font_size 8))(vertical))
		(line (pt 80 128)(pt 80 112)(line_width 1))
	)
	(port
		(pt 144 56)
		(output)
		(text "q[3..0]" (rect 0 0 35 14)(font "Arial" (font_size 8)))
		(text "q[3..0]" (rect 95 50 130 64)(font "Arial" (font_size 8)))
		(line (pt 144 56)(pt 128 56)(line_width 3))
	)
	(port
		(pt 144 72)
		(output)
		(text "cout" (rect 0 0 24 14)(font "Arial" (font_size 8)))
		(text "cout" (rect 104 66 128 80)(font "Arial" (font_size 8)))
		(line (pt 144 72)(pt 128 72)(line_width 1))
	)
	(drawing
		(text "up counter" (rect 84 17 135 29)(font "Arial" ))
		(text "modulus 10" (rect 80 27 136 39)(font "Arial" ))
		(line (pt 16 16)(pt 128 16)(line_width 1))
		(line (pt 128 16)(pt 128 112)(line_width 1))
		(line (pt 128 112)(pt 16 112)(line_width 1))
		(line (pt 16 112)(pt 16 16)(line_width 1))
		(line (pt 16 26)(pt 22 32)(line_width 1))
		(line (pt 22 32)(pt 16 38)(line_width 1))
	)
)
(symbol
	(rect 1344 80 1488 208)
	(text "mod6" (rect 56 1 93 17)(font "Arial" (font_size 10)))
	(text "inst12" (rect 8 112 37 124)(font "Arial" ))
	(port
		(pt 0 32)
		(input)
		(text "clock" (rect 0 0 29 14)(font "Arial" (font_size 8)))
		(text "clock" (rect 26 26 55 40)(font "Arial" (font_size 8)))
		(line (pt 0 32)(pt 16 32)(line_width 1))
	)
	(port
		(pt 80 128)
		(input)
		(text "aclr" (rect 0 0 14 21)(font "Arial" (font_size 8))(vertical))
		(text "aclr" (rect 73 91 87 112)(font "Arial" (font_size 8))(vertical))
		(line (pt 80 128)(pt 80 112)(line_width 1))
	)
	(port
		(pt 144 56)
		(output)
		(text "q[3..0]" (rect 0 0 35 14)(font "Arial" (font_size 8)))
		(text "q[3..0]" (rect 95 50 130 64)(font "Arial" (font_size 8)))
		(line (pt 144 56)(pt 128 56)(line_width 3))
	)
	(port
		(pt 144 72)
		(output)
		(text "cout" (rect 0 0 24 14)(font "Arial" (font_size 8)))
		(text "cout" (rect 104 66 128 80)(font "Arial" (font_size 8)))
		(line (pt 144 72)(pt 128 72)(line_width 1))
	)
	(drawing
		(text "up counter" (rect 84 17 135 29)(font "Arial" ))
		(text "modulus 6" (rect 85 27 135 39)(font "Arial" ))
		(line (pt 16 16)(pt 128 16)(line_width 1))
		(line (pt 128 16)(pt 128 112)(line_width 1))
		(line (pt 128 112)(pt 16 112)(line_width 1))
		(line (pt 16 112)(pt 16 16)(line_width 1))
		(line (pt 16 26)(pt 22 32)(line_width 1))
		(line (pt 22 32)(pt 16 38)(line_width 1))
	)
)
(symbol
	(rect 1808 -40 1984 120)
	(text "dec_7seg_HEX" (rect 5 0 79 12)(font "Arial" ))
	(text "inst21" (rect 8 144 37 156)(font "Arial" ))
	(port
		(pt 0 32)
		(input)
		(text "hex_digit[3..0]" (rect 0 0 69 12)(font "Arial" ))
		(text "hex_digit[3..0]" (rect 21 27 90 39)(font "Arial" ))
		(line (pt 0 32)(pt 16 32)(line_width 3))
	)
	(port
		(pt 176 32)
		(output)
		(text "segment_a" (rect 0 0 54 12)(font "Arial" ))
		(text "segment_a" (rect 101 27 155 39)(font "Arial" ))
		(line (pt 176 32)(pt 160 32)(line_width 1))
	)
	(port
		(pt 176 48)
		(output)
		(text "segment_b" (rect 0 0 54 12)(font "Arial" ))
		(text "segment_b" (rect 101 43 155 55)(font "Arial" ))
		(line (pt 176 48)(pt 160 48)(line_width 1))
	)
	(port
		(pt 176 64)
		(output)
		(text "segment_c" (rect 0 0 54 12)(font "Arial" ))
		(text "segment_c" (rect 101 59 155 71)(font "Arial" ))
		(line (pt 176 64)(pt 160 64)(line_width 1))
	)
	(port
		(pt 176 80)
		(output)
		(text "segment_d" (rect 0 0 54 12)(font "Arial" ))
		(text "segment_d" (rect 101 75 155 87)(font "Arial" ))
		(line (pt 176 80)(pt 160 80)(line_width 1))
	)
	(port
		(pt 176 96)
		(output)
		(text "segment_e" (rect 0 0 54 12)(font "Arial" ))
		(text "segment_e" (rect 101 91 155 103)(font "Arial" ))
		(line (pt 176 96)(pt 160 96)(line_width 1))
	)
	(port
		(pt 176 112)
		(output)
		(text "segment_f" (rect 0 0 53 12)(font "Arial" ))
		(text "segment_f" (rect 102 107 155 119)(font "Arial" ))
		(line (pt 176 112)(pt 160 112)(line_width 1))
	)
	(port
		(pt 176 128)
		(output)
		(text "segment_g" (rect 0 0 54 12)(font "Arial" ))
		(text "segment_g" (rect 101 123 155 135)(font "Arial" ))
		(line (pt 176 128)(pt 160 128)(line_width 1))
	)
	(drawing
		(rectangle (rect 16 16 160 144)(line_width 1))
	)
)
(symbol
	(rect 1808 168 1984 328)
	(text "dec_7seg_HEX" (rect 5 0 79 12)(font "Arial" ))
	(text "inst22" (rect 8 144 37 156)(font "Arial" ))
	(port
		(pt 0 32)
		(input)
		(text "hex_digit[3..0]" (rect 0 0 69 12)(font "Arial" ))
		(text "hex_digit[3..0]" (rect 21 27 90 39)(font "Arial" ))
		(line (pt 0 32)(pt 16 32)(line_width 3))
	)
	(port
		(pt 176 32)
		(output)
		(text "segment_a" (rect 0 0 54 12)(font "Arial" ))
		(text "segment_a" (rect 101 27 155 39)(font "Arial" ))
		(line (pt 176 32)(pt 160 32)(line_width 1))
	)
	(port
		(pt 176 48)
		(output)
		(text "segment_b" (rect 0 0 54 12)(font "Arial" ))
		(text "segment_b" (rect 101 43 155 55)(font "Arial" ))
		(line (pt 176 48)(pt 160 48)(line_width 1))
	)
	(port
		(pt 176 64)
		(output)
		(text "segment_c" (rect 0 0 54 12)(font "Arial" ))
		(text "segment_c" (rect 101 59 155 71)(font "Arial" ))
		(line (pt 176 64)(pt 160 64)(line_width 1))
	)
	(port
		(pt 176 80)
		(output)
		(text "segment_d" (rect 0 0 54 12)(font "Arial" ))
		(text "segment_d" (rect 101 75 155 87)(font "Arial" ))
		(line (pt 176 80)(pt 160 80)(line_width 1))
	)
	(port
		(pt 176 96)
		(output)
		(text "segment_e" (rect 0 0 54 12)(font "Arial" ))
		(text "segment_e" (rect 101 91 155 103)(font "Arial" ))
		(line (pt 176 96)(pt 160 96)(line_width 1))
	)
	(port
		(pt 176 112)
		(output)
		(text "segment_f" (rect 0 0 53 12)(font "Arial" ))
		(text "segment_f" (rect 102 107 155 119)(font "Arial" ))
		(line (pt 176 112)(pt 160 112)(line_width 1))
	)
	(port
		(pt 176 128)
		(output)
		(text "segment_g" (rect 0 0 54 12)(font "Arial" ))
		(text "segment_g" (rect 101 123 155 135)(font "Arial" ))
		(line (pt 176 128)(pt 160 128)(line_width 1))
	)
	(drawing
		(rectangle (rect 16 16 160 144)(line_width 1))
	)
)
(symbol
	(rect 1464 -104 1624 72)
	(text "dec_7seg_HEX" (rect 0 97 12 171)(font "Arial" )(vertical))
	(text "inst20" (rect 144 139 156 168)(font "Arial" )(vertical))
	(port
		(pt 32 176)
		(input)
		(text "hex_digit[3..0]" (rect 0 0 69 12)(font "Arial" ))
		(text "hex_digit[3..0]" (rect 27 86 39 155)(font "Arial" )(vertical))
		(line (pt 32 176)(pt 32 160)(line_width 3))
	)
	(port
		(pt 32 0)
		(output)
		(text "segment_a" (rect 0 0 54 12)(font "Arial" ))
		(text "segment_a" (rect 27 21 39 75)(font "Arial" )(vertical))
		(line (pt 32 0)(pt 32 16)(line_width 1))
	)
	(port
		(pt 48 0)
		(output)
		(text "segment_b" (rect 0 0 54 12)(font "Arial" ))
		(text "segment_b" (rect 43 21 55 75)(font "Arial" )(vertical))
		(line (pt 48 0)(pt 48 16)(line_width 1))
	)
	(port
		(pt 64 0)
		(output)
		(text "segment_c" (rect 0 0 54 12)(font "Arial" ))
		(text "segment_c" (rect 59 21 71 75)(font "Arial" )(vertical))
		(line (pt 64 0)(pt 64 16)(line_width 1))
	)
	(port
		(pt 80 0)
		(output)
		(text "segment_d" (rect 0 0 54 12)(font "Arial" ))
		(text "segment_d" (rect 75 21 87 75)(font "Arial" )(vertical))
		(line (pt 80 0)(pt 80 16)(line_width 1))
	)
	(port
		(pt 96 0)
		(output)
		(text "segment_e" (rect 0 0 54 12)(font "Arial" ))
		(text "segment_e" (rect 91 21 103 75)(font "Arial" )(vertical))
		(line (pt 96 0)(pt 96 16)(line_width 1))
	)
	(port
		(pt 112 0)
		(output)
		(text "segment_f" (rect 0 0 53 12)(font "Arial" ))
		(text "segment_f" (rect 107 21 119 74)(font "Arial" )(vertical))
		(line (pt 112 0)(pt 112 16)(line_width 1))
	)
	(port
		(pt 128 0)
		(output)
		(text "segment_g" (rect 0 0 54 12)(font "Arial" ))
		(text "segment_g" (rect 123 21 135 75)(font "Arial" )(vertical))
		(line (pt 128 0)(pt 128 16)(line_width 1))
	)
	(drawing
		(rectangle (rect 16 16 144 160)(line_width 1))
	)
	(rotate90)
)
(symbol
	(rect 1152 -104 1312 72)
	(text "dec_7seg_HEX" (rect 0 97 12 171)(font "Arial" )(vertical))
	(text "inst19" (rect 144 139 156 168)(font "Arial" )(vertical))
	(port
		(pt 32 176)
		(input)
		(text "hex_digit[3..0]" (rect 0 0 69 12)(font "Arial" ))
		(text "hex_digit[3..0]" (rect 27 86 39 155)(font "Arial" )(vertical))
		(line (pt 32 176)(pt 32 160)(line_width 3))
	)
	(port
		(pt 32 0)
		(output)
		(text "segment_a" (rect 0 0 54 12)(font "Arial" ))
		(text "segment_a" (rect 27 21 39 75)(font "Arial" )(vertical))
		(line (pt 32 0)(pt 32 16)(line_width 1))
	)
	(port
		(pt 48 0)
		(output)
		(text "segment_b" (rect 0 0 54 12)(font "Arial" ))
		(text "segment_b" (rect 43 21 55 75)(font "Arial" )(vertical))
		(line (pt 48 0)(pt 48 16)(line_width 1))
	)
	(port
		(pt 64 0)
		(output)
		(text "segment_c" (rect 0 0 54 12)(font "Arial" ))
		(text "segment_c" (rect 59 21 71 75)(font "Arial" )(vertical))
		(line (pt 64 0)(pt 64 16)(line_width 1))
	)
	(port
		(pt 80 0)
		(output)
		(text "segment_d" (rect 0 0 54 12)(font "Arial" ))
		(text "segment_d" (rect 75 21 87 75)(font "Arial" )(vertical))
		(line (pt 80 0)(pt 80 16)(line_width 1))
	)
	(port
		(pt 96 0)
		(output)
		(text "segment_e" (rect 0 0 54 12)(font "Arial" ))
		(text "segment_e" (rect 91 21 103 75)(font "Arial" )(vertical))
		(line (pt 96 0)(pt 96 16)(line_width 1))
	)
	(port
		(pt 112 0)
		(output)
		(text "segment_f" (rect 0 0 53 12)(font "Arial" ))
		(text "segment_f" (rect 107 21 119 74)(font "Arial" )(vertical))
		(line (pt 112 0)(pt 112 16)(line_width 1))
	)
	(port
		(pt 128 0)
		(output)
		(text "segment_g" (rect 0 0 54 12)(font "Arial" ))
		(text "segment_g" (rect 123 21 135 75)(font "Arial" )(vertical))
		(line (pt 128 0)(pt 128 16)(line_width 1))
	)
	(drawing
		(rectangle (rect 16 16 144 160)(line_width 1))
	)
	(rotate90)
)
(symbol
	(rect 840 -104 1000 72)
	(text "dec_7seg_HEX" (rect 0 97 12 171)(font "Arial" )(vertical))
	(text "inst18" (rect 144 139 156 168)(font "Arial" )(vertical))
	(port
		(pt 32 176)
		(input)
		(text "hex_digit[3..0]" (rect 0 0 69 12)(font "Arial" ))
		(text "hex_digit[3..0]" (rect 27 86 39 155)(font "Arial" )(vertical))
		(line (pt 32 176)(pt 32 160)(line_width 3))
	)
	(port
		(pt 32 0)
		(output)
		(text "segment_a" (rect 0 0 54 12)(font "Arial" ))
		(text "segment_a" (rect 27 21 39 75)(font "Arial" )(vertical))
		(line (pt 32 0)(pt 32 16)(line_width 1))
	)
	(port
		(pt 48 0)
		(output)
		(text "segment_b" (rect 0 0 54 12)(font "Arial" ))
		(text "segment_b" (rect 43 21 55 75)(font "Arial" )(vertical))
		(line (pt 48 0)(pt 48 16)(line_width 1))
	)
	(port
		(pt 64 0)
		(output)
		(text "segment_c" (rect 0 0 54 12)(font "Arial" ))
		(text "segment_c" (rect 59 21 71 75)(font "Arial" )(vertical))
		(line (pt 64 0)(pt 64 16)(line_width 1))
	)
	(port
		(pt 80 0)
		(output)
		(text "segment_d" (rect 0 0 54 12)(font "Arial" ))
		(text "segment_d" (rect 75 21 87 75)(font "Arial" )(vertical))
		(line (pt 80 0)(pt 80 16)(line_width 1))
	)
	(port
		(pt 96 0)
		(output)
		(text "segment_e" (rect 0 0 54 12)(font "Arial" ))
		(text "segment_e" (rect 91 21 103 75)(font "Arial" )(vertical))
		(line (pt 96 0)(pt 96 16)(line_width 1))
	)
	(port
		(pt 112 0)
		(output)
		(text "segment_f" (rect 0 0 53 12)(font "Arial" ))
		(text "segment_f" (rect 107 21 119 74)(font "Arial" )(vertical))
		(line (pt 112 0)(pt 112 16)(line_width 1))
	)
	(port
		(pt 128 0)
		(output)
		(text "segment_g" (rect 0 0 54 12)(font "Arial" ))
		(text "segment_g" (rect 123 21 135 75)(font "Arial" )(vertical))
		(line (pt 128 0)(pt 128 16)(line_width 1))
	)
	(drawing
		(rectangle (rect 16 16 144 160)(line_width 1))
	)
	(rotate90)
)
(symbol
	(rect 528 -104 688 72)
	(text "dec_7seg_HEX" (rect 0 97 12 171)(font "Arial" )(vertical))
	(text "inst17" (rect 144 139 156 168)(font "Arial" )(vertical))
	(port
		(pt 32 176)
		(input)
		(text "hex_digit[3..0]" (rect 0 0 69 12)(font "Arial" ))
		(text "hex_digit[3..0]" (rect 27 86 39 155)(font "Arial" )(vertical))
		(line (pt 32 176)(pt 32 160)(line_width 3))
	)
	(port
		(pt 32 0)
		(output)
		(text "segment_a" (rect 0 0 54 12)(font "Arial" ))
		(text "segment_a" (rect 27 21 39 75)(font "Arial" )(vertical))
		(line (pt 32 0)(pt 32 16)(line_width 1))
	)
	(port
		(pt 48 0)
		(output)
		(text "segment_b" (rect 0 0 54 12)(font "Arial" ))
		(text "segment_b" (rect 43 21 55 75)(font "Arial" )(vertical))
		(line (pt 48 0)(pt 48 16)(line_width 1))
	)
	(port
		(pt 64 0)
		(output)
		(text "segment_c" (rect 0 0 54 12)(font "Arial" ))
		(text "segment_c" (rect 59 21 71 75)(font "Arial" )(vertical))
		(line (pt 64 0)(pt 64 16)(line_width 1))
	)
	(port
		(pt 80 0)
		(output)
		(text "segment_d" (rect 0 0 54 12)(font "Arial" ))
		(text "segment_d" (rect 75 21 87 75)(font "Arial" )(vertical))
		(line (pt 80 0)(pt 80 16)(line_width 1))
	)
	(port
		(pt 96 0)
		(output)
		(text "segment_e" (rect 0 0 54 12)(font "Arial" ))
		(text "segment_e" (rect 91 21 103 75)(font "Arial" )(vertical))
		(line (pt 96 0)(pt 96 16)(line_width 1))
	)
	(port
		(pt 112 0)
		(output)
		(text "segment_f" (rect 0 0 53 12)(font "Arial" ))
		(text "segment_f" (rect 107 21 119 74)(font "Arial" )(vertical))
		(line (pt 112 0)(pt 112 16)(line_width 1))
	)
	(port
		(pt 128 0)
		(output)
		(text "segment_g" (rect 0 0 54 12)(font "Arial" ))
		(text "segment_g" (rect 123 21 135 75)(font "Arial" )(vertical))
		(line (pt 128 0)(pt 128 16)(line_width 1))
	)
	(drawing
		(rectangle (rect 16 16 144 160)(line_width 1))
	)
	(rotate90)
)
(symbol
	(rect 216 -104 376 72)
	(text "dec_7seg_HEX" (rect 0 97 12 171)(font "Arial" )(vertical))
	(text "inst16" (rect 144 139 156 168)(font "Arial" )(vertical))
	(port
		(pt 32 176)
		(input)
		(text "hex_digit[3..0]" (rect 0 0 69 12)(font "Arial" ))
		(text "hex_digit[3..0]" (rect 27 86 39 155)(font "Arial" )(vertical))
		(line (pt 32 176)(pt 32 160)(line_width 3))
	)
	(port
		(pt 32 0)
		(output)
		(text "segment_a" (rect 0 0 54 12)(font "Arial" ))
		(text "segment_a" (rect 27 21 39 75)(font "Arial" )(vertical))
		(line (pt 32 0)(pt 32 16)(line_width 1))
	)
	(port
		(pt 48 0)
		(output)
		(text "segment_b" (rect 0 0 54 12)(font "Arial" ))
		(text "segment_b" (rect 43 21 55 75)(font "Arial" )(vertical))
		(line (pt 48 0)(pt 48 16)(line_width 1))
	)
	(port
		(pt 64 0)
		(output)
		(text "segment_c" (rect 0 0 54 12)(font "Arial" ))
		(text "segment_c" (rect 59 21 71 75)(font "Arial" )(vertical))
		(line (pt 64 0)(pt 64 16)(line_width 1))
	)
	(port
		(pt 80 0)
		(output)
		(text "segment_d" (rect 0 0 54 12)(font "Arial" ))
		(text "segment_d" (rect 75 21 87 75)(font "Arial" )(vertical))
		(line (pt 80 0)(pt 80 16)(line_width 1))
	)
	(port
		(pt 96 0)
		(output)
		(text "segment_e" (rect 0 0 54 12)(font "Arial" ))
		(text "segment_e" (rect 91 21 103 75)(font "Arial" )(vertical))
		(line (pt 96 0)(pt 96 16)(line_width 1))
	)
	(port
		(pt 112 0)
		(output)
		(text "segment_f" (rect 0 0 53 12)(font "Arial" ))
		(text "segment_f" (rect 107 21 119 74)(font "Arial" )(vertical))
		(line (pt 112 0)(pt 112 16)(line_width 1))
	)
	(port
		(pt 128 0)
		(output)
		(text "segment_g" (rect 0 0 54 12)(font "Arial" ))
		(text "segment_g" (rect 123 21 135 75)(font "Arial" )(vertical))
		(line (pt 128 0)(pt 128 16)(line_width 1))
	)
	(drawing
		(rectangle (rect 16 16 144 160)(line_width 1))
	)
	(rotate90)
)
(symbol
	(rect -96 -104 64 72)
	(text "dec_7seg_HEX" (rect 0 97 12 171)(font "Arial" )(vertical))
	(text "inst15" (rect 144 139 156 168)(font "Arial" )(vertical))
	(port
		(pt 32 176)
		(input)
		(text "hex_digit[3..0]" (rect 0 0 69 12)(font "Arial" ))
		(text "hex_digit[3..0]" (rect 27 86 39 155)(font "Arial" )(vertical))
		(line (pt 32 176)(pt 32 160)(line_width 3))
	)
	(port
		(pt 32 0)
		(output)
		(text "segment_a" (rect 0 0 54 12)(font "Arial" ))
		(text "segment_a" (rect 27 21 39 75)(font "Arial" )(vertical))
		(line (pt 32 0)(pt 32 16)(line_width 1))
	)
	(port
		(pt 48 0)
		(output)
		(text "segment_b" (rect 0 0 54 12)(font "Arial" ))
		(text "segment_b" (rect 43 21 55 75)(font "Arial" )(vertical))
		(line (pt 48 0)(pt 48 16)(line_width 1))
	)
	(port
		(pt 64 0)
		(output)
		(text "segment_c" (rect 0 0 54 12)(font "Arial" ))
		(text "segment_c" (rect 59 21 71 75)(font "Arial" )(vertical))
		(line (pt 64 0)(pt 64 16)(line_width 1))
	)
	(port
		(pt 80 0)
		(output)
		(text "segment_d" (rect 0 0 54 12)(font "Arial" ))
		(text "segment_d" (rect 75 21 87 75)(font "Arial" )(vertical))
		(line (pt 80 0)(pt 80 16)(line_width 1))
	)
	(port
		(pt 96 0)
		(output)
		(text "segment_e" (rect 0 0 54 12)(font "Arial" ))
		(text "segment_e" (rect 91 21 103 75)(font "Arial" )(vertical))
		(line (pt 96 0)(pt 96 16)(line_width 1))
	)
	(port
		(pt 112 0)
		(output)
		(text "segment_f" (rect 0 0 53 12)(font "Arial" ))
		(text "segment_f" (rect 107 21 119 74)(font "Arial" )(vertical))
		(line (pt 112 0)(pt 112 16)(line_width 1))
	)
	(port
		(pt 128 0)
		(output)
		(text "segment_g" (rect 0 0 54 12)(font "Arial" ))
		(text "segment_g" (rect 123 21 135 75)(font "Arial" )(vertical))
		(line (pt 128 0)(pt 128 16)(line_width 1))
	)
	(drawing
		(rectangle (rect 16 16 144 160)(line_width 1))
	)
	(rotate90)
)
(symbol
	(rect -48 80 80 176)
	(text "compare" (rect 39 1 98 17)(font "Arial" (font_size 10)))
	(text "inst1" (rect 8 80 31 92)(font "Arial" ))
	(port
		(pt 0 48)
		(input)
		(text "dataa[0]" (rect 0 0 46 14)(font "Arial" (font_size 8)))
		(text "dataa[0]" (rect 20 42 66 56)(font "Arial" (font_size 8)))
		(line (pt 0 48)(pt 16 48)(line_width 1))
	)
	(port
		(pt 128 56)
		(output)
		(text "aeb" (rect 0 0 21 14)(font "Arial" (font_size 8)))
		(text "aeb" (rect 91 50 112 64)(font "Arial" (font_size 8)))
		(line (pt 128 56)(pt 112 56)(line_width 1))
	)
	(drawing
		(text "compare" (rect 76 17 118 29)(font "Arial" ))
		(text "datab[]=0" (rect 20 58 73 72)(font "Arial" (font_size 8)))
		(line (pt 16 16)(pt 112 16)(line_width 1))
		(line (pt 112 16)(pt 112 80)(line_width 1))
		(line (pt 112 80)(pt 16 80)(line_width 1))
		(line (pt 16 80)(pt 16 16)(line_width 1))
	)
)
(symbol
	(rect 264 80 392 176)
	(text "compare" (rect 39 1 98 17)(font "Arial" (font_size 10)))
	(text "inst2" (rect 8 80 31 92)(font "Arial" ))
	(port
		(pt 0 48)
		(input)
		(text "dataa[0]" (rect 0 0 46 14)(font "Arial" (font_size 8)))
		(text "dataa[0]" (rect 20 42 66 56)(font "Arial" (font_size 8)))
		(line (pt 0 48)(pt 16 48)(line_width 1))
	)
	(port
		(pt 128 56)
		(output)
		(text "aeb" (rect 0 0 21 14)(font "Arial" (font_size 8)))
		(text "aeb" (rect 91 50 112 64)(font "Arial" (font_size 8)))
		(line (pt 128 56)(pt 112 56)(line_width 1))
	)
	(drawing
		(text "compare" (rect 76 17 118 29)(font "Arial" ))
		(text "datab[]=0" (rect 20 58 73 72)(font "Arial" (font_size 8)))
		(line (pt 16 16)(pt 112 16)(line_width 1))
		(line (pt 112 16)(pt 112 80)(line_width 1))
		(line (pt 112 80)(pt 16 80)(line_width 1))
		(line (pt 16 80)(pt 16 16)(line_width 1))
	)
)
(symbol
	(rect 576 80 704 176)
	(text "compare" (rect 39 1 98 17)(font "Arial" (font_size 10)))
	(text "inst7" (rect 8 80 31 92)(font "Arial" ))
	(port
		(pt 0 48)
		(input)
		(text "dataa[0]" (rect 0 0 46 14)(font "Arial" (font_size 8)))
		(text "dataa[0]" (rect 20 42 66 56)(font "Arial" (font_size 8)))
		(line (pt 0 48)(pt 16 48)(line_width 1))
	)
	(port
		(pt 128 56)
		(output)
		(text "aeb" (rect 0 0 21 14)(font "Arial" (font_size 8)))
		(text "aeb" (rect 91 50 112 64)(font "Arial" (font_size 8)))
		(line (pt 128 56)(pt 112 56)(line_width 1))
	)
	(drawing
		(text "compare" (rect 76 17 118 29)(font "Arial" ))
		(text "datab[]=0" (rect 20 58 73 72)(font "Arial" (font_size 8)))
		(line (pt 16 16)(pt 112 16)(line_width 1))
		(line (pt 112 16)(pt 112 80)(line_width 1))
		(line (pt 112 80)(pt 16 80)(line_width 1))
		(line (pt 16 80)(pt 16 16)(line_width 1))
	)
)
(symbol
	(rect 888 80 1016 176)
	(text "compare" (rect 39 1 98 17)(font "Arial" (font_size 10)))
	(text "inst9" (rect 8 80 31 92)(font "Arial" ))
	(port
		(pt 0 48)
		(input)
		(text "dataa[0]" (rect 0 0 46 14)(font "Arial" (font_size 8)))
		(text "dataa[0]" (rect 20 42 66 56)(font "Arial" (font_size 8)))
		(line (pt 0 48)(pt 16 48)(line_width 1))
	)
	(port
		(pt 128 56)
		(output)
		(text "aeb" (rect 0 0 21 14)(font "Arial" (font_size 8)))
		(text "aeb" (rect 91 50 112 64)(font "Arial" (font_size 8)))
		(line (pt 128 56)(pt 112 56)(line_width 1))
	)
	(drawing
		(text "compare" (rect 76 17 118 29)(font "Arial" ))
		(text "datab[]=0" (rect 20 58 73 72)(font "Arial" (font_size 8)))
		(line (pt 16 16)(pt 112 16)(line_width 1))
		(line (pt 112 16)(pt 112 80)(line_width 1))
		(line (pt 112 80)(pt 16 80)(line_width 1))
		(line (pt 16 80)(pt 16 16)(line_width 1))
	)
)
(symbol
	(rect 1200 80 1328 176)
	(text "compare" (rect 39 1 98 17)(font "Arial" (font_size 10)))
	(text "inst11" (rect 8 80 37 92)(font "Arial" ))
	(port
		(pt 0 48)
		(input)
		(text "dataa[0]" (rect 0 0 46 14)(font "Arial" (font_size 8)))
		(text "dataa[0]" (rect 20 42 66 56)(font "Arial" (font_size 8)))
		(line (pt 0 48)(pt 16 48)(line_width 1))
	)
	(port
		(pt 128 56)
		(output)
		(text "aeb" (rect 0 0 21 14)(font "Arial" (font_size 8)))
		(text "aeb" (rect 91 50 112 64)(font "Arial" (font_size 8)))
		(line (pt 128 56)(pt 112 56)(line_width 1))
	)
	(drawing
		(text "compare" (rect 76 17 118 29)(font "Arial" ))
		(text "datab[]=0" (rect 20 58 73 72)(font "Arial" (font_size 8)))
		(line (pt 16 16)(pt 112 16)(line_width 1))
		(line (pt 112 16)(pt 112 80)(line_width 1))
		(line (pt 112 80)(pt 16 80)(line_width 1))
		(line (pt 16 80)(pt 16 16)(line_width 1))
	)
)
(symbol
	(rect 1512 80 1640 176)
	(text "compare" (rect 39 1 98 17)(font "Arial" (font_size 10)))
	(text "inst13" (rect 8 80 37 92)(font "Arial" ))
	(port
		(pt 0 48)
		(input)
		(text "dataa[0]" (rect 0 0 46 14)(font "Arial" (font_size 8)))
		(text "dataa[0]" (rect 20 42 66 56)(font "Arial" (font_size 8)))
		(line (pt 0 48)(pt 16 48)(line_width 1))
	)
	(port
		(pt 128 56)
		(output)
		(text "aeb" (rect 0 0 21 14)(font "Arial" (font_size 8)))
		(text "aeb" (rect 91 50 112 64)(font "Arial" (font_size 8)))
		(line (pt 128 56)(pt 112 56)(line_width 1))
	)
	(drawing
		(text "compare" (rect 76 17 118 29)(font "Arial" ))
		(text "datab[]=0" (rect 20 58 73 72)(font "Arial" (font_size 8)))
		(line (pt 16 16)(pt 112 16)(line_width 1))
		(line (pt 112 16)(pt 112 80)(line_width 1))
		(line (pt 112 80)(pt 16 80)(line_width 1))
		(line (pt 16 80)(pt 16 16)(line_width 1))
	)
)
(symbol
	(rect 1664 88 1792 184)
	(text "mod10and4" (rect 5 0 71 14)(font "Arial" (font_size 8)))
	(text "inst14" (rect 8 80 37 92)(font "Arial" ))
	(port
		(pt 0 32)
		(input)
		(text "clock" (rect 0 0 29 14)(font "Arial" (font_size 8)))
		(text "clock" (rect 21 27 50 41)(font "Arial" (font_size 8)))
		(line (pt 0 32)(pt 16 32)(line_width 1))
	)
	(port
		(pt 0 48)
		(input)
		(text "aclr" (rect 0 0 21 14)(font "Arial" (font_size 8)))
		(text "aclr" (rect 21 43 42 57)(font "Arial" (font_size 8)))
		(line (pt 0 48)(pt 16 48)(line_width 1))
	)
	(port
		(pt 128 32)
		(output)
		(text "h1[3..0]" (rect 0 0 42 14)(font "Arial" (font_size 8)))
		(text "h1[3..0]" (rect 65 27 107 41)(font "Arial" (font_size 8)))
		(line (pt 128 32)(pt 112 32)(line_width 3))
	)
	(port
		(pt 128 48)
		(output)
		(text "h[3..0]" (rect 0 0 35 14)(font "Arial" (font_size 8)))
		(text "h[3..0]" (rect 72 43 107 57)(font "Arial" (font_size 8)))
		(line (pt 128 48)(pt 112 48)(line_width 3))
	)
	(drawing
		(rectangle (rect 16 16 112 80)(line_width 1))
	)
)
(symbol
	(rect -216 104 -80 200)
	(text "newmod10" (rect 5 0 56 12)(font "Arial" ))
	(text "inst" (rect 8 80 25 92)(font "Arial" ))
	(port
		(pt 0 32)
		(input)
		(text "clock" (rect 0 0 25 12)(font "Arial" ))
		(text "clock" (rect 21 27 46 39)(font "Arial" ))
		(line (pt 0 32)(pt 16 32)(line_width 1))
	)
	(port
		(pt 0 48)
		(input)
		(text "aclr" (rect 0 0 17 12)(font "Arial" ))
		(text "aclr" (rect 21 43 38 55)(font "Arial" ))
		(line (pt 0 48)(pt 16 48)(line_width 1))
	)
	(port
		(pt 136 32)
		(output)
		(text "output[3..0]" (rect 0 0 56 12)(font "Arial" ))
		(text "output[3..0]" (rect 59 27 115 39)(font "Arial" ))
		(line (pt 136 32)(pt 120 32)(line_width 3))
	)
	(port
		(pt 136 48)
		(output)
		(text "cout" (rect 0 0 21 12)(font "Arial" ))
		(text "cout" (rect 94 43 115 55)(font "Arial" ))
		(line (pt 136 48)(pt 120 48)(line_width 1))
	)
	(drawing
		(rectangle (rect 16 16 120 80)(line_width 1))
	)
)
(symbol
	(rect -376 80 -256 176)
	(text "OneHundredHz" (rect 5 0 79 12)(font "Arial" ))
	(text "inst23" (rect 8 80 37 92)(font "Arial" ))
	(port
		(pt 0 32)
		(input)
		(text "clk_in" (rect 0 0 28 12)(font "Arial" ))
		(text "clk_in" (rect 21 27 49 39)(font "Arial" ))
		(line (pt 0 32)(pt 16 32)(line_width 1))
	)
	(port
		(pt 0 48)
		(input)
		(text "clk_en" (rect 0 0 31 12)(font "Arial" ))
		(text "clk_en" (rect 21 43 52 55)(font "Arial" ))
		(line (pt 0 48)(pt 16 48)(line_width 1))
	)
	(port
		(pt 0 64)
		(input)
		(text "reset" (rect 0 0 24 12)(font "Arial" ))
		(text "reset" (rect 21 59 45 71)(font "Arial" ))
		(line (pt 0 64)(pt 16 64)(line_width 1))
	)
	(port
		(pt 120 32)
		(output)
		(text "clk_out" (rect 0 0 35 12)(font "Arial" ))
		(text "clk_out" (rect 64 27 99 39)(font "Arial" ))
		(line (pt 120 32)(pt 104 32)(line_width 1))
	)
	(drawing
		(rectangle (rect 16 16 104 80)(line_width 1))
	)
)
(connector
	(pt -56 152)
	(pt -56 128)
)
(connector
	(pt -56 128)
	(pt -48 128)
)
(connector
	(pt 88 112)
	(pt 96 112)
)
(connector
	(pt 240 152)
	(pt 256 152)
)
(connector
	(pt 256 128)
	(pt 264 128)
)
(connector
	(pt 256 152)
	(pt 256 128)
)
(connector
	(pt 400 112)
	(pt 408 112)
)
(connector
	(pt 552 152)
	(pt 568 152)
)
(connector
	(pt 568 152)
	(pt 568 128)
)
(connector
	(pt 568 128)
	(pt 576 128)
)
(connector
	(pt 712 112)
	(pt 720 112)
)
(connector
	(pt 864 152)
	(pt 880 152)
)
(connector
	(pt 880 152)
	(pt 880 128)
)
(connector
	(pt 880 128)
	(pt 888 128)
)
(connector
	(pt 1024 112)
	(pt 1032 112)
)
(connector
	(pt 1192 152)
	(pt 1176 152)
)
(connector
	(pt 1192 128)
	(pt 1200 128)
)
(connector
	(pt 1192 152)
	(pt 1192 128)
)
(connector
	(pt 1336 112)
	(pt 1344 112)
)
(connector
	(pt 1488 152)
	(pt 1504 152)
)
(connector
	(pt 1504 152)
	(pt 1504 128)
)
(connector
	(pt 1504 128)
	(pt 1512 128)
)
(connector
	(pt 1024 136)
	(pt 1016 136)
)
(connector
	(pt 1024 112)
	(pt 1024 136)
)
(connector
	(pt 1336 136)
	(pt 1328 136)
)
(connector
	(pt 1336 112)
	(pt 1336 136)
)
(connector
	(pt 704 136)
	(pt 712 136)
)
(connector
	(pt 712 136)
	(pt 712 112)
)
(connector
	(pt 400 136)
	(pt 392 136)
)
(connector
	(pt 400 112)
	(pt 400 136)
)
(connector
	(pt 88 136)
	(pt 80 136)
)
(connector
	(pt 88 112)
	(pt 88 136)
)
(connector
	(pt 176 208)
	(pt 176 216)
)
(connector
	(pt 488 208)
	(pt 488 216)
)
(connector
	(pt 800 208)
	(pt 800 216)
)
(connector
	(pt 176 216)
	(pt 488 216)
)
(connector
	(pt 1112 208)
	(pt 1112 216)
)
(connector
	(pt 488 216)
	(pt 800 216)
)
(connector
	(pt 1424 208)
	(pt 1424 216)
)
(connector
	(pt 800 216)
	(pt 1112 216)
)
(connector
	(pt 1640 136)
	(pt 1648 136)
)
(connector
	(pt 1112 216)
	(pt 1424 216)
)
(connector
	(pt 1424 216)
	(pt 1656 216)
)
(connector
	(pt 1648 120)
	(pt 1664 120)
)
(connector
	(pt 1648 136)
	(pt 1648 120)
)
(connector
	(pt 1656 136)
	(pt 1664 136)
)
(connector
	(pt 1656 216)
	(pt 1656 136)
)
(connector
	(pt 1792 136)
	(pt 1800 136)
	(bus)
)
(connector
	(pt 1792 120)
	(pt 1800 120)
	(bus)
)
(connector
	(pt 1800 -8)
	(pt 1808 -8)
	(bus)
)
(connector
	(pt 1800 120)
	(pt 1800 -8)
	(bus)
)
(connector
	(pt 1800 200)
	(pt 1808 200)
	(bus)
)
(connector
	(pt 1800 136)
	(pt 1800 200)
	(bus)
)
(connector
	(pt 1488 136)
	(pt 1496 136)
	(bus)
)
(connector
	(pt 1496 136)
	(pt 1496 72)
	(bus)
)
(connector
	(pt -64 136)
	(pt -64 72)
	(bus)
)
(connector
	(pt 248 136)
	(pt 248 72)
	(bus)
)
(connector
	(pt 240 136)
	(pt 248 136)
	(bus)
)
(connector
	(pt 552 136)
	(pt 560 136)
	(bus)
)
(connector
	(pt 560 136)
	(pt 560 72)
	(bus)
)
(connector
	(pt 864 136)
	(pt 872 136)
	(bus)
)
(connector
	(pt 872 136)
	(pt 872 72)
	(bus)
)
(connector
	(pt 1176 136)
	(pt 1184 136)
	(bus)
)
(connector
	(pt 1184 136)
	(pt 1184 72)
	(bus)
)
(connector
	(pt -392 216)
	(pt -392 144)
)
(connector
	(pt -392 144)
	(pt -376 144)
)
(connector
	(pt -472 216)
	(pt -392 216)
)
(connector
	(pt -376 112)
	(pt -384 112)
)
(connector
	(pt -384 112)
	(pt -384 96)
)
(connector
	(pt -384 96)
	(pt -400 96)
)
(connector
	(pt -384 128)
	(pt -384 136)
)
(connector
	(pt -376 128)
	(pt -384 128)
)
(connector
	(pt -384 136)
	(pt -392 136)
)
(connector
	(pt -256 112)
	(pt -248 112)
)
(connector
	(pt -248 112)
	(pt -248 136)
)
(connector
	(pt -248 136)
	(pt -216 136)
)
(connector
	(pt -80 152)
	(pt -56 152)
)
(connector
	(pt -80 136)
	(pt -64 136)
	(bus)
)
(connector
	(pt -216 152)
	(pt -232 152)
)
(connector
	(pt -232 152)
	(pt -232 216)
)
(connector
	(pt -392 216)
	(pt -232 216)
)
(connector
	(pt -232 216)
	(pt 176 216)
)
(junction (pt 176 216))
(junction (pt 488 216))
(junction (pt 800 216))
(junction (pt 1112 216))
(junction (pt 1424 216))
(junction (pt -392 216))
(junction (pt -232 216))
