Flow report for lab6
Fri Nov 07 13:01:59 2014
Quartus II Version 9.1 Build 222 10/21/2009 SJ Full Version


---------------------
; Table of Contents ;
---------------------
  1. Legal Notice
  2. Flow Summary
  3. Flow Settings
  4. Flow Non-Default Global Settings
  5. Flow Elapsed Time
  6. Flow OS Summary
  7. Flow Log



----------------
; Legal Notice ;
----------------
Copyright (C) 1991-2009 Altera Corporation
Your use of Altera Corporation's design tools, logic functions 
and other software and tools, and its AMPP partner logic 
functions, and any output files from any of the foregoing 
(including device programming or simulation files), and any 
associated documentation or information are expressly subject 
to the terms and conditions of the Altera Program License 
Subscription Agreement, Altera MegaCore Function License 
Agreement, or other applicable license agreement, including, 
without limitation, that your use is for the sole purpose of 
programming logic devices manufactured by Altera and sold by 
Altera or its authorized distributors.  Please refer to the 
applicable agreement for further details.



+-------------------------------------------------------------------------------+
; Flow Summary                                                                  ;
+------------------------------------+------------------------------------------+
; Flow Status                        ; Successful - Fri Nov 07 13:01:58 2014    ;
; Quartus II Version                 ; 9.1 Build 222 10/21/2009 SJ Full Version ;
; Revision Name                      ; lab6                                     ;
; Top-level Entity Name              ; lab6                                     ;
; Family                             ; Cyclone II                               ;
; Device                             ; EP2C35F672C6                             ;
; Timing Models                      ; Final                                    ;
; Met timing requirements            ; No                                       ;
; Total logic elements               ; 156 / 33,216 ( < 1 % )                   ;
;     Total combinational functions  ; 156 / 33,216 ( < 1 % )                   ;
;     Dedicated logic registers      ; 57 / 33,216 ( < 1 % )                    ;
; Total registers                    ; 57                                       ;
; Total pins                         ; 59 / 475 ( 12 % )                        ;
; Total virtual pins                 ; 0                                        ;
; Total memory bits                  ; 0 / 483,840 ( 0 % )                      ;
; Embedded Multiplier 9-bit elements ; 0 / 70 ( 0 % )                           ;
; Total PLLs                         ; 0 / 4 ( 0 % )                            ;
+------------------------------------+------------------------------------------+


+-----------------------------------------+
; Flow Settings                           ;
+-------------------+---------------------+
; Option            ; Setting             ;
+-------------------+---------------------+
; Start date & time ; 11/07/2014 13:01:06 ;
; Main task         ; Compilation         ;
; Revision Name     ; lab6                ;
+-------------------+---------------------+


+-----------------------------------------------------------------------------------------------------------------+
; Flow Non-Default Global Settings                                                                                ;
+------------------------------------+-----------------------------+---------------+-------------+----------------+
; Assignment Name                    ; Value                       ; Default Value ; Entity Name ; Section Id     ;
+------------------------------------+-----------------------------+---------------+-------------+----------------+
; COMPILER_SIGNATURE_ID              ; 69125600758.141538326503604 ; --            ; --          ; --             ;
; IP_TOOL_NAME                       ; LPM_COUNTER                 ; --            ; --          ; --             ;
; IP_TOOL_NAME                       ; LPM_COUNTER                 ; --            ; --          ; --             ;
; IP_TOOL_NAME                       ; LPM_COUNTER                 ; --            ; --          ; --             ;
; IP_TOOL_NAME                       ; LPM_COMPARE                 ; --            ; --          ; --             ;
; IP_TOOL_NAME                       ; LPM_COMPARE                 ; --            ; --          ; --             ;
; IP_TOOL_NAME                       ; LPM_MUX                     ; --            ; --          ; --             ;
; IP_TOOL_NAME                       ; LPM_COUNTER                 ; --            ; --          ; --             ;
; IP_TOOL_NAME                       ; LPM_MUX                     ; --            ; --          ; --             ;
; IP_TOOL_VERSION                    ; 9.1                         ; --            ; --          ; --             ;
; IP_TOOL_VERSION                    ; 9.1                         ; --            ; --          ; --             ;
; IP_TOOL_VERSION                    ; 9.1                         ; --            ; --          ; --             ;
; IP_TOOL_VERSION                    ; 9.1                         ; --            ; --          ; --             ;
; IP_TOOL_VERSION                    ; 9.1                         ; --            ; --          ; --             ;
; IP_TOOL_VERSION                    ; 9.1                         ; --            ; --          ; --             ;
; IP_TOOL_VERSION                    ; 9.1                         ; --            ; --          ; --             ;
; IP_TOOL_VERSION                    ; 9.1                         ; --            ; --          ; --             ;
; MAX_CORE_JUNCTION_TEMP             ; 85                          ; --            ; --          ; --             ;
; MIN_CORE_JUNCTION_TEMP             ; 0                           ; --            ; --          ; --             ;
; MISC_FILE                          ; mod10.bsf                   ; --            ; --          ; --             ;
; MISC_FILE                          ; mod10.cmp                   ; --            ; --          ; --             ;
; MISC_FILE                          ; mod6.bsf                    ; --            ; --          ; --             ;
; MISC_FILE                          ; mod6.cmp                    ; --            ; --          ; --             ;
; MISC_FILE                          ; mod4.bsf                    ; --            ; --          ; --             ;
; MISC_FILE                          ; mod4.cmp                    ; --            ; --          ; --             ;
; MISC_FILE                          ; compare.bsf                 ; --            ; --          ; --             ;
; MISC_FILE                          ; compare.cmp                 ; --            ; --          ; --             ;
; MISC_FILE                          ; compare2.bsf                ; --            ; --          ; --             ;
; MISC_FILE                          ; compare2.cmp                ; --            ; --          ; --             ;
; MISC_FILE                          ; muxx.bsf                    ; --            ; --          ; --             ;
; MISC_FILE                          ; muxx.cmp                    ; --            ; --          ; --             ;
; MISC_FILE                          ; mod10_2.bsf                 ; --            ; --          ; --             ;
; MISC_FILE                          ; mod10_2.cmp                 ; --            ; --          ; --             ;
; MISC_FILE                          ; mux5.bsf                    ; --            ; --          ; --             ;
; MISC_FILE                          ; mux5.cmp                    ; --            ; --          ; --             ;
; PARTITION_COLOR                    ; 16764057                    ; --            ; --          ; Top            ;
; PARTITION_NETLIST_TYPE             ; SOURCE                      ; --            ; --          ; Top            ;
; USE_GENERATED_PHYSICAL_CONSTRAINTS ; Off                         ; --            ; --          ; eda_blast_fpga ;
+------------------------------------+-----------------------------+---------------+-------------+----------------+


+-----------------------------------------------------------------------------------------------------------------------------+
; Flow Elapsed Time                                                                                                           ;
+-------------------------+--------------+-------------------------+---------------------+------------------------------------+
; Module Name             ; Elapsed Time ; Average Processors Used ; Peak Virtual Memory ; Total CPU Time (on all processors) ;
+-------------------------+--------------+-------------------------+---------------------+------------------------------------+
; Analysis & Synthesis    ; 00:00:11     ; 1.0                     ; 229 MB              ; 00:00:05                           ;
; Fitter                  ; 00:00:09     ; 2.0                     ; 272 MB              ; 00:00:09                           ;
; Assembler               ; 00:00:12     ; 1.0                     ; 239 MB              ; 00:00:03                           ;
; Classic Timing Analyzer ; 00:00:02     ; 1.0                     ; 148 MB              ; 00:00:01                           ;
; Total                   ; 00:00:34     ; --                      ; --                  ; 00:00:18                           ;
+-------------------------+--------------+-------------------------+---------------------+------------------------------------+


+------------------------------------------------------------------------------------------+
; Flow OS Summary                                                                          ;
+-------------------------+------------------+---------------+------------+----------------+
; Module Name             ; Machine Hostname ; OS Name       ; OS Version ; Processor type ;
+-------------------------+------------------+---------------+------------+----------------+
; Analysis & Synthesis    ; admin-PC         ; Windows Vista ; 6.0        ; i686           ;
; Fitter                  ; admin-PC         ; Windows Vista ; 6.0        ; i686           ;
; Assembler               ; admin-PC         ; Windows Vista ; 6.0        ; i686           ;
; Classic Timing Analyzer ; admin-PC         ; Windows Vista ; 6.0        ; i686           ;
+-------------------------+------------------+---------------+------------+----------------+


------------
; Flow Log ;
------------
quartus_map --read_settings_files=on --write_settings_files=off lab6 -c lab6
quartus_fit --read_settings_files=off --write_settings_files=off lab6 -c lab6
quartus_asm --read_settings_files=off --write_settings_files=off lab6 -c lab6
quartus_tan --read_settings_files=off --write_settings_files=off lab6 -c lab6 --timing_analysis_only



